<?xml version="1.0" encoding="utf-8"?>
<COLLADA xmlns="http://www.collada.org/2005/11/COLLADASchema" version="1.4.1" xmlns:xsi="http://www.w3.org/2001/XMLSchema-instance">
  <asset>
    <contributor>
      <author>Blender User</author>
      <authoring_tool>Blender 2.79.0 commit date:2018-03-22, commit time:14:10, hash:f4dc9f9d68b</authoring_tool>
    </contributor>
    <created>2018-10-31T09:52:34</created>
    <modified>2018-10-31T09:52:34</modified>
    <unit name="meter" meter="1"/>
    <up_axis>Z_UP</up_axis>
  </asset>
  <library_images/>
  <library_geometries>
    <geometry id="Mouse001LLegDigit42_ncl1_1Mesh-mesh" name="Mouse001LLegDigit42_ncl1_1Mesh">
      <mesh>
        <source id="Mouse001LLegDigit42_ncl1_1Mesh-mesh-positions">
          <float_array id="Mouse001LLegDigit42_ncl1_1Mesh-mesh-positions-array" count="798">1.672203 -0.07600998 -0.08990597 1.674418 0.08649498 -0.05285298 1.67678 0.02911496 0.104678 1.668811 -0.097139 0.07096397 0.126268 -0.04881399 0.04267495 1.669135 -0.09397399 -0.06004899 1.640866 -0.115419 -0.06815797 1.656924 -0.082273 -0.10787 1.685946 -0.02345597 -0.09207898 1.693104 -0.03391897 -0.05586695 1.676327 0.08977097 -0.01823794 1.692204 0.03174197 -0.04100495 1.68356 0.04123699 -0.07929098 1.66182 0.107184 -0.065885 1.654186 0.124741 -0.01105296 1.682257 -0.01419299 0.101095 1.692897 8.51e-4 0.05690199 1.679321 0.05679398 0.07375198 0.133343 -0.004224956 0.04818296 0.1261579 -0.04369097 -0.03300398 1.654785 -0.112887 0.08788096 1.644896 -0.132221 0.03568994 1.669119 -0.105991 0.03277897 1.679612 -0.062505 0.08800399 1.662955 -0.07175898 0.1263689 1.689872 -0.05574798 0.04281699 0.131875 0.007942974 -0.02318698 0.171293 0.117234 0.03636199 0.157594 0.1253769 -0.01884496 0.138371 0.115277 -0.08992499 0.138207 -8.22e-4 0.01430499 0.131494 -0.04836595 0.006265997 0.1596249 -0.1662189 -0.01391899 0.146257 -0.165479 0.05241495 0.119675 -0.1206099 0.116577 0.103401 -0.05929297 0.141897 0.108496 -1.35e-4 0.146411 0.140977 0.05534297 0.131184 0.173132 0.102919 0.08024996 0.2198899 0.112352 0.09724998 0.222306 0.140551 0.03607797 0.218566 0.157807 -0.04051595 0.190653 0.1227959 -0.116639 0.1666 0.05026096 -0.162802 0.119682 0.03641098 -0.1346 0.118758 -0.035932 -0.1449 0.129028 -0.109405 -0.119692 0.1491619 -0.146771 -0.06680697 0.200326 -0.175819 -0.08902496 0.202397 -0.194869 -0.01439499 0.194898 -0.190547 0.07141196 0.165253 -0.137742 0.147068 0.145377 -0.07336699 0.1767809 0.148793 -0.01349395 0.182445 0.185809 0.05312597 0.162496 0.167358 -0.03079599 -0.176649 0.181602 -0.114757 -0.157787 0.530716 -0.036143 0.12624 0.527524 0.02738499 0.105886 0.524693 0.07860696 0.06387096 0.523886 0.100716 0.01837295 0.526154 0.09929698 -0.03820699 0.528573 0.07334995 -0.08575898 0.529809 0.02156496 -0.119955 0.530748 -0.03471899 -0.130679 0.53206 -0.09022295 -0.112388 0.531155 -0.136212 -0.06793099 0.530182 -0.157985 -0.008497953 0.529377 -0.154498 0.04713696 0.530628 -0.126762 0.09245097 0.531172 -0.084535 0.121223 1.147816 -0.129951 -0.02321594 1.145799 -0.13437 0.03140795 1.14401 -0.111778 0.07489997 1.141179 -0.06816595 0.110982 1.139972 -0.01585799 0.123358 1.140877 0.04130798 0.111021 1.142703 0.08910995 0.07352495 1.143232 0.119511 0.01675295 1.142179 0.121862 -0.03802198 1.141517 0.100565 -0.084064 1.141465 0.05588597 -0.117974 1.142695 -0.006145954 -0.129597 1.144062 -0.06024599 -0.117424 1.146992 -0.102241 -0.08138495 1.58296 -0.070248 -0.145483 1.571885 -0.12883 -0.08773398 1.575158 -0.151258 -0.02342396 1.575137 -0.156406 0.05282098 1.584179 -0.123516 0.125595 1.590068 -0.077102 0.160588 1.586448 -0.02627599 0.174656 1.577415 0.04341095 0.163264 1.579846 0.109998 0.1190119 1.58714 0.150523 0.04916399 1.58586 0.162445 -0.01586395 1.587693 0.134128 -0.09735995 1.601842 0.07158499 -0.1442 1.601824 -0.002707958 -0.157694 1.675674 -0.01651495 -0.125622 1.668422 0.05776596 -0.118192 1.646196 0.124791 0.04208099 1.65208 0.09357398 0.09592795 1.67186 0.09285897 0.03098899 1.696909 0.016065 0.004118978 1.695207 -0.04438894 -0.01291298 1.659893 -0.113277 -0.017129 1.628163 -0.136618 -0.02246296 1.660966 0.03786098 0.13495 1.663801 -0.02122998 0.143139 2.090354 -0.4550201 -0.1165345 2.0734 -0.4935575 0.0116474 2.138133 -0.4301063 0.03175818 2.149521 -0.3896973 -0.09123998 1.702892 -0.00852108 -0.0901587 1.668931 -0.05770295 -0.09936052 1.709499 -0.0426014 -0.01875627 1.655443 -0.1098002 -0.04766869 1.747757 0.02175748 -0.0568214 2.122995 -0.4233933 -0.109754 2.125188 -0.4430532 -0.06759089 2.081667 -0.4786739 -0.08210468 2.074778 -0.4935719 -0.03146731 2.119896 -0.4589425 -0.01993489 2.107632 -0.4655321 0.02623474 2.032206 -0.4990153 0.03785002 2.016715 -0.5118021 -0.03122723 2.075905 -0.4528163 0.07559973 1.68229 -0.06320261 0.114555 1.732771 -0.02064806 0.1088821 1.705533 -0.05857235 0.03466027 1.772115 0.006455719 0.06142354 1.64255 -0.1193831 0.09626907 1.635653 -0.154877 0.01727509 2.154389 -0.4130308 -0.004150331 2.159286 -0.354267 0.02099841 2.128072 -0.3998433 0.06855732 2.105394 -0.3934203 -0.1494606 2.148018 -0.3518104 -0.1093708 2.163665 -0.3426292 -0.04470276 2.157385 -0.3971015 -0.05213451 2.110009 -0.3018378 -0.1145899 2.132811 -0.2875007 -0.03867638 2.124957 -0.3089087 0.03624743 2.086229 -0.3539468 0.08647739 2.02819 -0.4153721 0.0950306 1.97162 -0.4626132 0.05400204 1.956254 -0.4856695 -0.02881616 1.969449 -0.4619622 -0.1027793 2.024307 -0.4908312 -0.09998959 2.011886 -0.4110374 -0.1586413 2.05827 -0.4466993 -0.1469156 2.067511 -0.3548546 -0.16176 1.949503 -0.1573562 -0.09372729 1.973705 -0.1439017 -0.02265173 1.967391 -0.1613668 0.05305141 1.929666 -0.2047058 0.1017086 1.87709 -0.2587468 0.1061318 1.828646 -0.3005005 0.06298106 1.80484 -0.3170234 -0.009101986 1.815605 -0.2979211 -0.08010613 1.854252 -0.2525143 -0.1281087 1.904352 -0.1984939 -0.1341562 1.663766 -0.1682263 -0.08208519 1.701763 -0.09839111 -0.1485701 1.750571 -0.02887642 -0.1482453 1.674289 -0.07337921 -0.1288312 1.716973 -0.005828797 -0.1325916 1.779038 0.03796398 -0.08524864 1.80717 0.01322823 -0.0994724 1.823752 0.04072475 -0.002597451 1.857918 0.02265077 -0.01076942 1.818596 0.01924514 0.08157181 1.84529 0.001620709 0.08846908 1.754103 -0.02274137 0.1425736 1.781941 -0.04876011 0.1530828 1.688384 -0.07945525 0.1566671 1.717134 -0.1134644 0.1673395 1.64035 -0.145943 0.1107316 1.665776 -0.1770867 0.1200012 1.632336 -0.177441 0.01681309 1.64658 -0.2034989 0.01968413 1.650007 -0.1436882 -0.07060116 1.77845 0.02169811 -7.15313e-4 2.391291 -0.3262382 -0.1180349 2.405454 -0.2964591 -0.08399832 2.405053 -0.3118789 0.009492635 2.396033 -0.3439213 0.03146362 2.194366 -0.4127609 -0.05501323 2.196054 -0.42346 -0.01917797 2.39508 -0.2878584 -0.03440415 2.421814 -0.2777663 -0.03311419 2.430154 -0.2898992 -0.07027769 2.436364 -0.3461403 -0.09376746 2.414284 -0.3708757 -0.1218776 2.448899 -0.3306732 -0.0751515 2.431864 -0.2991334 -0.002375781 2.433284 -0.3551689 0.009756028 2.446047 -0.3341677 -0.005828082 2.412354 -0.3823004 0.02954798 2.734969 -0.3143448 -0.03157877 2.613119 -0.2977822 -0.03638458 2.612718 -0.2884722 -0.05148845 2.612375 -0.270306 -0.05276268 2.614127 -0.2541622 -0.04570192 2.614636 -0.2480522 -0.03018939 2.613314 -0.2575162 -0.01647555 2.61171 -0.2749053 -0.01341503 2.61221 -0.2918344 -0.01964724 2.519872 -0.3172314 -0.01467174 2.527646 -0.3296534 -0.03744363 2.521937 -0.3166347 -0.06039327 2.509845 -0.2883898 -0.06455856 2.500913 -0.2599732 -0.05566406 2.497291 -0.2516263 -0.03013521 2.500803 -0.2630531 -0.01043212 2.507608 -0.2886381 -0.008539378 2.461083 -0.3671193 -0.01412159 2.462631 -0.3848472 -0.04178601 2.463534 -0.3656181 -0.06783449 2.443883 -0.4099469 -0.04355311 2.445848 -0.3891213 -0.0765441 2.427009 -0.442856 -0.04367572 2.423926 -0.4240549 -0.09418731 2.340723 -0.4484567 -0.09350311 2.330561 -0.4024757 -0.1210348 2.317941 -0.3505321 -0.1169346 2.3095 -0.3161036 -0.0869956 2.308233 -0.3049157 -0.03523391 2.312383 -0.3153721 0.01070207 2.321534 -0.3539648 0.03685581 2.331158 -0.4041109 0.03703826 2.340358 -0.4464102 0.006170868 2.344052 -0.4656026 -0.04333919 2.424829 -0.426447 0.002821385 2.44385 -0.391769 -0.009930253 2.232072 -0.5041845 -0.1090377 2.204031 -0.4517941 -0.1483511 2.18902 -0.3830654 -0.1547547 2.189707 -0.3153119 -0.1205708 2.197619 -0.2953897 -0.03887647 2.192474 -0.313808 0.04268592 2.194037 -0.3833701 0.08426815 2.210216 -0.4561469 0.07662636 2.232638 -0.5037766 0.03370249 2.244916 -0.5200484 -0.03582584 2.219414 -0.5229087 -0.03526574 2.206602 -0.5094972 -0.09953659 2.172886 -0.4618997 -0.1359009 2.152314 -0.3957931 -0.1359671 2.157125 -0.3366551 -0.1003171 2.173108 -0.3068315 -0.04008322 2.163368 -0.3251739 0.0338298 2.161281 -0.3925318 0.07400405 2.179741 -0.4654268 0.06821691 2.204692 -0.5100868 0.02608621 2.178416 -0.4549989 0.04238379 2.19726 -0.5014248 0.01891356 2.212241 -0.5127852 -0.03480255 2.200468 -0.5011607 -0.09157824 2.175392 -0.4542305 -0.1134728 2.163418 -0.4007281 -0.1151922 2.163235 -0.3512032 -0.09137064 2.170038 -0.3188199 -0.04076677 2.166986 -0.351096 0.01389098 2.16717 -0.4007058 0.04461777</float_array>
          <technique_common>
            <accessor source="#Mouse001LLegDigit42_ncl1_1Mesh-mesh-positions-array" count="266" stride="3">
              <param name="X" type="float"/>
              <param name="Y" type="float"/>
              <param name="Z" type="float"/>
            </accessor>
          </technique_common>
        </source>
        <source id="Mouse001LLegDigit42_ncl1_1Mesh-mesh-normals">
          <float_array id="Mouse001LLegDigit42_ncl1_1Mesh-mesh-normals-array" count="798">-0.9448534 -0.1285787 0.301197 -0.9832008 0.002960324 -0.1825037 -0.8533255 -0.4824524 0.1976748 -0.7809071 -0.6246463 -0.001129209 0.4580922 -0.8117784 -0.3621705 0.8221924 -0.4345351 -0.3676671 0.7923326 -0.5801345 -0.1888206 0.5423235 -0.5527305 -0.6327514 0.9769343 -0.1498163 -0.1521663 0.9525194 -0.1058083 -0.2855025 0.9801398 0.1675478 -0.1060831 0.915628 0.3743753 -0.1465212 0.9126832 0.4085329 -0.01049864 0.9546973 0.1937045 -0.2259021 0.6896116 0.6549723 -0.3089457 0.6683663 0.7432295 -0.02993911 0.9484164 -0.02398812 0.3161184 0.986438 0.04083448 0.1589739 0.9155024 0.2060628 0.3455337 0.9149749 0.3230795 0.241745 -0.8933597 0.3089159 0.3263119 -0.7186619 0.6244192 0.3059837 -0.955319 0.253708 -0.151651 -0.65275 0.6997194 0.2903621 -0.8040854 -0.5880715 -0.08728444 -0.9903575 -0.07526105 0.1163098 -0.8281183 -0.4461658 -0.3393472 -0.8626027 -0.1055364 -0.4947513 0.616277 -0.6973363 0.3659573 0.5454625 -0.8348723 0.07388597 0.8573713 -0.4822313 0.1799097 0.8348321 -0.5493215 0.0360741 0.930662 -0.2598431 0.2575847 0.6756073 -0.4147583 0.6095329 0.9664286 -0.2353048 0.1031862 -0.9734424 0.1437152 0.1782019 -0.7605602 0.6138866 -0.211404 -0.8799114 0.2346654 -0.4131442 -0.7499457 0.6308907 0.1988929 -0.7201214 0.648921 0.2456152 -0.9792594 0.1980676 0.04266536 -0.9985958 -0.05231028 -0.008362293 -0.7835816 -0.6108732 -0.1132874 -0.1163393 0.5504757 0.8267054 -0.06173974 0.8312135 0.5525146 -0.1135932 0.9436297 0.3109012 -0.09418284 0.9914228 -0.09061205 -0.1110892 0.7574515 -0.6433714 -0.232524 0.3691269 -0.8998212 -0.2335626 -0.04937988 -0.9710871 -0.206494 -0.5119623 -0.8338195 -0.1844582 -0.8802966 -0.4370964 -0.2001118 -0.9727868 -0.1167954 -0.1724627 -0.9380925 0.3003984 -0.2353007 -0.6635726 0.7101445 -0.3134973 -0.2756835 0.9086904 -0.2813529 0.1493285 0.9479144 0.08328777 0.09479361 0.9920068 0.08402061 -0.343804 0.9352751 0.07956516 0.4812061 0.8729891 0.06558489 0.7850658 0.6159306 0.07162839 0.9727671 0.2204397 0.07687699 0.9630226 -0.25822 0.06839436 0.7339656 -0.6757342 0.06265616 0.3690397 -0.9272993 0.0697661 -0.06277728 -0.9955861 0.07806849 -0.5193783 -0.8509709 0.0776717 -0.8387939 -0.5388802 0.07467991 -0.9870142 -0.1422184 0.08069294 -0.9514386 0.2970747 0.08475142 -0.7244618 0.684085 -0.04364216 -0.4444177 0.8947561 -0.02472037 -0.7818673 0.6229547 -0.05969595 -0.006073355 0.9981982 -0.06418198 0.429772 0.9006536 -0.06155776 0.7650933 0.6409704 -0.0637241 0.9631257 0.2613971 -0.06369262 0.9787362 -0.1949842 -0.0550878 0.7785235 -0.6251932 -0.04178118 0.4059707 -0.9129305 -0.03152573 -0.01474046 -0.9993943 -0.0213328 -0.4493932 -0.8930793 -0.0131843 -0.7919466 -0.6104481 -0.007843315 -0.9661034 -0.2580365 -0.008972585 -0.9807648 0.1949871 0.1122804 -0.9730154 -0.2015798 0.1245193 -0.9756457 0.1805835 0.1577228 -0.7656945 0.6235669 0.1773127 -0.4383075 0.8811622 0.13929 -0.05536198 0.9887028 0.1001343 0.3716962 0.9229384 0.1233298 0.71303 0.6902014 0.1619938 0.9268563 0.3386672 0.1845805 0.9799129 -0.07550466 0.1738073 0.8059535 -0.5658887 0.1814689 0.4104566 -0.8936412 0.1855252 -0.02636843 -0.9822857 0.1254322 -0.4558593 -0.8811692 0.09524941 -0.844244 -0.5274274 0.4119521 -0.8923901 -0.1842156 0.6762118 -0.05963432 0.7342897 0.6351115 0.3374545 0.6948078 0.606514 0.6115192 0.5081191 0.602235 0.7619723 0.2381411 0.6994349 0.3494428 -0.6234426 0.7246128 -0.1143852 -0.6795973 0.8811563 0.4540982 0.1317523 0.9928255 0.1161262 0.02850508 0.9743824 -0.2232775 -0.02694833 0.7489037 -0.65341 -0.110448 -0.7577629 0.6103548 0.2307867 -0.9046056 0.4205012 -0.06976813 -0.9205263 0.3873218 0.05111998 -0.7255004 0.6859171 0.05627721 -0.5567321 0.811232 0.1787512 -0.511866 0.8336898 0.207255 0.7539242 -0.6192414 -0.2194049 0.4741838 -0.8269909 -0.3020529 0.5262444 -0.6756059 -0.5163561 0.7373489 -0.4852281 -0.4699683 0.451807 -0.8865538 -0.09946221 0.7163364 -0.6968045 -0.03640884 0.4328595 -0.8769502 0.2087846 0.6138924 -0.7253789 0.3113868 -0.01754844 -0.8701605 0.4924561 -0.09329688 -0.9938855 -0.05905443 0.295091 -0.5315544 0.7939593 -0.5545982 0.818194 0.1515897 -0.7518073 0.6593345 -0.007995963 -0.7320733 0.6709731 0.1177445 -0.5029845 0.8532211 0.1379156 -0.9116972 0.4000444 0.09366309 -0.9505459 0.3071741 -0.04590058 0.9120038 0.1734098 0.3717232 0.7996377 -0.4844643 0.3547875 0.9249954 -0.3712921 0.0807833 0.6506094 -0.1301341 0.7481794 0.5218704 -0.1568968 -0.8384717 0.889663 -0.2783649 -0.3619568 0.82587 0.1756969 -0.5357885 0.9700173 0.2300525 -0.07837289 0.941936 -0.305708 -0.1389221 0.765695 0.6417567 -0.04312354 0.5773529 0.545766 -0.6072918 0.6871587 0.4982481 0.5287362 0.6757293 0.527161 0.5152584 0.7447664 0.6631574 -0.07446748 0.3940349 0.1598907 0.905081 0.365563 0.1636458 0.9162881 -0.07095754 -0.2852037 0.9558368 -0.01733469 -0.2792477 0.9600626 -0.4374354 -0.6506444 0.6207353 -0.4704816 -0.6333922 0.6143789 -0.6736779 -0.7385919 0.02530026 -0.5900532 -0.807165 -0.01794511 -0.5960088 -0.5806882 -0.5545943 -0.5142825 -0.6428914 -0.5676305 -0.06482219 -0.8609699 -0.5045086 -0.21968 -0.2867926 -0.9324649 0.1495423 -0.5504683 -0.8213536 0.2203189 0.1638276 -0.9615718 -0.2827323 -0.2543491 -0.9248616 0.1681007 0.1894032 -0.9674031 0.554316 0.5457706 -0.6283855 -0.3725165 -0.128516 -0.9190838 0.07001096 0.3284779 -0.9419134 0.4665129 0.620298 -0.6305524 0.6592425 0.7459471 -0.09467011 0.5760205 0.6079437 0.5464474 0.2696623 0.2905981 0.9180606 -0.1258592 -0.1425225 0.9817571 -0.5143433 -0.5621367 0.6476521 -0.7347013 -0.6783619 -0.00625652 -0.6916342 -0.4824837 -0.5374494 -0.7595236 0.1526249 -0.6323209 -0.4285211 0.6369373 -0.6408437 -0.004944086 0.9447529 -0.3277459 0.1305007 0.9894374 0.06311398 0.09665352 0.9018352 0.4211311 -0.1671839 0.7025206 0.6917473 -0.544637 0.3497445 0.762266 -0.8763419 -0.1282742 0.4642958 -0.968837 -0.2372269 -0.07126265 -0.9458497 -0.08060109 -0.3144389 -0.956134 -0.2366454 0.1726467 -0.9148602 -0.2153707 0.3415352 -0.8890178 -0.2182412 0.4025148 -0.9983263 0.04065084 0.04113912 -0.8842928 -0.4497609 0.1254643 -0.9142514 -0.2626447 0.3084839 -0.8889694 -0.4481776 -0.0941829 -0.9541248 -0.2320382 -0.1892196 -0.958858 -0.2276135 -0.1696572 -0.9119236 -0.4091448 -0.03155714 0.1490533 0.4815544 -0.8636484 0.05301219 0.3786851 -0.9240062 -0.01779294 0.8728619 -0.487643 0.1126152 0.8162923 -0.5665552 -0.2048469 0.9704289 0.1276936 -0.0501731 0.9987014 0.008850455 -0.008331596 0.6994577 -0.7146255 -0.3444373 0.9274109 0.1458502 0.6699836 0.2210186 -0.7087122 0.4287347 -0.0508756 -0.9019969 0.4010518 0.1805511 -0.8980862 0.03097641 0.8230887 0.5670675 0.2408581 0.3093433 0.9199424 0.153726 0.6250059 0.765334 0.1439583 0.3348854 0.931197 -0.02044796 0.4736913 0.8804536 0.6226042 0.1077654 0.7750812 0.3515517 0.04184192 0.9352329 0.4381012 -0.1468272 0.8868535 0.2776018 -0.2405211 0.9301005 0.9501926 -0.3113595 0.01376426 0.1576025 0.1916927 -0.9687184 0.2075618 0.7228499 -0.659095 -0.9580752 -0.1807625 -0.2222986 -0.9771041 -0.1368483 -0.1629117 0.1702347 0.5566964 0.8130862 0.1057173 -0.05282813 0.992992 0.1035524 -0.6609286 0.74327 0.115026 -0.9867089 -0.1147818 0.1456997 -0.4493374 -0.8814009 0.2252016 0.9681322 0.1095641 0.264818 -0.4617606 0.846551 0.07971465 -0.02978616 0.9963727 0.4965819 -0.8679121 0.01162791 0.3268879 -0.410418 -0.851294 0.1081285 0.1347105 -0.9849678 -0.07162863 0.7269072 -0.68299 -0.194101 0.9743507 0.1138665 -0.09189349 0.5647287 0.8201445 0.5949088 -0.3936353 0.7008101 0.7716132 -0.6360171 0.009766042 0.6417298 -0.3576254 -0.6784445 0.8113453 -0.3285361 -0.4835112 0.8655166 -0.500846 -0.005859613 0.5497708 -0.5856002 -0.5956715 0.5976582 -0.8017404 -0.004150569 0.3205437 -0.7118006 -0.6249733 0.3804821 -0.9246995 0.01281803 0.1863783 -0.1968156 -0.9625626 -0.1843988 0.1920897 -0.9638977 0.0037539 -0.3321759 -0.94321 -0.2647871 0.7425392 -0.6152424 -0.1591279 0.9872401 -0.005951225 -0.1382215 0.7883114 0.59955 -0.04770123 0.2208662 0.974137 0.1209481 -0.354879 0.9270558 0.3567693 -0.7199478 0.5953074 0.2783633 -0.7773176 0.5641732 0.5634843 -0.6035871 0.5640642 0.7896937 -0.3520432 0.5024436 0.3248495 -0.9456466 0.01501554 0.2135136 -0.7758945 -0.5936326 -0.3227118 -0.9464973 1.52597e-4 -0.3623858 -0.8668695 0.3423652 -0.3937574 -0.8553587 -0.3366256 -0.7262727 -0.472503 -0.4992685 -0.9231082 -0.0328384 -0.3831355 -0.9370363 0.3091307 -0.1624851 -0.7164858 0.6975643 -0.007232904 -0.8175848 0.4849537 0.3104436 -0.8210294 0.01843363 0.5705882 -0.6491509 -0.4831246 0.5875319</float_array>
          <technique_common>
            <accessor source="#Mouse001LLegDigit42_ncl1_1Mesh-mesh-normals-array" count="266" stride="3">
              <param name="X" type="float"/>
              <param name="Y" type="float"/>
              <param name="Z" type="float"/>
            </accessor>
          </technique_common>
        </source>
        <source id="Mouse001LLegDigit42_ncl1_1Mesh-mesh-map-0">
          <float_array id="Mouse001LLegDigit42_ncl1_1Mesh-mesh-map-0-array" count="3120">0.920504 0.271034 0.920152 0.268011 0.922308 0.270035 0.922308 0.270035 0.920152 0.268011 0.923633 0.267928 0.865434 0.266365 0.866723 0.265256 0.866332 0.266287 0.865434 0.266365 0.866396 0.264865 0.866723 0.265256 0.868052 0.265806 0.866332 0.266287 0.866723 0.265256 0.866723 0.265256 0.868206 0.264727 0.868052 0.265806 0.869878 0.265576 0.87139 0.264806 0.871572 0.265697 0.869878 0.265576 0.870025 0.264475 0.87139 0.264806 0.871948 0.264255 0.871572 0.265697 0.87139 0.264806 0.871572 0.265697 0.871948 0.264255 0.872592 0.265645 0.869849 0.26982 0.869758 0.268451 0.870892 0.269477 0.870892 0.269477 0.869758 0.268451 0.871275 0.26838 0.918675 0.271367 0.916544 0.271052 0.918821 0.268299 0.916544 0.271052 0.91524 0.26926 0.918821 0.268299 0.922895 0.264134 0.919986 0.265588 0.921452 0.262386 0.921452 0.262386 0.919986 0.265588 0.918939 0.261662 0.867397 0.270778 0.866136 0.269617 0.867552 0.270014 0.867552 0.270014 0.866136 0.269617 0.86688 0.269063 0.868599 0.270011 0.867397 0.270778 0.867552 0.270014 0.867397 0.270778 0.868599 0.270011 0.868945 0.271248 0.868599 0.270011 0.867552 0.270014 0.868277 0.268669 0.867552 0.270014 0.86688 0.269063 0.868277 0.268669 0.918553 0.266016 0.916011 0.264497 0.917227 0.262462 0.916011 0.264497 0.918553 0.266016 0.915496 0.266436 0.915269 0.267977 0.918553 0.266016 0.918754 0.267227 0.918553 0.266016 0.915269 0.267977 0.915496 0.266436 0.918821 0.268299 0.915269 0.267977 0.918754 0.267227 0.915269 0.267977 0.918821 0.268299 0.91524 0.26926 0.920138 0.266844 0.918553 0.266016 0.919986 0.265588 0.918553 0.266016 0.920138 0.266844 0.918754 0.267227 0.920152 0.268011 0.918821 0.268299 0.918754 0.267227 0.920152 0.268011 0.918754 0.267227 0.920138 0.266844 0.923673 0.26583 0.920138 0.266844 0.919986 0.265588 0.923673 0.26583 0.919986 0.265588 0.922895 0.264134 0.923633 0.267928 0.920152 0.268011 0.920138 0.266844 0.923633 0.267928 0.920138 0.266844 0.923673 0.26583 0.920504 0.271034 0.918821 0.268299 0.920152 0.268011 0.918821 0.268299 0.920504 0.271034 0.918675 0.271367 0.916544 0.271052 0.914918 0.271604 0.91524 0.26926 0.91524 0.26926 0.914918 0.271604 0.913788 0.269387 0.913788 0.269387 0.913622 0.267767 0.91524 0.26926 0.91524 0.26926 0.913622 0.267767 0.915269 0.267977 0.913622 0.267767 0.913677 0.265864 0.915496 0.266436 0.913622 0.267767 0.915496 0.266436 0.915269 0.267977 0.913677 0.265864 0.916011 0.264497 0.915496 0.266436 0.916011 0.264497 0.913677 0.265864 0.914528 0.26388 0.917227 0.262462 0.916011 0.264497 0.915371 0.261828 0.915371 0.261828 0.916011 0.264497 0.914528 0.26388 0.915423 0.259748 0.917059 0.25985 0.917227 0.262462 0.915423 0.259748 0.917227 0.262462 0.915371 0.261828 0.916637 0.25728 0.915423 0.259748 0.915007 0.257384 0.915423 0.259748 0.916637 0.25728 0.917059 0.25985 0.914624 0.254744 0.916637 0.25728 0.915007 0.257384 0.916637 0.25728 0.914624 0.254744 0.916388 0.255081 0.914793 0.252538 0.916388 0.255081 0.914624 0.254744 0.916388 0.255081 0.914793 0.252538 0.91651 0.253308 0.916756 0.279188 0.914813 0.281626 0.914742 0.279185 0.914813 0.281626 0.916756 0.279188 0.916847 0.281215 0.917236 0.276647 0.914742 0.279185 0.915539 0.276617 0.914742 0.279185 0.917236 0.276647 0.916756 0.279188 0.915539 0.276617 0.916141 0.274759 0.917236 0.276647 0.916141 0.274759 0.917744 0.274459 0.917236 0.276647 0.91759 0.272532 0.917744 0.274459 0.916047 0.273275 0.916047 0.273275 0.917744 0.274459 0.916141 0.274759 0.916544 0.271052 0.916047 0.273275 0.914918 0.271604 0.916047 0.273275 0.916544 0.271052 0.91759 0.272532 0.904651 0.273141 0.916047 0.273275 0.916141 0.274759 0.904651 0.273141 0.916141 0.274759 0.904695 0.274725 0.914918 0.271604 0.904651 0.273141 0.904675 0.270984 0.904651 0.273141 0.914918 0.271604 0.916047 0.273275 0.913788 0.269387 0.904675 0.270984 0.904718 0.268801 0.904675 0.270984 0.913788 0.269387 0.914918 0.271604 0.904718 0.268801 0.913622 0.267767 0.913788 0.269387 0.913622 0.267767 0.904718 0.268801 0.904716 0.267061 0.904716 0.267061 0.913677 0.265864 0.913622 0.267767 0.913677 0.265864 0.904716 0.267061 0.904644 0.26515 0.913677 0.265864 0.904644 0.26515 0.904577 0.26333 0.904577 0.26333 0.914528 0.26388 0.913677 0.265864 0.914528 0.26388 0.904548 0.261304 0.915371 0.261828 0.904548 0.261304 0.914528 0.26388 0.904577 0.26333 0.915423 0.259748 0.904548 0.261304 0.904545 0.259446 0.904548 0.261304 0.915423 0.259748 0.915371 0.261828 0.915007 0.257384 0.904545 0.259446 0.90451 0.257588 0.904545 0.259446 0.915007 0.257384 0.915423 0.259748 0.914624 0.254744 0.90451 0.257588 0.904489 0.255626 0.90451 0.257588 0.914624 0.254744 0.915007 0.257384 0.914793 0.252538 0.904489 0.255626 0.904398 0.253767 0.904489 0.255626 0.914793 0.252538 0.914624 0.254744 0.904678 0.278006 0.914742 0.279185 0.914813 0.281626 0.904678 0.278006 0.914813 0.281626 0.904411 0.279699 0.904723 0.276346 0.915539 0.276617 0.914742 0.279185 0.904723 0.276346 0.914742 0.279185 0.904678 0.278006 0.904695 0.274725 0.916141 0.274759 0.915539 0.276617 0.904695 0.274725 0.915539 0.276617 0.904723 0.276346 0.886667 0.274035 0.904723 0.276346 0.886636 0.275742 0.904723 0.276346 0.886667 0.274035 0.904695 0.274725 0.904651 0.273141 0.886667 0.274035 0.88668 0.272382 0.886667 0.274035 0.904651 0.273141 0.904695 0.274725 0.904675 0.270984 0.88668 0.272382 0.886659 0.270546 0.88668 0.272382 0.904675 0.270984 0.904651 0.273141 0.904718 0.268801 0.886659 0.270546 0.886614 0.268623 0.886659 0.270546 0.904718 0.268801 0.904675 0.270984 0.904718 0.268801 0.886614 0.268623 0.886562 0.266564 0.904718 0.268801 0.886562 0.266564 0.904716 0.267061 0.886562 0.266564 0.904644 0.26515 0.904716 0.267061 0.904644 0.26515 0.886562 0.266564 0.886508 0.264776 0.886508 0.264776 0.904577 0.26333 0.904644 0.26515 0.904577 0.26333 0.886508 0.264776 0.886405 0.263127 0.886257 0.261338 0.904548 0.261304 0.904577 0.26333 0.886257 0.261338 0.904577 0.26333 0.886405 0.263127 0.886076 0.259369 0.904545 0.259446 0.904548 0.261304 0.886076 0.259369 0.904548 0.261304 0.886257 0.261338 0.885925 0.257665 0.90451 0.257588 0.904545 0.259446 0.885925 0.257665 0.904545 0.259446 0.886076 0.259369 0.885783 0.255981 0.904489 0.255626 0.90451 0.257588 0.885783 0.255981 0.90451 0.257588 0.885925 0.257665 0.885789 0.25404 0.904398 0.253767 0.904489 0.255626 0.885789 0.25404 0.904489 0.255626 0.885783 0.255981 0.886634 0.277188 0.904678 0.278006 0.904411 0.279699 0.886634 0.277188 0.904411 0.279699 0.886667 0.278748 0.886636 0.275742 0.904723 0.276346 0.904678 0.278006 0.886636 0.275742 0.904678 0.278006 0.886634 0.277188 0.886634 0.277188 0.874325 0.280458 0.874145 0.278217 0.874325 0.280458 0.886634 0.277188 0.886667 0.278748 0.886636 0.275742 0.874145 0.278217 0.873701 0.275936 0.874145 0.278217 0.886636 0.275742 0.886634 0.277188 0.886667 0.274035 0.873701 0.275936 0.873411 0.274335 0.873701 0.275936 0.886667 0.274035 0.886636 0.275742 0.873471 0.27292 0.88668 0.272382 0.886667 0.274035 0.873471 0.27292 0.886667 0.274035 0.873411 0.274335 0.873807 0.271058 0.886659 0.270546 0.88668 0.272382 0.873807 0.271058 0.88668 0.272382 0.873471 0.27292 0.886614 0.268623 0.873807 0.271058 0.874046 0.2691 0.873807 0.271058 0.886614 0.268623 0.886659 0.270546 0.886614 0.268623 0.874046 0.2691 0.874092 0.267074 0.886614 0.268623 0.874092 0.267074 0.886562 0.266564 0.886562 0.266564 0.874092 0.267074 0.874163 0.265477 0.886562 0.266564 0.874163 0.265477 0.886508 0.264776 0.886508 0.264776 0.874163 0.265477 0.873688 0.263329 0.886508 0.264776 0.873688 0.263329 0.886405 0.263127 0.886257 0.261338 0.873688 0.263329 0.872368 0.261762 0.873688 0.263329 0.886257 0.261338 0.886405 0.263127 0.871799 0.26015 0.886076 0.259369 0.886257 0.261338 0.871799 0.26015 0.886257 0.261338 0.872368 0.261762 0.886076 0.259369 0.872119 0.258195 0.885925 0.257665 0.872119 0.258195 0.886076 0.259369 0.871799 0.26015 0.885925 0.257665 0.872376 0.25582 0.885783 0.255981 0.872376 0.25582 0.885925 0.257665 0.872119 0.258195 0.885789 0.25404 0.872376 0.25582 0.872247 0.253867 0.872376 0.25582 0.885789 0.25404 0.885783 0.255981 0.872247 0.253867 0.872376 0.25582 0.870036 0.255701 0.872247 0.253867 0.870036 0.255701 0.87052 0.254128 0.874145 0.278217 0.872694 0.280495 0.87209 0.27878 0.872694 0.280495 0.874145 0.278217 0.874325 0.280458 0.871697 0.276945 0.873701 0.275936 0.874145 0.278217 0.871697 0.276945 0.874145 0.278217 0.872109 0.278606 0.873411 0.274335 0.871606 0.276699 0.871252 0.274987 0.871606 0.276699 0.873411 0.274335 0.873701 0.275936 0.873471 0.27292 0.87115 0.274832 0.871088 0.273113 0.87115 0.274832 0.873471 0.27292 0.873411 0.274335 0.871175 0.270911 0.873807 0.271058 0.873471 0.27292 0.871175 0.270911 0.873471 0.27292 0.871073 0.272846 0.872431 0.268673 0.874046 0.2691 0.873807 0.271058 0.872431 0.268673 0.873807 0.271058 0.871448 0.270248 0.872431 0.268673 0.874092 0.267074 0.874046 0.2691 0.874092 0.267074 0.872431 0.268673 0.872909 0.26704 0.872909 0.26704 0.874163 0.265477 0.874092 0.267074 0.874163 0.265477 0.872909 0.26704 0.872592 0.265645 0.872592 0.265645 0.871948 0.264255 0.874163 0.265477 0.874163 0.265477 0.871948 0.264255 0.873688 0.263329 0.873688 0.263329 0.871948 0.264255 0.870491 0.263189 0.873688 0.263329 0.870491 0.263189 0.872368 0.261762 0.871799 0.26015 0.870201 0.262621 0.86919 0.261166 0.870201 0.262621 0.871799 0.26015 0.872368 0.261762 0.869323 0.258579 0.872119 0.258195 0.871799 0.26015 0.871799 0.26015 0.86903 0.261015 0.869323 0.258579 0.872376 0.25582 0.872119 0.258195 0.869421 0.257705 0.872376 0.25582 0.869421 0.257705 0.869924 0.25597 0.870025 0.264475 0.868206 0.264727 0.868324 0.263757 0.868324 0.263757 0.870491 0.263189 0.870025 0.264475 0.866396 0.264865 0.868206 0.264727 0.866723 0.265256 0.868206 0.264727 0.866396 0.264865 0.868324 0.263757 0.870025 0.264475 0.870491 0.263189 0.87139 0.264806 0.870491 0.263189 0.871948 0.264255 0.87139 0.264806 0.87196 0.266971 0.872431 0.268673 0.871275 0.26838 0.872431 0.268673 0.87196 0.266971 0.872909 0.26704 0.87196 0.266971 0.872592 0.265645 0.872909 0.26704 0.872592 0.265645 0.87196 0.266971 0.871572 0.265697 0.869709 0.266898 0.871275 0.26838 0.869758 0.268451 0.871275 0.26838 0.869709 0.266898 0.87196 0.266971 0.869709 0.266898 0.871572 0.265697 0.87196 0.266971 0.871572 0.265697 0.869709 0.266898 0.869878 0.265576 0.869709 0.266898 0.868277 0.268669 0.868059 0.267042 0.868277 0.268669 0.869709 0.266898 0.869758 0.268451 0.868052 0.265806 0.869709 0.266898 0.868059 0.267042 0.869709 0.266898 0.868052 0.265806 0.869878 0.265576 0.868059 0.267042 0.86688 0.269063 0.866054 0.267772 0.86688 0.269063 0.868059 0.267042 0.868277 0.268669 0.866332 0.266287 0.868059 0.267042 0.866054 0.267772 0.868059 0.267042 0.866332 0.266287 0.868052 0.265806 0.866136 0.269617 0.866054 0.267772 0.86688 0.269063 0.866054 0.267772 0.866136 0.269617 0.865079 0.268062 0.865434 0.266365 0.866054 0.267772 0.865079 0.268062 0.866054 0.267772 0.865434 0.266365 0.866332 0.266287 0.870892 0.269477 0.871275 0.26838 0.872431 0.268673 0.872431 0.268673 0.871448 0.270248 0.870892 0.269477 0.870311 0.271118 0.870892 0.269477 0.871448 0.270248 0.870892 0.269477 0.870311 0.271118 0.869849 0.26982 0.868945 0.271248 0.869849 0.26982 0.870311 0.271118 0.869849 0.26982 0.868945 0.271248 0.868599 0.270011 0.919986 0.265588 0.917227 0.262462 0.918939 0.261662 0.917227 0.262462 0.919986 0.265588 0.918553 0.266016 0.868599 0.270011 0.869758 0.268451 0.869849 0.26982 0.869758 0.268451 0.868599 0.270011 0.868277 0.268669 0.868206 0.264727 0.869878 0.265576 0.868052 0.265806 0.869878 0.265576 0.868206 0.264727 0.870025 0.264475 0 0 0 0 0 0 0 0 0 0 0 0 0 0 0 0 0 0 0 0 0 0 0 0 0 0 0 0 0 0 0 0 0 0 0 0 0 0 0 0 0 0 0 0 0 0 0 0 0 0 0 0 0 0 0 0 0 0 0 0 0 0 0 0 0 0 0 0 0 0 0 0 0 0 0 0 0 0 0 0 0 0 0 0 0 0 0 0 0 0 0 0 0 0 0 0 0 0 0 0 0 0 0 0 0 0 0 0 0 0 0 0 0 0 0 0 0 0 0 0 0 0 0 0 0 0 0 0 0 0 0 0 0 0 0 0 0 0 0 0 0 0 0 0 0 0 0 0 0 0 0 0 0 0 0 0 0 0 0 0 0 0 0 0 0 0 0 0 0 0 0 0 0 0 0 0 0 0 0 0 0 0 0 0 0 0 0 0 0 0 0 0 0 0 0 0 0 0 0 0 0 0 0 0 0 0 0 0 0 0 0 0 0 0 0 0 0 0 0 0 0 0 0 0 0 0 0 0 0 0 0 0 0 0 0 0 0 0 0 0 0 0 0 0 0 0 0 0 0 0 0 0 0 0 0 0 0 0 0 0 0 0 0 0 0 0 0 0 0 0 0 0 0 0 0 0 0 0 0 0 0 0 0 0 0 0 0 0 0 0 0 0 0 0 0 0 0 0 0 0 0 0 0 0 0 0 0 0 0 0 0 0 0 0 0 0 0 0 0 0 0 0 0 0 0 0 0 0 0 0 0 0 0 0 0 0 0 0 0 0 0 0 0 0 0 0 0 0 0 0 0 0 0 0 0 0 0 0 0 0 0 0 0 0 0 0 0 0 0 0 0 0 0 0 0 0 0 0 0 0 0 0 0 0 0 0 0 0 0 0 0 0 0 0 0 0 0 0 0 0 0 0 0 0 0 0 0 0 0 0 0 0 0 0 0 0 0 0 0 0 0 0 0 0 0 0 0 0 0 0 0 0 0 0 0 0 0 0 0 0 0 0 0 0 0 0 0 0 0 0 0 0 0 0 0 0 0 0 0 0 0 0 0 0 0 0 0 0 0 0 0 0 0 0 0 0 0 0 0 0 0 0 0 0 0 0 0 0 0 0 0 0 0 0 0 0 0 0 0 0 0 0 0 0 0 0 0 0 0 0 0 0 0 0 0 0 0 0 0 0 0 0 0 0 0 0 0 0 0 0 0 0 0 0 0 0 0 0 0 0 0 0 0 0 0 0 0 0 0 0 0 0 0 0 0 0 0 0 0 0 0 0 0 0 0 0 0 0 0 0 0 0 0 0 0 0 0 0 0 0 0 0 0 0 0 0 0 0 0 0 0 0 0 0 0 0 0 0 0 0 0 0 0 0 0 0 0 0 0 0 0 0 0 0 0 0 0 0 0 0 0 0 0 0 0 0 0 0 0 0 0 0 0 0 0 0 0 0 0 0 0 0 0 0 0 0 0 0 0 0 0 0 0 0 0 0 0 0 0 0 0 0 0 0 0 0 0 0 0 0 0 0 0 0 0 0 0 0 0 0 0 0 0 0 0 0 0 0 0 0 0 0 0 0 0 0 0 0 0 0 0 0 0 0 0 0 0 0 0 0 0 0 0 0 0 0 0 0 0 0 0 0 0 0 0 0 0 0 0 0 0 0 0 0 0 0 0 0 0 0 0 0 0 0 0 0 0 0 0 0 0 0 0 0 0 0 0 0 0 0 0 0 0 0 0 0 0 0 0 0 0 0 0 0 0 0 0 0 0 0 0 0 0 0 0 0 0 0 0 0 0 0 0 0 0 0 0 0 0 0 0 0 0 0 0 0 0 0 0 0 0 0 0 0 0 0 0 0 0 0 0 0 0 0 0 0 0 0 0 0 0 0 0 0 0 0 0 0 0 0 0 0 0 0 0 0 0 0 0 0 0 0 0 0 0 0 0 0 0 0 0 0 0 0 0 0 0 0 0 0 0 0 0 0 0 0 0 0 0 0 0 0 0 0 0 0 0 0 0 0 0 0 0 0 0 0 0 0 0 0 0 0 0 0 0 0 0 0 0 0 0 0 0 0 0 0 0 0 0 0 0 0 0 0 0 0 0 0 0 0 0 0 0 0 0 0 0 0 0 0 0 0 0 0 0 0 0 0 0 0 0 0 0 0 0 0 0 0 0 0 0 0 0 0 0 0 0 0 0 0 0 0 0 0 0 0 0 0 0 0 0 0 0 0 0 0 0 0 0 0 0 0 0 0 0 0 0 0 0 0 0 0 0 0 0 0 0 0 0 0 0 0 0 0 0 0 0 0 0 0 0 0 0 0 0 0 0 0 0 0 0 0 0 0 0 0 0 0 0 0 0 0 0 0 0 0 0 0 0 0 0 0 0 0 0 0 0 0 0 0 0 0 0 0 0 0 0 0 0 0 0 0 0 0 0 0 0 0 0 0 0 0 0 0 0 0 0 0 0 0 0 0 0 0 0 0 0 0 0 0 0 0 0 0 0 0 0 0 0 0 0 0 0 0 0 0 0 0 0 0 0 0 0 0 0 0 0 0 0 0 0 0 0 0 0 0 0 0 0 0 0 0 0 0 0 0 0 0 0 0 0 0 0 0 0 0 0 0 0 0 0 0 0 0 0 0 0 0 0 0 0 0 0 0 0 0 0 0 0 0 0 0 0 0 0 0 0 0 0 0 0 0 0 0 0 0 0 0 0 0 0 0 0 0 0 0 0 0 0 0 0 0 0 0 0 0 0 0 0 0 0 0 0 0 0 0 0 0 0 0 0 0 0 0 0 0 0 0 0 0 0 0 0 0 0 0 0 0 0 0 0 0 0 0 0 0 0 0 0 0 0 0 0 0 0 0 0 0 0 0 0 0 0 0 0 0 0 0 0 0 0 0 0 0 0 0 0 0 0 0 0 0 0 0 0 0 0 0 0 0 0 0 0 0 0 0 0 0 0 0 0 0 0 0 0 0 0 0 0 0 0 0 0 0 0 0 0 0 0 0 0 0 0 0 0 0 0 0 0 0 0 0 0 0 0 0 0 0 0 0 0 0 0 0 0 0 0 0 0 0 0 0 0 0 0 0 0 0 0 0 0 0 0 0 0 0 0 0 0 0 0 0 0 0 0 0 0 0 0 0 0 0 0 0 0 0 0 0 0 0 0 0 0 0 0 0 0 0 0 0 0 0 0 0 0 0 0 0 0 0 0 0 0 0 0 0 0 0 0 0 0 0 0 0 0 0 0 0 0 0 0 0 0 0 0 0 0 0 0 0 0 0 0 0 0 0 0 0 0 0 0 0 0 0 0 0 0 0 0 0 0 0 0 0 0 0 0 0 0 0 0 0 0 0 0 0 0 0 0 0 0 0 0 0 0 0 0 0 0 0 0 0 0 0 0 0 0 0 0 0 0 0 0 0 0 0 0 0 0 0 0 0 0 0 0 0 0 0 0 0 0 0 0 0 0 0 0 0 0 0 0 0 0 0 0 0 0 0 0 0 0 0 0 0 0 0 0 0 0 0 0 0 0 0 0 0 0 0 0 0 0 0 0 0 0 0 0 0 0 0 0 0 0 0 0 0 0 0 0 0 0 0 0 0 0 0 0 0 0 0 0 0 0 0 0 0 0 0 0 0 0 0 0 0 0 0 0 0 0 0 0 0 0 0 0 0 0 0 0 0 0 0 0 0 0 0 0 0 0 0 0 0 0 0 0 0 0 0 0 0 0 0 0 0 0 0 0 0 0 0 0 0 0 0 0 0 0 0 0 0 0 0 0 0 0 0 0 0 0 0 0 0 0 0 0 0 0 0 0 0 0 0 0 0 0 0 0 0 0 0 0 0 0 0 0 0 0 0 0 0 0 0 0 0 0 0 0 0 0 0 0 0 0 0 0 0 0 0 0 0 0 0 0 0 0 0 0 0 0 0 0 0 0 0 0 0 0 0 0 0 0 0 0 0 0 0 0 0 0 0 0 0 0 0 0 0 0 0 0 0 0 0 0 0 0 0 0 0 0 0 0 0 0 0 0 0 0 0 0 0 0 0 0 0 0 0 0 0 0 0 0 0 0 0 0 0 0 0 0 0 0 0 0 0 0 0 0 0 0 0 0 0 0 0</float_array>
          <technique_common>
            <accessor source="#Mouse001LLegDigit42_ncl1_1Mesh-mesh-map-0-array" count="1560" stride="2">
              <param name="S" type="float"/>
              <param name="T" type="float"/>
            </accessor>
          </technique_common>
        </source>
        <source id="Mouse001LLegDigit42_ncl1_1Mesh-mesh-map-1">
          <float_array id="Mouse001LLegDigit42_ncl1_1Mesh-mesh-map-1-array" count="3120">0 0 0 0 0 0 0 0 0 0 0 0 0 0 0 0 0 0 0 0 0 0 0 0 0 0 0 0 0 0 0 0 0 0 0 0 0 0 0 0 0 0 0 0 0 0 0 0 0 0 0 0 0 0 0 0 0 0 0 0 0 0 0 0 0 0 0 0 0 0 0 0 0 0 0 0 0 0 0 0 0 0 0 0 0 0 0 0 0 0 0 0 0 0 0 0 0 0 0 0 0 0 0 0 0 0 0 0 0 0 0 0 0 0 0 0 0 0 0 0 0 0 0 0 0 0 0 0 0 0 0 0 0 0 0 0 0 0 0 0 0 0 0 0 0 0 0 0 0 0 0 0 0 0 0 0 0 0 0 0 0 0 0 0 0 0 0 0 0 0 0 0 0 0 0 0 0 0 0 0 0 0 0 0 0 0 0 0 0 0 0 0 0 0 0 0 0 0 0 0 0 0 0 0 0 0 0 0 0 0 0 0 0 0 0 0 0 0 0 0 0 0 0 0 0 0 0 0 0 0 0 0 0 0 0 0 0 0 0 0 0 0 0 0 0 0 0 0 0 0 0 0 0 0 0 0 0 0 0 0 0 0 0 0 0 0 0 0 0 0 0 0 0 0 0 0 0 0 0 0 0 0 0 0 0 0 0 0 0 0 0 0 0 0 0 0 0 0 0 0 0 0 0 0 0 0 0 0 0 0 0 0 0 0 0 0 0 0 0 0 0 0 0 0 0 0 0 0 0 0 0 0 0 0 0 0 0 0 0 0 0 0 0 0 0 0 0 0 0 0 0 0 0 0 0 0 0 0 0 0 0 0 0 0 0 0 0 0 0 0 0 0 0 0 0 0 0 0 0 0 0 0 0 0 0 0 0 0 0 0 0 0 0 0 0 0 0 0 0 0 0 0 0 0 0 0 0 0 0 0 0 0 0 0 0 0 0 0 0 0 0 0 0 0 0 0 0 0 0 0 0 0 0 0 0 0 0 0 0 0 0 0 0 0 0 0 0 0 0 0 0 0 0 0 0 0 0 0 0 0 0 0 0 0 0 0 0 0 0 0 0 0 0 0 0 0 0 0 0 0 0 0 0 0 0 0 0 0 0 0 0 0 0 0 0 0 0 0 0 0 0 0 0 0 0 0 0 0 0 0 0 0 0 0 0 0 0 0 0 0 0 0 0 0 0 0 0 0 0 0 0 0 0 0 0 0 0 0 0 0 0 0 0 0 0 0 0 0 0 0 0 0 0 0 0 0 0 0 0 0 0 0 0 0 0 0 0 0 0 0 0 0 0 0 0 0 0 0 0 0 0 0 0 0 0 0 0 0 0 0 0 0 0 0 0 0 0 0 0 0 0 0 0 0 0 0 0 0 0 0 0 0 0 0 0 0 0 0 0 0 0 0 0 0 0 0 0 0 0 0 0 0 0 0 0 0 0 0 0 0 0 0 0 0 0 0 0 0 0 0 0 0 0 0 0 0 0 0 0 0 0 0 0 0 0 0 0 0 0 0 0 0 0 0 0 0 0 0 0 0 0 0 0 0 0 0 0 0 0 0 0 0 0 0 0 0 0 0 0 0 0 0 0 0 0 0 0 0 0 0 0 0 0 0 0 0 0 0 0 0 0 0 0 0 0 0 0 0 0 0 0 0 0 0 0 0 0 0 0 0 0 0 0 0 0 0 0 0 0 0 0 0 0 0 0 0 0 0 0 0 0 0 0 0 0 0 0 0 0 0 0 0 0 0 0 0 0 0 0 0 0 0 0 0 0 0 0 0 0 0 0 0 0 0 0 0 0 0 0 0 0 0 0 0 0 0 0 0 0 0 0 0 0 0 0 0 0 0 0 0 0 0 0 0 0 0 0 0 0 0 0 0 0 0 0 0 0 0 0 0 0 0 0 0 0 0 0 0 0 0 0 0 0 0 0 0 0 0 0 0 0 0 0 0 0 0 0 0 0 0 0 0 0 0 0 0 0 0 0 0 0 0 0 0 0 0 0 0 0 0 0 0 0 0 0 0 0 0 0 0 0 0 0 0 0 0 0 0 0 0 0 0 0 0 0 0 0 0 0 0 0 0 0 0 0 0 0 0 0 0 0 0 0 0 0 0 0 0 0 0 0 0 0 0 0 0 0 0 0 0 0 0 0 0 0 0 0 0 0 0 0 0 0 0 0 0 0 0 0 0 0 0 0 0 0 0 0 0 0 0 0 0 0 0 0 0 0 0 0 0 0 0 0 0 0 0 0 0 0 0 0 0 0 0 0 0 0 0 0 0 0 0 0 0 0 0 0 0 0 0 0 0 0 0 0 0 0 0 0 0 0 0 0 0 0 0 0 0 0 0 0 0 0 0 0 0 0 0 0 0 0 0 0 0 0 0 0 0 0 0 0 0 0 0 0 0 0 0 0 0 0 0 0 0 0 0 0 0 0 0 0 0 0 0 0 0 0 0 0 0 0 0 0 0 0 0 0 0 0 0 0 0 0 0 0 0 0 0 0 0 0 0 0 0 0 0 0 0 0 0 0 0 0 0 0 0 0 0 0 0 0 0 0 0 0 0 0 0 0 0 0 0 0 0 0 0 0 0 0 0 0 0 0 0 0 0 0 0 0 0 0 0 0 0 0 0 0 0 0 0 0 0 0 0 0 0 0 0 0 0 0 0 0 0 0 0 0 0 0 0 0 0 0 0 0 0 0 0 0 0 0 0 0 0 0 0 0 0 0 0 0 0 0 0 0 0 0 0 0 0 0 0 0 0 0 0 0 0 0 0 0 0 0 0 0 0 0 0 0 0 0 0 0 0 0 0 0 0 0 0 0 0 0 0 0 0 0 0 0 0 0 0 0 0 0 0 0 0 0 0 0 0 0 0 0 0 0 0 0 0 0 0 0 0 0 0 0 0 0 0 0 0 0 0 0 0 0.407587 0.223783 0.405546 0.225571 0.404921 0.223504 0.405546 0.225571 0.407587 0.223783 0.407183 0.226195 0.407587 0.223783 0.40908 0.226244 0.407183 0.226195 0.40908 0.226244 0.407587 0.223783 0.41023 0.22437 0.428952 0.226911 0.43063 0.227189 0.430069 0.228331 0.430069 0.228331 0.428698 0.228313 0.428952 0.226911 0.430977 0.225627 0.429304 0.225353 0.430961 0.2243379 0.430961 0.2243379 0.429304 0.225353 0.429633 0.223915 0.42801 0.218932 0.429245 0.217286 0.429182 0.219739 0.429182 0.219739 0.429245 0.217286 0.430297 0.218908 0.427245 0.220867 0.42801 0.218932 0.429182 0.219739 0.429182 0.219739 0.428852 0.221544 0.427245 0.220867 0.410064 0.220058 0.407823 0.222059 0.408142 0.219534 0.407823 0.222059 0.410064 0.220058 0.410553 0.222292 0.407823 0.222059 0.406091 0.219404 0.408142 0.219534 0.406091 0.219404 0.407823 0.222059 0.404356 0.221219 0.425993 0.224684 0.428129 0.223487 0.427685 0.225 0.428129 0.223487 0.425993 0.224684 0.426751 0.222868 0.429304 0.225353 0.428129 0.223487 0.429633 0.223915 0.428129 0.223487 0.429304 0.225353 0.427685 0.225 0.425744 0.230384 0.427157 0.22822 0.427265 0.2303169 0.425744 0.230384 0.425848 0.228353 0.427157 0.22822 0.425837 0.226496 0.427157 0.22822 0.425848 0.228353 0.425837 0.226496 0.427331 0.226715 0.427157 0.22822 0.428952 0.226911 0.427157 0.22822 0.427331 0.226715 0.428952 0.226911 0.428698 0.228313 0.427157 0.22822 0.427685 0.225 0.425837 0.226496 0.425993 0.224684 0.425837 0.226496 0.427685 0.225 0.427331 0.226715 0.428952 0.226911 0.427685 0.225 0.429304 0.225353 0.427685 0.225 0.428952 0.226911 0.427331 0.226715 0.424071 0.226233 0.425848 0.228353 0.423954 0.228326 0.425848 0.228353 0.424071 0.226233 0.425837 0.226496 0.425993 0.224684 0.424071 0.226233 0.424447 0.224231 0.424071 0.226233 0.425993 0.224684 0.425837 0.226496 0.424071 0.226233 0.418427 0.223133 0.424447 0.224231 0.418427 0.223133 0.424071 0.226233 0.418064 0.225556 0.418427 0.223133 0.424917 0.222272 0.424447 0.224231 0.424917 0.222272 0.418427 0.223133 0.418812 0.220798 0.425993 0.224684 0.424917 0.222272 0.426751 0.222868 0.424917 0.222272 0.425993 0.224684 0.424447 0.224231 0.424917 0.222272 0.418812 0.220798 0.419313 0.218491 0.424917 0.222272 0.419313 0.218491 0.425525 0.220117 0.426751 0.222868 0.424917 0.222272 0.427245 0.220867 0.424917 0.222272 0.425525 0.220117 0.427245 0.220867 0.419313 0.218491 0.426157 0.217918 0.425525 0.220117 0.426157 0.217918 0.419313 0.218491 0.419864 0.216179 0.427245 0.220867 0.425525 0.220117 0.42801 0.218932 0.425525 0.220117 0.426157 0.217918 0.42801 0.218932 0.420543 0.213954 0.426157 0.217918 0.419864 0.216179 0.426157 0.217918 0.420543 0.213954 0.427511 0.215839 0.42801 0.218932 0.427511 0.215839 0.429245 0.217286 0.427511 0.215839 0.42801 0.218932 0.426157 0.217918 0.424541 0.237194 0.417323 0.2371 0.417344 0.234877 0.424541 0.237194 0.417344 0.234877 0.424161 0.234972 0.426633 0.2364619 0.424541 0.237194 0.425916 0.234509 0.424541 0.237194 0.424161 0.234972 0.425916 0.234509 0.424161 0.234972 0.424037 0.232587 0.425916 0.234509 0.425916 0.234509 0.424037 0.232587 0.425756 0.23243 0.427029 0.232224 0.425916 0.234509 0.425756 0.23243 0.425916 0.234509 0.427029 0.232224 0.427544 0.233755 0.426633 0.2364619 0.425916 0.234509 0.428173 0.235325 0.425916 0.234509 0.427544 0.233755 0.428173 0.235325 0.424037 0.232587 0.42412 0.23049 0.425756 0.23243 0.425756 0.23243 0.42412 0.23049 0.425744 0.230384 0.425744 0.230384 0.427029 0.232224 0.425756 0.23243 0.427029 0.232224 0.425744 0.230384 0.427265 0.2303169 0.417419 0.232525 0.42412 0.23049 0.424037 0.232587 0.42412 0.23049 0.417419 0.232525 0.417525 0.230217 0.417525 0.230217 0.423954 0.228326 0.42412 0.23049 0.423954 0.228326 0.417525 0.230217 0.417733 0.227928 0.425744 0.230384 0.42412 0.23049 0.425848 0.228353 0.42412 0.23049 0.423954 0.228326 0.425848 0.228353 0.418064 0.225556 0.423954 0.228326 0.417733 0.227928 0.423954 0.228326 0.418064 0.225556 0.424071 0.226233 0.417344 0.234877 0.424037 0.232587 0.424161 0.234972 0.424037 0.232587 0.417344 0.234877 0.417419 0.232525 0.411061 0.231629 0.417525 0.230217 0.417419 0.232525 0.417525 0.230217 0.411061 0.231629 0.410898 0.229431 0.410898 0.229431 0.417733 0.227928 0.417525 0.230217 0.417733 0.227928 0.410898 0.229431 0.411323 0.227303 0.417733 0.227928 0.412499 0.224934 0.418064 0.225556 0.412499 0.224934 0.417733 0.227928 0.411323 0.227303 0.418427 0.223133 0.412499 0.224934 0.412798 0.22232 0.412499 0.224934 0.418427 0.223133 0.418064 0.225556 0.41248 0.21966 0.418427 0.223133 0.412798 0.22232 0.418427 0.223133 0.41248 0.21966 0.418812 0.220798 0.41248 0.21966 0.419313 0.218491 0.418812 0.220798 0.419313 0.218491 0.41248 0.21966 0.412823 0.217307 0.412823 0.217307 0.419864 0.216179 0.419313 0.218491 0.419864 0.216179 0.412823 0.217307 0.413528 0.21491 0.419864 0.216179 0.413528 0.21491 0.414421 0.212069 0.419864 0.216179 0.414421 0.212069 0.420543 0.213954 0.417323 0.2371 0.411064 0.237612 0.41131 0.234477 0.417323 0.2371 0.41131 0.234477 0.417344 0.234877 0.41131 0.234477 0.417419 0.232525 0.417344 0.234877 0.417419 0.232525 0.41131 0.234477 0.411061 0.231629 0.409846 0.231608 0.410898 0.229431 0.411061 0.231629 0.410898 0.229431 0.409846 0.231608 0.409709 0.229293 0.409709 0.229293 0.410194 0.2269 0.410898 0.229431 0.410898 0.229431 0.410194 0.2269 0.411323 0.227303 0.412499 0.224934 0.411323 0.227303 0.411464 0.224659 0.411323 0.227303 0.410194 0.2269 0.411464 0.224659 0.412798 0.22232 0.412499 0.224934 0.411969 0.222362 0.411969 0.222362 0.412499 0.224934 0.411464 0.224659 0.411969 0.222362 0.41248 0.21966 0.412798 0.22232 0.41248 0.21966 0.411969 0.222362 0.411268 0.219744 0.411268 0.219744 0.412823 0.217307 0.41248 0.21966 0.412823 0.217307 0.411268 0.219744 0.411545 0.2172909 0.411545 0.2172909 0.412328 0.214706 0.412823 0.217307 0.412823 0.217307 0.412328 0.214706 0.413528 0.21491 0.412328 0.214706 0.414421 0.212069 0.413528 0.21491 0.414421 0.212069 0.412328 0.214706 0.413292 0.211968 0.410386 0.23435 0.411064 0.237612 0.410103 0.237141 0.41131 0.234477 0.411064 0.237612 0.410386 0.23435 0.40946 0.236751 0.410386 0.23435 0.410103 0.237141 0.410386 0.23435 0.40946 0.236751 0.409164 0.2342309 0.409846 0.231608 0.410386 0.23435 0.408909 0.231602 0.410386 0.23435 0.409164 0.2342309 0.408909 0.231602 0.41131 0.234477 0.409846 0.231608 0.411061 0.231629 0.409846 0.231608 0.41131 0.234477 0.410386 0.23435 0.41252 0.21209 0.412328 0.214706 0.411463 0.2146829 0.412328 0.214706 0.41252 0.21209 0.413292 0.211968 0.411463 0.2146829 0.411545 0.2172909 0.410334 0.217164 0.411545 0.2172909 0.411463 0.2146829 0.412328 0.214706 0.411268 0.219744 0.410334 0.217164 0.411545 0.2172909 0.410334 0.217164 0.411268 0.219744 0.410064 0.220058 0.410064 0.220058 0.411969 0.222362 0.410553 0.222292 0.411969 0.222362 0.410064 0.220058 0.411268 0.219744 0.410553 0.222292 0.411464 0.224659 0.41023 0.22437 0.411464 0.224659 0.410553 0.222292 0.411969 0.222362 0.410553 0.222292 0.407587 0.223783 0.407823 0.222059 0.407587 0.223783 0.410553 0.222292 0.41023 0.22437 0.411464 0.224659 0.40908 0.226244 0.41023 0.22437 0.40908 0.226244 0.411464 0.224659 0.410194 0.2269 0.408548 0.229106 0.410194 0.2269 0.409709 0.229293 0.410194 0.2269 0.408548 0.229106 0.40908 0.226244 0.409709 0.229293 0.409846 0.231608 0.408909 0.231602 0.409709 0.229293 0.408909 0.231602 0.408548 0.229106 0.426751 0.222868 0.427245 0.220867 0.428129 0.223487 0.428129 0.223487 0.427245 0.220867 0.428852 0.221544 0.407823 0.222059 0.404921 0.223504 0.404356 0.221219 0.404921 0.223504 0.407823 0.222059 0.407587 0.223783 0.43063 0.227189 0.429304 0.225353 0.430977 0.225627 0.429304 0.225353 0.43063 0.227189 0.428952 0.226911 0 0 0 0 0 0 0 0 0 0 0 0 0 0 0 0 0 0 0 0 0 0 0 0 0 0 0 0 0 0 0 0 0 0 0 0 0 0 0 0 0 0 0 0 0 0 0 0 0 0 0 0 0 0 0 0 0 0 0 0 0 0 0 0 0 0 0 0 0 0 0 0 0 0 0 0 0 0 0 0 0 0 0 0 0 0 0 0 0 0 0 0 0 0 0 0 0 0 0 0 0 0 0 0 0 0 0 0 0 0 0 0 0 0 0 0 0 0 0 0 0 0 0 0 0 0 0 0 0 0 0 0 0 0 0 0 0 0 0 0 0 0 0 0 0 0 0 0 0 0 0 0 0 0 0 0 0 0 0 0 0 0 0 0 0 0 0 0 0 0 0 0 0 0 0 0 0 0 0 0 0 0 0 0 0 0 0 0 0 0 0 0 0 0 0 0 0 0 0 0 0 0 0 0 0 0 0 0 0 0 0 0 0 0 0 0 0 0 0 0 0 0 0 0 0 0 0 0 0 0 0 0 0 0 0 0 0 0 0 0 0 0 0 0 0 0 0 0 0 0 0 0 0 0 0 0 0 0 0 0 0 0 0 0 0 0 0 0 0 0 0 0 0 0 0 0 0 0 0 0 0 0 0 0 0 0 0 0 0 0 0 0 0 0 0 0 0 0 0 0 0 0 0 0 0 0 0 0 0 0 0 0 0 0 0 0 0 0 0 0 0 0 0 0 0 0 0 0 0 0 0 0 0 0 0 0 0 0 0 0 0 0 0 0 0 0 0 0 0 0 0 0 0 0 0 0 0 0 0 0 0 0 0 0 0 0 0 0 0 0 0 0 0 0 0 0 0 0 0 0 0 0 0 0 0 0 0 0 0 0 0 0 0 0 0 0 0 0 0 0 0 0 0 0 0 0 0 0 0 0 0 0 0 0 0 0 0 0 0 0 0 0 0 0 0 0 0 0 0 0 0 0 0 0 0 0 0 0 0 0 0 0 0 0 0 0 0 0 0 0 0 0 0 0 0 0 0 0 0 0 0 0 0 0 0 0 0 0 0 0 0 0 0 0 0 0 0 0 0 0 0 0 0 0 0 0 0 0 0 0 0 0 0 0 0 0 0 0 0 0 0 0 0 0 0 0 0 0 0 0 0 0 0 0 0 0 0 0 0 0 0 0 0 0 0 0 0 0 0 0 0 0 0 0 0 0 0 0 0 0 0 0 0 0 0 0 0 0 0 0 0 0 0 0 0 0 0 0 0 0 0 0 0 0 0 0 0 0 0 0 0 0 0 0 0 0 0 0 0 0 0 0 0 0 0 0 0 0 0 0 0 0 0 0 0 0 0 0 0 0 0 0 0 0 0 0 0 0 0 0 0 0 0 0 0 0 0 0 0 0 0 0 0 0 0 0 0 0 0 0 0 0 0 0 0 0 0 0 0 0 0 0 0 0 0 0 0 0 0 0 0 0 0 0 0 0 0 0 0 0 0 0 0 0 0 0 0 0 0 0 0 0 0 0 0 0 0 0 0 0 0 0 0 0 0 0 0 0 0 0 0 0 0 0 0 0 0 0 0 0 0 0 0 0 0 0 0 0 0 0 0 0 0 0 0 0 0 0 0 0 0 0 0 0 0 0 0 0 0 0 0 0 0 0 0 0 0 0 0 0 0 0 0 0 0 0 0 0 0 0 0 0 0 0 0 0 0 0 0 0 0 0 0 0 0 0 0 0 0 0 0 0 0 0 0 0 0 0 0 0 0 0 0 0 0 0 0 0 0 0 0 0 0 0 0 0 0 0 0 0 0 0 0 0 0 0 0 0 0 0 0 0 0 0 0 0 0 0 0 0 0 0 0 0 0 0 0 0 0 0 0 0 0 0 0 0 0 0 0 0 0 0 0 0 0 0 0 0 0 0 0 0 0 0 0 0 0 0 0 0 0 0 0 0 0 0 0 0 0 0 0 0 0 0 0 0 0 0 0 0 0 0 0 0 0 0 0 0 0 0 0 0 0 0 0 0 0 0 0 0 0 0 0 0 0 0 0 0 0 0 0 0 0 0 0 0 0 0 0 0 0 0 0 0 0 0 0 0 0 0 0 0 0 0 0 0 0 0 0 0 0 0 0 0 0 0 0 0 0 0 0 0 0 0 0 0 0 0 0 0</float_array>
          <technique_common>
            <accessor source="#Mouse001LLegDigit42_ncl1_1Mesh-mesh-map-1-array" count="1560" stride="2">
              <param name="S" type="float"/>
              <param name="T" type="float"/>
            </accessor>
          </technique_common>
        </source>
        <source id="Mouse001LLegDigit42_ncl1_1Mesh-mesh-map-2">
          <float_array id="Mouse001LLegDigit42_ncl1_1Mesh-mesh-map-2-array" count="3120">0 0 0 0 0 0 0 0 0 0 0 0 0 0 0 0 0 0 0 0 0 0 0 0 0 0 0 0 0 0 0 0 0 0 0 0 0 0 0 0 0 0 0 0 0 0 0 0 0 0 0 0 0 0 0 0 0 0 0 0 0 0 0 0 0 0 0 0 0 0 0 0 0 0 0 0 0 0 0 0 0 0 0 0 0 0 0 0 0 0 0 0 0 0 0 0 0 0 0 0 0 0 0 0 0 0 0 0 0 0 0 0 0 0 0 0 0 0 0 0 0 0 0 0 0 0 0 0 0 0 0 0 0 0 0 0 0 0 0 0 0 0 0 0 0 0 0 0 0 0 0 0 0 0 0 0 0 0 0 0 0 0 0 0 0 0 0 0 0 0 0 0 0 0 0 0 0 0 0 0 0 0 0 0 0 0 0 0 0 0 0 0 0 0 0 0 0 0 0 0 0 0 0 0 0 0 0 0 0 0 0 0 0 0 0 0 0 0 0 0 0 0 0 0 0 0 0 0 0 0 0 0 0 0 0 0 0 0 0 0 0 0 0 0 0 0 0 0 0 0 0 0 0 0 0 0 0 0 0 0 0 0 0 0 0 0 0 0 0 0 0 0 0 0 0 0 0 0 0 0 0 0 0 0 0 0 0 0 0 0 0 0 0 0 0 0 0 0 0 0 0 0 0 0 0 0 0 0 0 0 0 0 0 0 0 0 0 0 0 0 0 0 0 0 0 0 0 0 0 0 0 0 0 0 0 0 0 0 0 0 0 0 0 0 0 0 0 0 0 0 0 0 0 0 0 0 0 0 0 0 0 0 0 0 0 0 0 0 0 0 0 0 0 0 0 0 0 0 0 0 0 0 0 0 0 0 0 0 0 0 0 0 0 0 0 0 0 0 0 0 0 0 0 0 0 0 0 0 0 0 0 0 0 0 0 0 0 0 0 0 0 0 0 0 0 0 0 0 0 0 0 0 0 0 0 0 0 0 0 0 0 0 0 0 0 0 0 0 0 0 0 0 0 0 0 0 0 0 0 0 0 0 0 0 0 0 0 0 0 0 0 0 0 0 0 0 0 0 0 0 0 0 0 0 0 0 0 0 0 0 0 0 0 0 0 0 0 0 0 0 0 0 0 0 0 0 0 0 0 0 0 0 0 0 0 0 0 0 0 0 0 0 0 0 0 0 0 0 0 0 0 0 0 0 0 0 0 0 0 0 0 0 0 0 0 0 0 0 0 0 0 0 0 0 0 0 0 0 0 0 0 0 0 0 0 0 0 0 0 0 0 0 0 0 0 0 0 0 0 0 0 0 0 0 0 0 0 0 0 0 0 0 0 0 0 0 0 0 0 0 0 0 0 0 0 0 0 0 0 0 0 0 0 0 0 0 0 0 0 0 0 0 0 0 0 0 0 0 0 0 0 0 0 0 0 0 0 0 0 0 0 0 0 0 0 0 0 0 0 0 0 0 0 0 0 0 0 0 0 0 0 0 0 0 0 0 0 0 0 0 0 0 0 0 0 0 0 0 0 0 0 0 0 0 0 0 0 0 0 0 0 0 0 0 0 0 0 0 0 0 0 0 0 0 0 0 0 0 0 0 0 0 0 0 0 0 0 0 0 0 0 0 0 0 0 0 0 0 0 0 0 0 0 0 0 0 0 0 0 0 0 0 0 0 0 0 0 0 0 0 0 0 0 0 0 0 0 0 0 0 0 0 0 0 0 0 0 0 0 0 0 0 0 0 0 0 0 0 0 0 0 0 0 0 0 0 0 0 0 0 0 0 0 0 0 0 0 0 0 0 0 0 0 0 0 0 0 0 0 0 0 0 0 0 0 0 0 0 0 0 0 0 0 0 0 0 0 0 0 0 0 0 0 0 0 0 0 0 0 0 0 0 0 0 0 0 0 0 0 0 0 0 0 0 0 0 0 0 0 0 0 0 0 0 0 0 0 0 0 0 0 0 0 0 0 0 0 0 0 0 0 0 0 0 0 0 0 0 0 0 0 0 0 0 0 0 0 0 0 0 0 0 0 0 0 0 0 0 0 0 0 0 0 0 0 0 0 0 0 0 0 0 0 0 0 0 0 0 0 0 0 0 0 0 0 0 0 0 0 0 0 0 0 0 0 0 0 0 0 0 0 0 0 0 0 0 0 0 0 0 0 0 0 0 0 0 0 0 0 0 0 0 0 0 0 0 0 0 0 0 0 0 0 0 0 0 0 0 0 0 0 0 0 0 0 0 0 0 0 0 0 0 0 0 0 0 0 0 0 0 0 0 0 0 0 0 0 0 0 0 0 0 0 0 0 0 0 0 0 0 0 0 0 0 0 0 0 0 0 0 0 0 0 0 0 0 0 0 0 0 0 0 0 0 0 0 0 0 0 0 0 0 0 0 0 0 0 0 0 0 0 0 0 0 0 0 0 0 0 0 0 0 0 0 0 0 0 0 0 0 0 0 0 0 0 0 0 0 0 0 0 0 0 0 0 0 0 0 0 0 0 0 0 0 0 0 0 0 0 0 0 0 0 0 0 0 0 0 0 0 0 0 0 0 0 0 0 0 0 0 0 0 0 0 0 0 0 0 0 0 0 0 0 0 0 0 0 0 0 0 0 0 0 0 0 0 0 0 0 0 0 0 0 0 0 0 0 0 0 0 0 0 0 0 0 0 0 0 0 0 0 0 0 0 0 0 0 0 0 0 0 0 0 0 0 0 0 0 0 0 0 0 0 0 0 0 0 0 0 0 0 0 0 0 0 0 0 0 0 0 0 0 0 0 0 0 0 0 0 0 0 0 0 0 0 0 0 0 0 0 0 0 0 0 0 0 0 0 0 0 0 0 0 0 0 0 0 0 0 0 0 0 0 0 0 0 0 0 0 0 0 0 0 0 0 0 0 0 0 0 0 0 0 0 0 0 0 0 0 0 0 0 0 0 0 0 0 0 0 0 0 0 0 0 0 0 0 0 0 0 0 0 0 0 0 0 0 0 0 0 0 0 0 0 0 0 0 0 0 0 0 0 0 0 0 0 0 0 0 0 0 0 0 0 0 0 0 0 0 0 0 0 0 0 0 0 0 0 0 0 0 0 0 0 0 0 0 0 0 0 0 0 0 0 0 0 0 0 0 0 0 0 0 0 0 0 0 0 0 0 0 0 0 0 0 0 0 0 0 0 0 0 0 0 0 0 0 0 0 0 0 0 0 0 0 0 0 0 0 0 0 0 0 0 0 0 0 0 0 0 0 0 0 0 0 0 0 0 0 0 0 0 0 0 0 0 0 0 0 0 0 0 0 0 0 0 0 0 0 0 0 0 0 0 0 0 0 0 0 0 0 0 0 0 0 0 0 0 0 0 0 0 0 0 0 0 0 0 0 0 0 0 0 0 0 0 0 0 0 0 0 0 0 0 0 0 0 0 0 0 0 0 0 0 0 0 0 0 0 0 0 0 0 0 0 0 0 0 0 0 0 0 0 0 0 0 0 0 0 0 0 0 0 0 0 0 0 0 0 0 0 0 0 0 0 0 0 0 0 0 0 0 0 0 0 0 0 0 0 0 0 0 0 0 0 0 0 0 0 0 0 0 0 0 0 0 0 0 0 0 0 0 0 0 0 0 0 0 0 0 0 0 0 0 0 0 0 0 0 0 0 0 0 0 0 0 0 0 0 0 0 0 0 0 0 0 0 0 0 0 0 0 0 0 0 0 0 0 0 0 0 0 0 0 0 0 0 0 0 0 0 0 0 0 0 0 0 0 0 0 0 0 0 0 0 0 0 0 0 0 0 0 0 0 0 0 0 0 0 0 0 0 0 0 0 0 0 0 0 0 0 0 0 0 0 0 0 0 0 0 0 0 0 0 0 0 0 0 0 0 0 0 0 0 0 0 0 0 0 0 0 0 0 0 0 0 0 0 0 0 0 0 0 0 0 0 0 0 0 0 0 0 0 0 0 0 0 0 0 0 0 0 0 0 0 0 0 0 0 0 0 0 0 0 0 0 0 0 0 0 0 0 0 0 0 0 0 0 0 0 0 0 0 0 0 0 0 0 0 0 0 0 0 0 0 0 0 0 0 0 0 0 0 0 0 0 0 0 0 0 0 0 0 0 0 0 0 0 0 0 0 0 0 0 0 0 0 0 0 0 0 0 0 0 0 0 0 0 0 0 0 0 0 0 0 0 0 0 0 0 0 0 0 0 0 0 0 0 0 0 0 0 0 0 0 0 0 0 0 0 0 0 0 0 0 0 0 0 0 0 0 0 0 0 0 0 0 0 0 0 0 0 0 0 0 0 0 0 0 0 0 0 0 0 0 0 0 0 0 0 0 0 0 0 0 0 0 0 0 0 0 0 0 0 0 0 0 0 0 0 0 0 0 0 0 0 0 0 0 0 0 0 0 0 0 0 0 0 0 0 0 0 0 0 0 0 0 0 0 0 0 0 0 0 0 0 0 0 0 0 0 0 0 0 0 0 0 0 0 0 0 0 0 0 0 0 0 0 0 0 0 0 0 0 0 0 0 0 0 0 0 0 0 0 0 0 0 0 0 0 0 0 0 0 0 0 0 0 0 0 0 0 0 0 0 0 0 0 0 0 0 0 0 0 0 0 0 0 0 0 0 0 0 0 0 0 0 0 0 0 0 0 0 0 0 0 0 0 0 0 0 0 0 0 0 0 0 0 0 0 0 0 0 0 0 0 0 0 0 0 0 0 0 0 0 0 0 0 0 0 0 0 0 0 0 0 0 0 0 0 0 0 0 0 0 0 0 0 0 0 0 0 0 0 0 0 0 0 0 0 0 0 0 0 0 0 0 0 0 0 0 0 0 0 0 0 0 0 0 0 0 0 0 0 0 0 0 0 0 0 0.861605 0.304375 0.863542 0.303593 0.864167 0.305347 0.863542 0.303593 0.861605 0.304375 0.862827 0.301868 0.861014 0.30706 0.861605 0.304375 0.86265 0.306424 0.861605 0.304375 0.864167 0.305347 0.86265 0.306424 0.858266 0.305095 0.858359 0.303417 0.860502 0.303947 0.858266 0.305095 0.860502 0.303947 0.859386 0.306376 0.868113 0.298354 0.86732 0.300386 0.866098 0.29957 0.868113 0.298354 0.866098 0.29957 0.867602 0.297083 0.866209 0.296333 0.866098 0.29957 0.864766 0.298538 0.866098 0.29957 0.866209 0.296333 0.867602 0.297083 0.866209 0.296333 0.867874 0.296271 0.867602 0.297083 0.867874 0.296271 0.866209 0.296333 0.866715 0.295625 0.869359 0.297469 0.868113 0.298354 0.867602 0.297083 0.868113 0.298354 0.869359 0.297469 0.869385 0.298691 0.867602 0.297083 0.869307 0.296693 0.869359 0.297469 0.869307 0.296693 0.867602 0.297083 0.867874 0.296271 0.863501 0.297714 0.863755 0.295192 0.864955 0.295349 0.863755 0.295192 0.863501 0.297714 0.862292 0.296834 0.866209 0.296333 0.863501 0.297714 0.864955 0.295349 0.863501 0.297714 0.866209 0.296333 0.864766 0.298538 0.865767 0.294778 0.866209 0.296333 0.864955 0.295349 0.866209 0.296333 0.865767 0.294778 0.866715 0.295625 0.864955 0.295349 0.864169 0.29398 0.864998 0.2938 0.864955 0.295349 0.864998 0.2938 0.865767 0.294778 0.864169 0.29398 0.863755 0.295192 0.863055 0.294285 0.863755 0.295192 0.864169 0.29398 0.864955 0.295349 0.863755 0.295192 0.862292 0.296834 0.861096 0.295785 0.863755 0.295192 0.861096 0.295785 0.863055 0.294285 0.872117 0.287891 0.870765 0.291587 0.870332 0.291353 0.860502 0.303947 0.858835 0.301614 0.86086 0.301635 0.858835 0.301614 0.860502 0.303947 0.858359 0.303417 0.869578 0.290831 0.86921 0.290497 0.872117 0.287891 0.872117 0.287891 0.86921 0.290497 0.868886 0.290094 0.872117 0.287891 0.868886 0.290094 0.868592 0.289662 0.872117 0.287891 0.871766 0.29186 0.871259 0.291746 0.871259 0.291746 0.870765 0.291587 0.872117 0.287891 0.870332 0.291353 0.869946 0.291107 0.872117 0.287891 0.872117 0.287891 0.869946 0.291107 0.869578 0.290831 0.86921 0.290497 0.866544 0.291998 0.868886 0.290094 0.866544 0.291998 0.86921 0.290497 0.867045 0.292788 0.868886 0.290094 0.866544 0.291998 0.866192 0.291275 0.868886 0.290094 0.866192 0.291275 0.868592 0.289662 0.870461 0.294652 0.871259 0.291746 0.871262 0.29471 0.871766 0.29186 0.871262 0.29471 0.871259 0.291746 0.871259 0.291746 0.870461 0.294652 0.869555 0.294485 0.871259 0.291746 0.869555 0.294485 0.870765 0.291587 0.870765 0.291587 0.869555 0.294485 0.868707 0.294161 0.868707 0.294161 0.870332 0.291353 0.870765 0.291587 0.870332 0.291353 0.868042 0.293776 0.869946 0.291107 0.868042 0.293776 0.870332 0.291353 0.868707 0.294161 0.869578 0.290831 0.868042 0.293776 0.867561 0.293348 0.868042 0.293776 0.869578 0.290831 0.869946 0.291107 0.867561 0.293348 0.86921 0.290497 0.869578 0.290831 0.86921 0.290497 0.867561 0.293348 0.867045 0.292788 0.865767 0.294778 0.867045 0.292788 0.867561 0.293348 0.867045 0.292788 0.865767 0.294778 0.864998 0.2938 0.864998 0.2938 0.866544 0.291998 0.867045 0.292788 0.866544 0.291998 0.864998 0.2938 0.864337 0.292823 0.86385 0.291945 0.866544 0.291998 0.864337 0.292823 0.866544 0.291998 0.86385 0.291945 0.866192 0.291275 0.871497 0.297163 0.870461 0.294652 0.871262 0.29471 0.870461 0.294652 0.871497 0.297163 0.870515 0.297002 0.870461 0.294652 0.870515 0.297002 0.869307 0.296693 0.870461 0.294652 0.869307 0.296693 0.869555 0.294485 0.867874 0.296271 0.869555 0.294485 0.869307 0.296693 0.869555 0.294485 0.867874 0.296271 0.868707 0.294161 0.866715 0.295625 0.868042 0.293776 0.868707 0.294161 0.866715 0.295625 0.868707 0.294161 0.867874 0.296271 0.868042 0.293776 0.865767 0.294778 0.867561 0.293348 0.865767 0.294778 0.868042 0.293776 0.866715 0.295625 0.87073 0.297926 0.871497 0.297163 0.8719 0.298041 0.871497 0.297163 0.87073 0.297926 0.870515 0.297002 0.87073 0.297926 0.869359 0.297469 0.870515 0.297002 0.869307 0.296693 0.870515 0.297002 0.869359 0.297469 0.870908 0.299243 0.8719 0.298041 0.872412 0.299224 0.8719 0.298041 0.870908 0.299243 0.87073 0.297926 0.869385 0.298691 0.87073 0.297926 0.870908 0.299243 0.869385 0.298691 0.869359 0.297469 0.87073 0.297926 0.872412 0.299224 0.87039 0.301768 0.870908 0.299243 0.87039 0.301768 0.872412 0.299224 0.871952 0.302154 0.870908 0.299243 0.87039 0.301768 0.868807 0.30116 0.870908 0.299243 0.868807 0.30116 0.869385 0.298691 0.869385 0.298691 0.868807 0.30116 0.868113 0.298354 0.868807 0.30116 0.86732 0.300386 0.868113 0.298354 0.868807 0.30116 0.865737 0.304236 0.86732 0.300386 0.865737 0.304236 0.868807 0.30116 0.86737 0.305093 0.86732 0.300386 0.865737 0.304236 0.864587 0.302682 0.86732 0.300386 0.864587 0.302682 0.866098 0.29957 0.8634 0.300841 0.864766 0.298538 0.866098 0.29957 0.8634 0.300841 0.866098 0.29957 0.864587 0.302682 0.863501 0.297714 0.8634 0.300841 0.8613 0.300267 0.8634 0.300841 0.863501 0.297714 0.864766 0.298538 0.863501 0.297714 0.8613 0.300267 0.859244 0.299822 0.863501 0.297714 0.859244 0.299822 0.862292 0.296834 0.859244 0.299822 0.861096 0.295785 0.862292 0.296834 0.861096 0.295785 0.859244 0.299822 0.857838 0.298422 0.857838 0.298422 0.860074 0.294501 0.861096 0.295785 0.860074 0.294501 0.857838 0.298422 0.856867 0.296844 0.860074 0.294501 0.862219 0.293102 0.861096 0.295785 0.863055 0.294285 0.861096 0.295785 0.862219 0.293102 0.860074 0.294501 0.86172 0.291811 0.862219 0.293102 0.86172 0.291811 0.860074 0.294501 0.859222 0.293139 0.862934 0.291855 0.863417 0.292903 0.862219 0.293102 0.862219 0.293102 0.86172 0.291811 0.862934 0.291855 0.863417 0.292903 0.863055 0.294285 0.862219 0.293102 0.863055 0.294285 0.863417 0.292903 0.864169 0.29398 0.864337 0.292823 0.863417 0.292903 0.86385 0.291945 0.863417 0.292903 0.862934 0.291855 0.86385 0.291945 0.864337 0.292823 0.864169 0.29398 0.863417 0.292903 0.864169 0.29398 0.864337 0.292823 0.864998 0.2938 0.860074 0.294501 0.855847 0.295026 0.859222 0.293139 0.855847 0.295026 0.860074 0.294501 0.856867 0.296844 0.871424 0.306008 0.87039 0.301768 0.871952 0.302154 0.87039 0.301768 0.871424 0.306008 0.86929 0.305485 0.87039 0.301768 0.86737 0.305093 0.868807 0.30116 0.86737 0.305093 0.87039 0.301768 0.86929 0.305485 0.855167 0.295934 0.856867 0.296844 0.856185 0.297576 0.856867 0.296844 0.855167 0.295934 0.855847 0.295026 0.868828 0.306322 0.871424 0.306008 0.870754 0.306898 0.86929 0.305485 0.871424 0.306008 0.868828 0.306322 0.86737 0.305093 0.86929 0.305485 0.868828 0.306322 0.868828 0.306322 0.866771 0.305915 0.86737 0.305093 0.866771 0.305915 0.86485 0.305102 0.86737 0.305093 0.86737 0.305093 0.86485 0.305102 0.865737 0.304236 0.86485 0.305102 0.863828 0.30335 0.865737 0.304236 0.863828 0.30335 0.864587 0.302682 0.865737 0.304236 0.8634 0.300841 0.864587 0.302682 0.863037 0.301524 0.863037 0.301524 0.864587 0.302682 0.863828 0.30335 0.8613 0.300267 0.8634 0.300841 0.861025 0.300827 0.861025 0.300827 0.8634 0.300841 0.863037 0.301524 0.861025 0.300827 0.859244 0.299822 0.8613 0.300267 0.859244 0.299822 0.861025 0.300827 0.858864 0.300769 0.858864 0.300769 0.857838 0.298422 0.859244 0.299822 0.857838 0.298422 0.858864 0.300769 0.857332 0.299209 0.857332 0.299209 0.856185 0.297576 0.857838 0.298422 0.856185 0.297576 0.856867 0.296844 0.857838 0.298422 0.855923 0.297891 0.857332 0.299209 0.856888 0.2998 0.857332 0.299209 0.855923 0.297891 0.856185 0.297576 0.855923 0.297891 0.855167 0.295934 0.856185 0.297576 0.855167 0.295934 0.855923 0.297891 0.854964 0.296318 0.859386 0.306376 0.860502 0.303947 0.861605 0.304375 0.859386 0.306376 0.861605 0.304375 0.861014 0.30706 0.870754 0.306898 0.868641 0.306672 0.868828 0.306322 0.868641 0.306672 0.870754 0.306898 0.870468 0.307215 0.866771 0.305915 0.868641 0.306672 0.866471 0.30645 0.866771 0.305915 0.868828 0.306322 0.868641 0.306672 0.864167 0.305347 0.866771 0.305915 0.866471 0.30645 0.866771 0.305915 0.864167 0.305347 0.86485 0.305102 0.86485 0.305102 0.863542 0.303593 0.863828 0.30335 0.863542 0.303593 0.86485 0.305102 0.864167 0.305347 0.863828 0.30335 0.862827 0.301868 0.863037 0.301524 0.862827 0.301868 0.863828 0.30335 0.863542 0.303593 0.86086 0.301635 0.861605 0.304375 0.860502 0.303947 0.861605 0.304375 0.86086 0.301635 0.862827 0.301868 0.861025 0.300827 0.862827 0.301868 0.86086 0.301635 0.862827 0.301868 0.861025 0.300827 0.863037 0.301524 0.858864 0.300769 0.861025 0.300827 0.86086 0.301635 0.86086 0.301635 0.858835 0.301614 0.858864 0.300769 0.857332 0.299209 0.858864 0.300769 0.858835 0.301614 0.857332 0.299209 0.858835 0.301614 0.856888 0.2998</float_array>
          <technique_common>
            <accessor source="#Mouse001LLegDigit42_ncl1_1Mesh-mesh-map-2-array" count="1560" stride="2">
              <param name="S" type="float"/>
              <param name="T" type="float"/>
            </accessor>
          </technique_common>
        </source>
        <vertices id="Mouse001LLegDigit42_ncl1_1Mesh-mesh-vertices">
          <input semantic="POSITION" source="#Mouse001LLegDigit42_ncl1_1Mesh-mesh-positions"/>
        </vertices>
        <triangles count="520">
          <input semantic="VERTEX" source="#Mouse001LLegDigit42_ncl1_1Mesh-mesh-vertices" offset="0"/>
          <input semantic="NORMAL" source="#Mouse001LLegDigit42_ncl1_1Mesh-mesh-normals" offset="1"/>
          <input semantic="TEXCOORD" source="#Mouse001LLegDigit42_ncl1_1Mesh-mesh-map-0" offset="2" set="0"/>
          <input semantic="TEXCOORD" source="#Mouse001LLegDigit42_ncl1_1Mesh-mesh-map-1" offset="2" set="1"/>
          <input semantic="TEXCOORD" source="#Mouse001LLegDigit42_ncl1_1Mesh-mesh-map-2" offset="2" set="2"/>
          <p>35 0 0 4 1 1 34 2 2 34 2 3 4 1 4 33 3 5 6 4 6 0 5 7 5 6 8 6 4 9 7 7 10 0 5 11 9 8 12 5 6 13 0 5 14 0 5 15 8 9 16 9 8 17 11 10 18 1 11 19 10 12 20 11 10 21 12 13 22 1 11 23 13 14 24 10 12 25 1 11 26 10 12 27 13 14 28 14 15 29 15 16 30 16 17 31 2 18 32 2 18 33 16 17 34 17 19 35 36 20 36 37 21 37 18 22 38 37 21 39 38 23 40 18 22 41 47 24 42 19 25 43 46 26 44 46 26 45 19 25 46 45 27 47 20 28 48 21 29 49 3 30 50 3 30 51 21 29 52 22 31 53 23 32 54 20 28 55 3 30 56 20 28 57 23 32 58 24 33 59 23 32 60 3 30 61 25 34 62 3 30 63 22 31 64 25 34 65 26 35 66 29 36 67 44 37 68 29 36 69 26 35 70 28 38 71 27 39 72 26 35 73 30 40 74 26 35 75 27 39 76 28 38 77 18 22 78 27 39 79 30 40 80 27 39 81 18 22 82 38 23 83 31 41 84 26 35 85 19 25 86 26 35 87 31 41 88 30 40 89 4 1 90 18 22 91 30 40 92 4 1 93 30 40 94 31 41 95 32 42 96 31 41 97 19 25 98 32 42 99 19 25 100 47 24 101 33 3 102 4 1 103 31 41 104 33 3 105 31 41 106 32 42 107 35 0 108 18 22 109 4 1 110 18 22 111 35 0 112 36 20 113 37 21 114 54 43 115 38 23 116 38 23 117 54 43 118 39 44 119 39 44 120 40 45 121 38 23 122 38 23 123 40 45 124 27 39 125 40 45 126 41 46 127 28 38 128 40 45 129 28 38 130 27 39 131 41 46 132 29 36 133 28 38 134 29 36 135 41 46 136 42 47 137 44 37 138 29 36 139 43 48 140 43 48 141 29 36 142 42 47 143 55 49 144 45 27 145 44 37 146 55 49 147 44 37 148 43 48 149 46 26 150 55 49 151 56 50 152 55 49 153 46 26 154 45 27 155 48 51 156 46 26 157 56 50 158 46 26 159 48 51 160 47 24 161 49 52 162 47 24 163 48 51 164 47 24 165 49 52 166 32 42 167 33 3 168 49 52 169 50 53 170 49 52 171 33 3 172 32 42 173 34 2 174 50 53 175 51 54 176 50 53 177 34 2 178 33 3 179 51 54 180 52 55 181 34 2 182 52 55 183 35 0 184 34 2 185 36 20 186 35 0 187 53 56 188 53 56 189 35 0 190 52 55 191 37 21 192 53 56 193 54 43 194 53 56 195 37 21 196 36 20 197 57 57 198 53 56 199 52 55 200 57 57 201 52 55 202 70 58 203 54 43 204 57 57 205 58 59 206 57 57 207 54 43 208 53 56 209 39 44 210 58 59 211 59 60 212 58 59 213 39 44 214 54 43 215 59 60 216 40 45 217 39 44 218 40 45 219 59 60 220 60 61 221 60 61 222 41 46 223 40 45 224 41 46 225 60 61 226 61 62 227 41 46 228 61 62 229 62 63 230 62 63 231 42 47 232 41 46 233 42 47 234 63 64 235 43 48 236 63 64 237 42 47 238 62 63 239 55 49 240 63 64 241 64 65 242 63 64 243 55 49 244 43 48 245 56 50 246 64 65 247 65 66 248 64 65 249 56 50 250 55 49 251 48 51 252 65 66 253 66 67 254 65 66 255 48 51 256 56 50 257 49 52 258 66 67 259 67 68 260 66 67 261 49 52 262 48 51 263 68 69 264 50 53 265 49 52 266 68 69 267 49 52 268 67 68 269 69 70 270 51 54 271 50 53 272 69 70 273 50 53 274 68 69 275 70 58 276 52 55 277 51 54 278 70 58 279 51 54 280 69 70 281 74 71 282 69 70 283 73 72 284 69 70 285 74 71 286 70 58 287 57 57 288 74 71 289 75 73 290 74 71 291 57 57 292 70 58 293 58 59 294 75 73 295 76 74 296 75 73 297 58 59 298 57 57 299 59 60 300 76 74 301 77 75 302 76 74 303 59 60 304 58 59 305 59 60 306 77 75 307 78 76 308 59 60 309 78 76 310 60 61 311 78 76 312 61 62 313 60 61 314 61 62 315 78 76 316 79 77 317 79 77 318 62 63 319 61 62 320 62 63 321 79 77 322 80 78 323 81 79 324 63 64 325 62 63 326 81 79 327 62 63 328 80 78 329 82 80 330 64 65 331 63 64 332 82 80 333 63 64 334 81 79 335 83 81 336 65 66 337 64 65 338 83 81 339 64 65 340 82 80 341 84 82 342 66 67 343 65 66 344 84 82 345 65 66 346 83 81 347 71 83 348 67 68 349 66 67 350 71 83 351 66 67 352 84 82 353 72 84 354 68 69 355 67 68 356 72 84 357 67 68 358 71 83 359 73 72 360 69 70 361 68 69 362 73 72 363 68 69 364 72 84 365 72 84 366 87 85 367 88 86 368 87 85 369 72 84 370 71 83 371 73 72 372 88 86 373 89 87 374 88 86 375 73 72 376 72 84 377 74 71 378 89 87 379 90 88 380 89 87 381 74 71 382 73 72 383 91 89 384 75 73 385 74 71 386 91 89 387 74 71 388 90 88 389 92 90 390 76 74 391 75 73 392 92 90 393 75 73 394 91 89 395 77 75 396 92 90 397 93 91 398 92 90 399 77 75 400 76 74 401 77 75 402 93 91 403 94 92 404 77 75 405 94 92 406 78 76 407 78 76 408 94 92 409 95 93 410 78 76 411 95 93 412 79 77 413 79 77 414 95 93 415 96 94 416 79 77 417 96 94 418 80 78 419 81 79 420 96 94 421 97 95 422 96 94 423 81 79 424 80 78 425 98 96 426 82 80 427 81 79 428 98 96 429 81 79 430 97 95 431 82 80 432 85 97 433 83 81 434 85 97 435 82 80 436 98 96 437 83 81 438 86 98 439 84 82 440 86 98 441 83 81 442 85 97 443 71 83 444 86 98 445 87 85 446 86 98 447 71 83 448 84 82 449 87 85 450 86 98 451 6 4 452 87 85 453 6 4 454 107 99 455 88 86 456 107 99 457 21 29 458 107 99 459 88 86 460 87 85 461 20 28 462 89 87 463 88 86 464 20 28 465 88 86 466 21 29 467 90 88 468 20 28 469 24 33 470 20 28 471 90 88 472 89 87 473 91 89 474 24 33 475 109 100 476 24 33 477 91 89 478 90 88 479 108 101 480 92 90 481 91 89 482 108 101 483 91 89 484 109 100 485 102 102 486 93 91 487 92 90 488 102 102 489 92 90 490 108 101 491 102 102 492 94 92 493 93 91 494 94 92 495 102 102 496 101 103 497 101 103 498 95 93 499 94 92 500 95 93 501 101 103 502 14 15 503 14 15 504 13 14 505 95 93 506 95 93 507 13 14 508 96 94 509 96 94 510 13 14 511 100 104 512 96 94 513 100 104 514 97 95 515 98 96 516 100 104 517 99 105 518 100 104 519 98 96 520 97 95 521 7 7 522 85 97 523 98 96 524 98 96 525 99 105 526 7 7 527 86 98 528 85 97 529 7 7 530 86 98 531 7 7 532 6 4 533 12 13 534 8 9 535 99 105 536 99 105 537 100 104 538 12 13 539 7 7 540 8 9 541 0 5 542 8 9 543 7 7 544 99 105 545 12 13 546 100 104 547 1 11 548 100 104 549 13 14 550 1 11 551 103 106 552 102 102 553 17 19 554 102 102 555 103 106 556 101 103 557 103 106 558 14 15 559 101 103 560 14 15 561 103 106 562 10 12 563 104 107 564 17 19 565 16 17 566 17 19 567 104 107 568 103 106 569 104 107 570 10 12 571 103 106 572 10 12 573 104 107 574 11 10 575 104 107 576 25 34 577 105 108 578 25 34 579 104 107 580 16 17 581 9 8 582 104 107 583 105 108 584 104 107 585 9 8 586 11 10 587 105 108 588 22 31 589 106 109 590 22 31 591 105 108 592 25 34 593 5 6 594 105 108 595 106 109 596 105 108 597 5 6 598 9 8 599 21 29 600 106 109 601 22 31 602 106 109 603 21 29 604 107 99 605 6 4 606 106 109 607 107 99 608 106 109 609 6 4 610 5 6 611 2 18 612 17 19 613 102 102 614 102 102 615 108 101 616 2 18 617 109 100 618 2 18 619 108 101 620 2 18 621 109 100 622 15 16 623 24 33 624 15 16 625 109 100 626 15 16 627 24 33 628 23 32 629 19 25 630 44 37 631 45 27 632 44 37 633 19 25 634 26 35 635 23 32 636 16 17 637 15 16 638 16 17 639 23 32 640 25 34 641 8 9 642 11 10 643 9 8 644 11 10 645 8 9 646 12 13 647 116 110 648 115 111 649 117 112 650 115 111 651 116 110 652 114 113 653 116 110 654 118 114 655 114 113 656 118 114 657 116 110 658 183 115 659 120 116 660 121 117 661 110 118 662 110 118 663 119 119 664 120 116 665 122 120 666 123 121 667 111 122 668 111 122 669 123 121 670 124 123 671 125 124 672 126 125 673 111 122 674 111 122 675 126 125 676 122 120 677 127 126 678 125 124 679 111 122 680 111 122 681 124 123 682 127 126 683 129 127 684 130 128 685 128 129 686 130 128 687 129 127 688 131 130 689 130 128 690 132 131 691 128 129 692 132 131 693 130 128 694 133 132 695 135 133 696 112 134 697 134 135 698 112 134 699 135 133 700 136 136 701 123 121 702 112 134 703 124 123 704 112 134 705 123 121 706 134 135 707 137 137 708 113 138 709 119 119 710 137 137 711 138 139 712 113 138 713 139 140 714 113 138 715 138 139 716 139 140 717 140 141 718 113 138 719 120 116 720 113 138 721 140 141 722 120 116 723 119 119 724 113 138 725 134 135 726 139 140 727 135 133 728 139 140 729 134 135 730 140 141 731 120 116 732 134 135 733 123 121 734 134 135 735 120 116 736 140 141 737 142 142 738 138 139 739 141 143 740 138 139 741 142 142 742 139 140 743 135 133 744 142 142 745 143 144 746 142 142 747 135 133 748 139 140 749 142 142 750 155 145 751 143 144 752 155 145 753 142 142 754 154 146 755 155 145 756 144 147 757 143 144 758 144 147 759 155 145 760 156 148 761 135 133 762 144 147 763 136 136 764 144 147 765 135 133 766 143 144 767 144 147 768 156 148 769 157 149 770 144 147 771 157 149 772 145 150 773 136 136 774 144 147 775 127 126 776 144 147 777 145 150 778 127 126 779 157 149 780 146 151 781 145 150 782 146 151 783 157 149 784 158 152 785 127 126 786 145 150 787 125 124 788 145 150 789 146 151 790 125 124 791 159 153 792 146 151 793 158 152 794 146 151 795 159 153 796 147 154 797 125 124 798 147 154 799 126 125 800 147 154 801 125 124 802 146 151 803 147 154 804 159 153 805 160 155 806 147 154 807 160 155 808 148 156 809 126 125 810 147 154 811 149 157 812 147 154 813 148 156 814 149 157 815 148 156 816 150 158 817 149 157 818 149 157 819 150 158 820 151 159 821 110 118 822 149 157 823 151 159 824 149 157 825 110 118 826 121 117 827 126 125 828 149 157 829 122 120 830 149 157 831 121 117 832 122 120 833 150 158 834 152 160 835 151 159 836 151 159 837 152 160 838 137 137 839 137 137 840 110 118 841 151 159 842 110 118 843 137 137 844 119 119 845 161 161 846 152 160 847 150 158 848 152 160 849 161 161 850 162 162 851 162 162 852 141 143 853 152 160 854 141 143 855 162 162 856 153 163 857 137 137 858 152 160 859 138 139 860 152 160 861 141 143 862 138 139 863 154 146 864 141 143 865 153 163 866 141 143 867 154 146 868 142 142 869 160 155 870 150 158 871 148 156 872 150 158 873 160 155 874 161 161 875 164 164 876 162 162 877 161 161 878 162 162 879 164 164 880 165 165 881 165 165 882 153 163 883 162 162 884 153 163 885 165 165 886 169 166 887 153 163 888 171 167 889 154 146 890 171 167 891 153 163 892 169 166 893 155 145 894 171 167 895 173 168 896 171 167 897 155 145 898 154 146 899 175 169 900 155 145 901 173 168 902 155 145 903 175 169 904 156 148 905 175 169 906 157 149 907 156 148 908 157 149 909 175 169 910 177 170 911 177 170 912 158 152 913 157 149 914 158 152 915 177 170 916 179 171 917 158 152 918 179 171 919 181 172 920 158 152 921 181 172 922 159 153 923 159 153 924 181 172 925 163 173 926 159 153 927 163 173 928 160 155 929 163 173 930 161 161 931 160 155 932 161 161 933 163 173 934 164 164 935 166 174 936 165 165 937 164 164 938 165 165 939 166 174 940 167 175 941 167 175 942 168 176 943 165 165 944 165 165 945 168 176 946 169 166 947 171 167 948 169 166 949 170 177 950 169 166 951 168 176 952 170 177 953 173 168 954 171 167 955 172 178 956 172 178 957 171 167 958 170 177 959 172 178 960 175 169 961 173 168 962 175 169 963 172 178 964 174 179 965 174 179 966 177 170 967 175 169 968 177 170 969 174 179 970 176 180 971 176 180 972 178 181 973 177 170 974 177 170 975 178 181 976 179 171 977 178 181 978 181 172 979 179 171 980 181 172 981 178 181 982 180 182 983 182 183 984 181 172 985 180 182 986 163 173 987 181 172 988 182 183 989 133 132 990 182 183 991 180 182 992 182 183 993 133 132 994 117 112 995 166 174 996 182 183 997 115 111 998 182 183 999 117 112 1000 115 111 1001 163 173 1002 166 174 1003 164 164 1004 166 174 1005 163 173 1006 182 183 1007 133 132 1008 178 181 1009 132 131 1010 178 181 1011 133 132 1012 180 182 1013 132 131 1014 176 180 1015 128 129 1016 176 180 1017 132 131 1018 178 181 1019 174 179 1020 128 129 1021 176 180 1022 128 129 1023 174 179 1024 129 127 1025 129 127 1026 172 178 1027 131 130 1028 172 178 1029 129 127 1030 174 179 1031 131 130 1032 170 177 1033 183 115 1034 170 177 1035 131 130 1036 172 178 1037 131 130 1038 116 110 1039 130 128 1040 116 110 1041 131 130 1042 183 115 1043 170 177 1044 118 114 1045 183 115 1046 118 114 1047 170 177 1048 168 176 1049 114 113 1050 168 176 1051 167 175 1052 168 176 1053 114 113 1054 118 114 1055 167 175 1056 166 174 1057 115 111 1058 167 175 1059 115 111 1060 114 113 1061 136 136 1062 127 126 1063 112 134 1064 112 134 1065 127 126 1066 124 123 1067 130 128 1068 117 112 1069 133 132 1070 117 112 1071 130 128 1072 116 110 1073 121 117 1074 123 121 1075 122 120 1076 123 121 1077 121 117 1078 120 116 1079 188 184 1080 262 185 1081 261 186 1082 262 185 1083 188 184 1084 263 187 1085 259 188 1086 188 184 1087 260 189 1088 188 184 1089 261 186 1090 260 189 1091 257 190 1092 256 191 1093 189 192 1094 257 190 1095 189 192 1096 258 193 1097 184 194 1098 226 195 1099 227 196 1100 184 194 1101 227 196 1102 185 197 1103 190 198 1104 227 196 1105 228 199 1106 227 196 1107 190 198 1108 185 197 1109 190 198 1110 192 200 1111 185 197 1112 192 200 1113 190 198 1114 191 201 1115 193 202 1116 184 194 1117 185 197 1118 184 194 1119 193 202 1120 194 203 1121 185 197 1122 195 204 1123 193 202 1124 195 204 1125 185 197 1126 192 200 1127 229 205 1128 187 206 1129 186 207 1130 187 206 1131 229 205 1132 230 208 1133 190 198 1134 229 205 1135 186 207 1136 229 205 1137 190 198 1138 228 199 1139 196 209 1140 190 198 1141 186 207 1142 190 198 1143 196 209 1144 191 201 1145 186 207 1146 197 210 1147 198 211 1148 186 207 1149 198 211 1150 196 209 1151 197 210 1152 187 206 1153 199 212 1154 187 206 1155 197 210 1156 186 207 1157 187 206 1158 230 208 1159 231 213 1160 187 206 1161 231 213 1162 199 212 1163 200 214 1164 203 215 1165 204 216 1166 189 192 1167 265 217 1168 264 218 1169 265 217 1170 189 192 1171 256 191 1172 206 219 1173 207 220 1174 200 214 1175 200 214 1176 207 220 1177 208 221 1178 200 214 1179 208 221 1180 201 222 1181 200 214 1182 201 222 1183 202 223 1184 202 223 1185 203 215 1186 200 214 1187 204 216 1188 205 224 1189 200 214 1190 200 214 1191 205 224 1192 206 219 1193 207 220 1194 209 225 1195 208 221 1196 209 225 1197 207 220 1198 216 226 1199 208 221 1200 209 225 1201 210 227 1202 208 221 1203 210 227 1204 201 222 1205 211 228 1206 202 223 1207 210 227 1208 201 222 1209 210 227 1210 202 223 1211 202 223 1212 211 228 1213 212 229 1214 202 223 1215 212 229 1216 203 215 1217 203 215 1218 212 229 1219 213 230 1220 213 230 1221 204 216 1222 203 215 1223 204 216 1224 214 231 1225 205 224 1226 214 231 1227 204 216 1228 213 230 1229 206 219 1230 214 231 1231 215 232 1232 214 231 1233 206 219 1234 205 224 1235 215 232 1236 207 220 1237 206 219 1238 207 220 1239 215 232 1240 216 226 1241 196 209 1242 216 226 1243 215 232 1244 216 226 1245 196 209 1246 198 211 1247 198 211 1248 209 225 1249 216 226 1250 209 225 1251 198 211 1252 217 233 1253 218 234 1254 209 225 1255 217 233 1256 209 225 1257 218 234 1258 210 227 1259 218 234 1260 211 228 1261 210 227 1262 211 228 1263 218 234 1264 219 235 1265 211 228 1266 219 235 1267 195 204 1268 211 228 1269 195 204 1270 212 229 1271 192 200 1272 212 229 1273 195 204 1274 212 229 1275 192 200 1276 213 230 1277 191 201 1278 214 231 1279 213 230 1280 191 201 1281 213 230 1282 192 200 1283 214 231 1284 196 209 1285 215 232 1286 196 209 1287 214 231 1288 191 201 1289 221 236 1290 218 234 1291 220 237 1292 218 234 1293 221 236 1294 219 235 1295 221 236 1296 193 202 1297 219 235 1298 195 204 1299 219 235 1300 193 202 1301 223 238 1302 220 237 1303 222 239 1304 220 237 1305 223 238 1306 221 236 1307 194 203 1308 221 236 1309 223 238 1310 194 203 1311 193 202 1312 221 236 1313 222 239 1314 224 240 1315 223 238 1316 224 240 1317 222 239 1318 233 241 1319 223 238 1320 224 240 1321 225 242 1322 223 238 1323 225 242 1324 194 203 1325 194 203 1326 225 242 1327 184 194 1328 225 242 1329 226 195 1330 184 194 1331 225 242 1332 238 243 1333 226 195 1334 238 243 1335 225 242 1336 237 244 1337 226 195 1338 238 243 1339 239 245 1340 226 195 1341 239 245 1342 227 196 1343 240 246 1344 228 199 1345 227 196 1346 240 246 1347 227 196 1348 239 245 1349 229 205 1350 240 246 1351 241 247 1352 240 246 1353 229 205 1354 228 199 1355 229 205 1356 241 247 1357 242 248 1358 229 205 1359 242 248 1360 230 208 1361 242 248 1362 231 213 1363 230 208 1364 231 213 1365 242 248 1366 243 249 1367 243 249 1368 232 250 1369 231 213 1370 232 250 1371 243 249 1372 244 251 1373 232 250 1374 234 252 1375 231 213 1376 199 212 1377 231 213 1378 234 252 1379 232 250 1380 222 239 1381 234 252 1382 222 239 1383 232 250 1384 233 241 1385 220 237 1386 235 253 1387 234 252 1388 234 252 1389 222 239 1390 220 237 1391 235 253 1392 199 212 1393 234 252 1394 199 212 1395 235 253 1396 197 210 1397 217 233 1398 235 253 1399 218 234 1400 235 253 1401 220 237 1402 218 234 1403 217 233 1404 197 210 1405 235 253 1406 197 210 1407 217 233 1408 198 211 1409 232 250 1410 245 254 1411 233 241 1412 245 254 1413 232 250 1414 244 251 1415 245 254 1416 224 240 1417 233 241 1418 224 240 1419 245 254 1420 236 255 1421 224 240 1422 237 244 1423 225 242 1424 237 244 1425 224 240 1426 236 255 1427 246 256 1428 244 251 1429 255 257 1430 244 251 1431 246 256 1432 245 254 1433 247 258 1434 245 254 1435 246 256 1436 236 255 1437 245 254 1438 247 258 1439 237 244 1440 236 255 1441 247 258 1442 247 258 1443 248 259 1444 237 244 1445 248 259 1446 249 260 1447 237 244 1448 237 244 1449 249 260 1450 238 243 1451 249 260 1452 250 261 1453 238 243 1454 250 261 1455 239 245 1456 238 243 1457 240 246 1458 239 245 1459 251 262 1460 251 262 1461 239 245 1462 250 261 1463 241 247 1464 240 246 1465 252 263 1466 252 263 1467 240 246 1468 251 262 1469 252 263 1470 242 248 1471 241 247 1472 242 248 1473 252 263 1474 253 264 1475 253 264 1476 243 249 1477 242 248 1478 243 249 1479 253 264 1480 254 265 1481 254 265 1482 255 257 1483 243 249 1484 255 257 1485 244 251 1486 243 249 1487 257 190 1488 254 265 1489 256 191 1490 254 265 1491 257 190 1492 255 257 1493 257 190 1494 246 256 1495 255 257 1496 246 256 1497 257 190 1498 258 193 1499 258 193 1500 189 192 1501 188 184 1502 258 193 1503 188 184 1504 259 188 1505 246 256 1506 259 188 1507 247 258 1508 259 188 1509 246 256 1510 258 193 1511 248 259 1512 259 188 1513 260 189 1514 248 259 1515 247 258 1516 259 188 1517 261 186 1518 248 259 1519 260 189 1520 248 259 1521 261 186 1522 249 260 1523 249 260 1524 262 185 1525 250 261 1526 262 185 1527 249 260 1528 261 186 1529 250 261 1530 263 187 1531 251 262 1532 263 187 1533 250 261 1534 262 185 1535 264 218 1536 188 184 1537 189 192 1538 188 184 1539 264 218 1540 263 187 1541 252 263 1542 263 187 1543 264 218 1544 263 187 1545 252 263 1546 251 262 1547 253 264 1548 252 263 1549 264 218 1550 264 218 1551 265 217 1552 253 264 1553 254 265 1554 253 264 1555 265 217 1556 254 265 1557 265 217 1558 256 191 1559</p>
        </triangles>
      </mesh>
    </geometry>
  </library_geometries>
  <library_controllers>
    <controller id="Armature_Mouse001LLegDigit42_ncl1_1-skin" name="Armature">
      <skin source="#Mouse001LLegDigit42_ncl1_1Mesh-mesh">
        <bind_shape_matrix>-0.04796625 -0.03739367 0.9981511 -7.075535 0.9844462 -0.1708436 0.04090784 14.50893 0.1689963 0.9845939 0.04500673 0.1625979 0 0 0 1</bind_shape_matrix>
        <source id="Armature_Mouse001LLegDigit42_ncl1_1-skin-joints">
          <Name_array id="Armature_Mouse001LLegDigit42_ncl1_1-skin-joints-array" count="1">LFPhalange2</Name_array>
          <technique_common>
            <accessor source="#Armature_Mouse001LLegDigit42_ncl1_1-skin-joints-array" count="1" stride="1">
              <param name="JOINT" type="name"/>
            </accessor>
          </technique_common>
        </source>
        <source id="Armature_Mouse001LLegDigit42_ncl1_1-skin-bind_poses">
          <float_array id="Armature_Mouse001LLegDigit42_ncl1_1-skin-bind_poses-array" count="16">0.9984284 0.05604565 -4.79184e-4 6.25133 -0.05604571 0.9982822 -0.01708507 -14.87778 -4.79132e-4 0.01708501 0.9998538 -0.4138502 0 0 0 1</float_array>
          <technique_common>
            <accessor source="#Armature_Mouse001LLegDigit42_ncl1_1-skin-bind_poses-array" count="1" stride="16">
              <param name="TRANSFORM" type="float4x4"/>
            </accessor>
          </technique_common>
        </source>
        <source id="Armature_Mouse001LLegDigit42_ncl1_1-skin-weights">
          <float_array id="Armature_Mouse001LLegDigit42_ncl1_1-skin-weights-array" count="266">1 1 1 1 1 1 1 1 1 1 1 1 1 1 1 1 1 1 1 1 1 1 1 1 1 1 1 1 1 1 1 1 1 1 1 1 1 1 1 1 1 1 1 1 1 1 1 1 1 1 1 1 1 1 1 1 1 1 1 1 1 1 1 1 1 1 1 1 1 1 1 1 1 1 1 1 1 1 1 1 1 1 1 1 1 1 1 1 1 1 1 1 1 1 1 1 1 1 1 1 1 1 1 1 1 1 1 1 1 1 1 1 1 1 1 1 1 1 1 1 1 1 1 1 1 1 1 1 1 1 1 1 1 1 1 1 1 1 1 1 1 1 1 1 1 1 1 1 1 1 1 1 1 1 1 1 1 1 1 1 1 1 1 1 1 1 1 1 1 1 1 1 1 1 1 1 1 1 1 1 1 1 1 1 1 1 1 1 1 1 1 1 1 1 1 1 1 1 1 1 1 1 1 1 1 1 1 1 1 1 1 1 1 1 1 1 1 1 1 1 1 1 1 1 1 1 1 1 1 1 1 1 1 1 1 1 1 1 1 1 1 1 1 1 1 1 1 1 1 1 1 1 1 1 1 1 1 1 1 1 1 1 1 1 1 1</float_array>
          <technique_common>
            <accessor source="#Armature_Mouse001LLegDigit42_ncl1_1-skin-weights-array" count="266" stride="1">
              <param name="WEIGHT" type="float"/>
            </accessor>
          </technique_common>
        </source>
        <joints>
          <input semantic="JOINT" source="#Armature_Mouse001LLegDigit42_ncl1_1-skin-joints"/>
          <input semantic="INV_BIND_MATRIX" source="#Armature_Mouse001LLegDigit42_ncl1_1-skin-bind_poses"/>
        </joints>
        <vertex_weights count="266">
          <input semantic="JOINT" source="#Armature_Mouse001LLegDigit42_ncl1_1-skin-joints" offset="0"/>
          <input semantic="WEIGHT" source="#Armature_Mouse001LLegDigit42_ncl1_1-skin-weights" offset="1"/>
          <vcount>1 1 1 1 1 1 1 1 1 1 1 1 1 1 1 1 1 1 1 1 1 1 1 1 1 1 1 1 1 1 1 1 1 1 1 1 1 1 1 1 1 1 1 1 1 1 1 1 1 1 1 1 1 1 1 1 1 1 1 1 1 1 1 1 1 1 1 1 1 1 1 1 1 1 1 1 1 1 1 1 1 1 1 1 1 1 1 1 1 1 1 1 1 1 1 1 1 1 1 1 1 1 1 1 1 1 1 1 1 1 1 1 1 1 1 1 1 1 1 1 1 1 1 1 1 1 1 1 1 1 1 1 1 1 1 1 1 1 1 1 1 1 1 1 1 1 1 1 1 1 1 1 1 1 1 1 1 1 1 1 1 1 1 1 1 1 1 1 1 1 1 1 1 1 1 1 1 1 1 1 1 1 1 1 1 1 1 1 1 1 1 1 1 1 1 1 1 1 1 1 1 1 1 1 1 1 1 1 1 1 1 1 1 1 1 1 1 1 1 1 1 1 1 1 1 1 1 1 1 1 1 1 1 1 1 1 1 1 1 1 1 1 1 1 1 1 1 1 1 1 1 1 1 1 1 1 1 1 1 1 1 1 1 1 1 1 </vcount>
          <v>0 0 0 1 0 2 0 3 0 4 0 5 0 6 0 7 0 8 0 9 0 10 0 11 0 12 0 13 0 14 0 15 0 16 0 17 0 18 0 19 0 20 0 21 0 22 0 23 0 24 0 25 0 26 0 27 0 28 0 29 0 30 0 31 0 32 0 33 0 34 0 35 0 36 0 37 0 38 0 39 0 40 0 41 0 42 0 43 0 44 0 45 0 46 0 47 0 48 0 49 0 50 0 51 0 52 0 53 0 54 0 55 0 56 0 57 0 58 0 59 0 60 0 61 0 62 0 63 0 64 0 65 0 66 0 67 0 68 0 69 0 70 0 71 0 72 0 73 0 74 0 75 0 76 0 77 0 78 0 79 0 80 0 81 0 82 0 83 0 84 0 85 0 86 0 87 0 88 0 89 0 90 0 91 0 92 0 93 0 94 0 95 0 96 0 97 0 98 0 99 0 100 0 101 0 102 0 103 0 104 0 105 0 106 0 107 0 108 0 109 0 110 0 111 0 112 0 113 0 114 0 115 0 116 0 117 0 118 0 119 0 120 0 121 0 122 0 123 0 124 0 125 0 126 0 127 0 128 0 129 0 130 0 131 0 132 0 133 0 134 0 135 0 136 0 137 0 138 0 139 0 140 0 141 0 142 0 143 0 144 0 145 0 146 0 147 0 148 0 149 0 150 0 151 0 152 0 153 0 154 0 155 0 156 0 157 0 158 0 159 0 160 0 161 0 162 0 163 0 164 0 165 0 166 0 167 0 168 0 169 0 170 0 171 0 172 0 173 0 174 0 175 0 176 0 177 0 178 0 179 0 180 0 181 0 182 0 183 0 184 0 185 0 186 0 187 0 188 0 189 0 190 0 191 0 192 0 193 0 194 0 195 0 196 0 197 0 198 0 199 0 200 0 201 0 202 0 203 0 204 0 205 0 206 0 207 0 208 0 209 0 210 0 211 0 212 0 213 0 214 0 215 0 216 0 217 0 218 0 219 0 220 0 221 0 222 0 223 0 224 0 225 0 226 0 227 0 228 0 229 0 230 0 231 0 232 0 233 0 234 0 235 0 236 0 237 0 238 0 239 0 240 0 241 0 242 0 243 0 244 0 245 0 246 0 247 0 248 0 249 0 250 0 251 0 252 0 253 0 254 0 255 0 256 0 257 0 258 0 259 0 260 0 261 0 262 0 263 0 264 0 265</v>
        </vertex_weights>
      </skin>
    </controller>
  </library_controllers>
  <library_visual_scenes>
    <visual_scene id="Scene" name="Scene">
      <node id="Mouse001LLegDigit42_ncl1_1" name="Mouse001LLegDigit42_ncl1_1" type="NODE">
        <matrix sid="transform">-0.04796625 -0.03739367 0.9981511 -7.075532 0.9844462 -0.1708436 0.04090784 27.09142 0.1689963 0.9845939 0.04500673 -5.108987 0 0 0 1</matrix>
        <instance_geometry url="#Mouse001LLegDigit42_ncl1_1Mesh-mesh" name="Mouse001LLegDigit42_ncl1_1"/>
      </node>
    </visual_scene>
  </library_visual_scenes>
  <scene>
    <instance_visual_scene url="#Scene"/>
  </scene>
</COLLADA>