<?xml version="1.0" encoding="utf-8"?>
<COLLADA xmlns="http://www.collada.org/2005/11/COLLADASchema" version="1.4.1" xmlns:xsi="http://www.w3.org/2001/XMLSchema-instance">
  <asset>
    <contributor>
      <author>Blender User</author>
      <authoring_tool>Blender 2.79.0 commit date:2018-03-22, commit time:14:10, hash:f4dc9f9d68b</authoring_tool>
    </contributor>
    <created>2018-10-31T09:52:40</created>
    <modified>2018-10-31T09:52:40</modified>
    <unit name="meter" meter="1"/>
    <up_axis>Z_UP</up_axis>
  </asset>
  <library_images/>
  <library_geometries>
    <geometry id="Mouse001RLegDigit51Mesh-mesh" name="Mouse001RLegDigit51Mesh">
      <mesh>
        <source id="Mouse001RLegDigit51Mesh-mesh-positions">
          <float_array id="Mouse001RLegDigit51Mesh-mesh-positions-array" count="666">1.020143 -0.07321095 0.129081 1.06114 -0.10373 0.123456 1.068943 -0.123091 0.08293998 1.033724 -0.115233 0.06696796 1.084419 -0.06489598 0.156454 1.094652 -0.093625 0.143099 1.006462 -0.009139001 0.156962 1.086841 -0.01012694 0.177138 1.03001 -0.08083295 -0.09078299 1.08487 -0.1290799 -0.07343 1.102984 -0.114959 -0.09321999 1.090339 -0.07458597 -0.11143 1.021695 -0.1127009 -0.04293996 1.079251 -0.136919 -0.03899598 1.084572 -0.006930947 -0.146134 1.012277 -0.01080799 -0.130568 1.102197 -0.114655 0.1343809 1.128289 -0.124319 0.128835 1.11854 -0.138716 0.108946 1.085794 -0.124054 0.117829 1.131939 -0.100719 0.142195 1.167691 -0.118534 -0.09582698 1.136073 -0.08688199 -0.114696 1.134315 -0.133218 -0.090878 1.180987 -0.140991 -0.074207 1.182384 -0.104043 -0.09920996 1.171134 -0.06572198 -0.119455 1.180554 0.15261 -0.08543598 1.218168 0.127489 -0.085352 1.241491 0.134167 -0.03749597 1.19324 0.157656 -0.045111 1.185508 -0.09013295 0.128325 1.223698 -0.102657 0.07617396 1.197522 -0.1251479 0.06342899 1.17802 -0.123818 0.09414595 1.212476 -0.0521 0.116933 1.242416 -0.06349796 0.07548695 1.161656 -0.111367 0.129553 1.157116 -0.130122 0.113809 0.08115196 -0.002647995 0.120696 0.104873 -0.008295953 0.09938597 0.109001 0.04034894 0.09469997 0.07990998 0.02989494 0.120266 0.064552 -0.01959198 0.131515 0.09406596 -0.05154895 0.107341 0.05650299 0.02541297 0.134469 0.082789 0.06223696 0.114759 0.070064 0.07416999 0.121201 0.109763 0.08164596 0.08703196 0.156514 0.06886398 0.194014 0.150342 0.02374094 0.197718 0.084266 0.02457499 0.202818 0.116994 0.08681195 0.189512 0.234961 0.08906996 0.169419 0.247215 0.02995699 0.182009 0.233846 0.118277 0.149861 1.12407 -0.01354295 -0.146194 1.162022 -0.005542993 -0.1360239 1.204838 -0.103062 -0.08425199 1.240771 -0.09216398 -0.05038297 1.249495 -0.03333199 -0.05890095 1.199339 -0.05001598 -0.1065559 1.157615 0.03908598 -0.14269 1.203431 0.012712 -0.111222 1.192007 0.06572896 -0.1219879 1.158705 0.102773 -0.133675 1.127057 0.04892498 -0.155891 0.142376 -0.04930597 -0.012281 0.135469 -0.06347197 0.02220195 0.127744 -0.110613 0.01379495 0.139129 -0.06867396 -0.02964496 0.145173 -0.01927495 -0.04798299 0.145963 -0.008232951 -0.01932895 0.142857 -0.008860945 0.02001196 0.148111 0.021344 -0.04970097 0.147827 0.02915996 -0.06804299 0.149563 0.06585198 -0.04289394 0.148763 0.03724294 -0.02671396 0.226368 0.149479 0.1064079 0.267465 0.153007 0.02630299 0.153013 0.157885 0.09674596 0.200001 0.1571609 0.02867299 1.085612 -0.135377 0.094639 1.116035 -0.144585 0.08421999 1.113527 -0.135596 0.06364899 1.111762 -0.135559 0.04117596 1.108745 -0.137673 0.01091295 1.03735 -0.12449 0.006061971 1.150075 -0.159192 -0.02535599 1.158328 -0.144987 -0.01352798 1.191223 -0.143118 -0.02431195 1.165669 -0.15994 -0.04587799 1.123569 -0.1556439 -0.06295096 1.117931 -0.159179 -0.02891796 1.118849 -0.142674 -0.01189994 1.085183 0.128686 -0.124474 1.010188 0.122473 -0.114625 1.011797 0.06051295 -0.1436679 1.073218 0.05949699 -0.157874 1.106307 0.162896 -0.064368 1.013089 0.157104 -0.066311 1.145222 -0.141607 0.100274 1.154879 -0.13961 0.07708495 1.202272 -0.003571987 0.131033 1.252148 -0.01417398 0.070261 1.171323 -0.01444596 0.158127 1.200263 0.080118 0.118671 1.231277 0.09743797 0.07239496 1.244885 0.05624198 0.06977796 1.200372 0.04451197 0.128663 1.164513 0.04483199 0.158509 1.177281 0.09810596 0.132431 1.12519 0.04647499 0.173435 1.137473 0.109067 0.138429 1.176911 0.153038 0.06528198 1.204901 0.139918 0.07034999 1.206085 0.15696 -3.71e-4 1.244954 0.133706 0.004870951 1.262965 0.104514 0.01138299 1.266157 0.09985595 -0.03133594 1.276509 0.04436695 -0.01938694 1.275699 0.05012297 0.013354 1.276733 -0.02525097 -0.01202094 1.277154 -0.020859 0.01963496 1.263022 -0.08947098 -0.01271295 1.264993 -0.08123898 0.02386397 1.244858 -0.117444 -0.004026949 1.246358 -0.109632 0.027426 1.213595 -0.139035 0.002844989 1.218749 -0.130441 0.03133195 1.16401 -0.142927 0.008549988 1.167649 -0.139029 0.03438496 1.159 -0.136894 0.060081 1.221781 -0.130308 -0.04042094 1.25478 0.03612995 -0.058218 1.242971 0.09564298 -0.07134699 1.111229 0.160253 0.05304199 1.120895 0.171099 -0.008709967 1.02183 0.159983 0.05052697 1.019251 0.170446 -0.01020199 1.009688 0.056306 0.152309 1.015177 0.115795 0.115185 1.090093 0.113139 0.12698 1.08546 0.04939198 0.169203 1.129668 -0.01215195 0.176979 1.133775 -0.07016396 0.15452 0.589986 0.150034 0.06040298 0.587723 0.15091 0.01010894 0.587846 0.133352 -0.04125398 0.589098 0.094397 -0.07937699 0.589532 0.044025 -0.09531897 0.587781 -0.020554 -0.088045 0.587509 -0.07125395 -0.05831396 0.589207 -0.09420895 -0.02122098 0.591976 -0.09471696 0.03462797 0.594098 -0.074678 0.08581995 0.596233 -0.02971297 0.124916 0.596467 0.02309095 0.141074 0.594112 0.077591 0.13099 0.592829 0.126204 0.09960895 0.283837 -0.094401 -0.06247895 0.275698 -0.119146 0.008143961 0.27218 -0.110005 0.09246498 0.268581 -0.078152 0.146585 0.250667 -0.02376496 0.177278 0.187765 -0.08855199 0.1548849 0.16098 -0.03160798 0.186904 0.133814 -0.101503 0.15131 0.07742595 -0.03853595 0.192395 0.106532 -0.109594 0.140848 0.05512499 -0.04447299 0.184913 0.04010695 0.02343696 0.192306 0.03960299 -0.04433995 0.169722 0.02734196 0.02521395 0.176256 0.063681 0.106845 0.153501 0.102584 0.107679 0.179398 0.03715896 0.02566695 0.144784 0.05704796 0.09189397 0.128008 0.114634 0.139223 0.08384096 0.106626 0.113761 0.08386296 0.133655 0.127335 0.030788 0.156351 0.149389 0.02727299 0.151278 0.118775 -0.02147895 0.180297 0.1382949 -0.03030198 0.211571 0.14486 -0.03263497 0.186476 0.097512 -0.08062899 0.218031 0.09981596 -0.08579599 0.268731 0.09819298 -0.08641797 0.268296 0.138493 -0.04107499 0.211001 0.03595298 -0.108782 0.270624 0.03862196 -0.10614 0.214114 -0.04244297 -0.105903 0.274745 -0.03970199 -0.09639298 0.226447 -0.104089 -0.07138097 0.1799809 -0.03569799 -0.107668 0.18714 -0.108373 -0.07567095 0.173196 -0.14157 0.01000797 0.210003 -0.134324 0.01287698 0.161545 -0.135174 0.087686 0.201174 -0.126403 0.09294098 0.1516759 -0.139243 0.006400942 0.137642 -0.136982 0.08126395 0.132322 -0.130068 0.00771296 0.118887 -0.129249 0.07265198 0.08659899 -0.107193 0.128017 0.112863 -0.1100839 0.06732195 0.08272397 -0.09112197 0.114965 0.03769296 -0.03762698 0.150545 0.116857 -0.077407 0.06783795 0.128967 -0.01195597 0.06309998 0.145527 0.04618996 0.01155698 0.133867 0.04562395 0.05532795 0.145802 0.09170097 -0.004461944 0.133711 0.091057 0.04325795 0.159191 0.08841097 -0.06668698 0.160856 0.04161399 -0.09472995 0.180966 0.04039394 -0.105228 0.158873 -0.03015595 -0.100977 0.144068 -0.02429896 -0.080976 0.132448 -0.08713299 -0.05296897 0.159728 -0.1069419 -0.07401597 1.084649 -0.135981 -0.01453399</float_array>
          <technique_common>
            <accessor source="#Mouse001RLegDigit51Mesh-mesh-positions-array" count="222" stride="3">
              <param name="X" type="float"/>
              <param name="Y" type="float"/>
              <param name="Z" type="float"/>
            </accessor>
          </technique_common>
        </source>
        <source id="Mouse001RLegDigit51Mesh-mesh-normals">
          <float_array id="Mouse001RLegDigit51Mesh-mesh-normals-array" count="666">-0.1985552 -0.9384528 0.2826345 -0.4137196 -0.6789019 0.6065711 -0.2142128 -0.6186199 0.7559249 -0.4080978 -0.9066535 0.106938 -0.1832965 -0.4030936 0.8966147 -0.1933076 -0.463096 0.8649708 -0.1334892 -0.177894 0.9749535 -0.1416093 -0.1302561 0.9813156 -0.3807872 -0.7356637 -0.5601787 -0.2150976 -0.4678252 -0.8572472 -0.3099536 -0.5272202 -0.7911813 -0.1946823 -0.6297647 -0.7519943 -0.2270299 -0.9040911 -0.3620454 -0.410423 -0.9059338 -0.1041012 -0.1162463 -0.3209058 -0.9399502 -0.1348046 -0.3561625 -0.9246491 -0.221204 -0.5726645 0.7893822 -0.09409064 -0.8922283 0.4416736 0.05008232 -0.6794533 0.7320077 -0.371758 -0.7406777 0.5596361 0.09662365 -0.4247657 0.9001322 -0.0257585 -0.4269076 -0.9039283 0.2028025 -0.5115385 -0.8349848 -0.07053041 -0.6469511 -0.7592627 0.3767027 -0.749499 -0.5443771 0.385949 -0.4032841 -0.8297019 0.3269522 -0.3090375 -0.8930835 0.6020355 0.5270177 -0.5998381 0.3080325 0.9357254 -0.1718548 0.6714236 0.6982806 -0.2481825 0.2731773 0.8350662 -0.4775338 0.656655 -0.5645475 0.5000905 0.5099495 -0.7867304 0.3478606 0.3625418 -0.8767048 0.3161521 0.5444421 -0.4106434 0.7314062 0.8112019 -0.2317938 0.5368643 0.7148587 -0.174419 0.6771671 0.383809 -0.5283783 0.7573026 0.4021272 -0.7556672 0.5169728 -0.7503759 0.03906458 -0.659856 -0.5794285 -0.05798554 -0.8129578 -0.7552868 -0.05130261 -0.6533835 -0.6101077 0.03061068 -0.791727 -0.5730287 0.002166807 -0.8195324 -0.7286725 0.07117038 -0.6811544 -0.4877253 -0.06482249 -0.8705872 -0.594941 -0.1399915 -0.7914845 -0.5653105 -0.123573 -0.8155696 -0.760524 -0.132817 -0.6355808 0.0149545 0.3951051 0.9185142 0.101415 -0.03433394 0.9942516 0.09204471 0.2768666 0.9564899 -0.09457778 0.05661237 0.9939065 0.1419123 0.06219726 0.9879233 0.140417 0.4200302 0.8965812 0.06161737 0.7071809 0.7043427 0.08645993 -0.2722894 -0.9583232 0.4085626 -0.1326676 -0.9030371 0.7651548 -0.3392549 -0.5472149 0.6056478 -0.1790239 -0.775333 0.7942559 -0.12879 -0.5937768 0.6174415 -0.3842414 -0.6863852 0.5846295 0.08377569 -0.8069634 0.6407442 -0.05459827 -0.7658106 0.4370895 -0.02343839 -0.8991127 0.2909061 0.398882 -0.869636 0.185283 0.0704081 -0.9801597 -0.9759966 0.2171729 0.01632761 -0.9604018 0.1685258 -0.2218729 -0.9863862 0.1530241 -0.06021469 -0.9837907 -0.0202648 -0.1781718 -0.9969321 0.06528002 -0.04318428 -0.995387 0.0952202 0.01174992 -0.9782475 0.0679652 -0.1959913 -0.9985145 0.05237025 0.01504576 -0.9828342 0.08359158 -0.1644669 -0.9733225 0.1386493 -0.1828108 -0.9984688 0.02481216 -0.04944121 0.007080316 0.9611895 0.2757983 0.02847421 0.9968124 -0.07452744 0.05276769 0.9329109 0.3562201 -0.02349996 0.988494 -0.1494231 -0.1614133 0.9693037 0.1854619 -0.03573757 0.9939693 -0.1036726 -0.4418587 -0.8938498 0.07611513 -0.1686813 -0.9733279 -0.1554968 -0.1342231 -0.9849129 -0.1092279 -0.1388328 -0.9880661 0.06671541 -0.177407 -0.983994 0.01681596 -0.1487185 -0.9826166 0.1111192 0.2844356 -0.9541716 -0.09302139 0.1102648 -0.9326271 0.3435818 0.1596478 -0.893338 0.4200713 0.2843179 -0.9583063 0.02850502 -0.2341148 -0.9377411 0.2565771 -0.1788113 -0.8929274 -0.4131674 -0.1301342 -0.8854253 0.4461919 -0.1343747 0.6400731 -0.7564721 -0.07935017 0.1419453 -0.986689 -0.1679459 0.1281492 -0.9774313 -0.03164851 0.6662369 -0.7450683 0.005310297 0.9491419 -0.3148038 -0.07913559 0.9110816 -0.404559 0.2271513 -0.9358588 0.2693894 0.3027175 -0.9516421 -0.05233997 0.8461164 -0.01037651 0.5328971 0.7123538 0.01287919 0.7017025 0.5151914 -0.1001328 0.8512058 0.7049976 0.1295547 0.6972762 0.8290551 0.1612941 0.535399 0.6985571 0.2745825 0.6607741 0.7671005 0.3572274 0.5328655 0.4755148 0.199502 0.8567874 0.4541881 0.4864469 0.7463797 0.08044981 0.6539143 0.7522792 0.1231435 0.2903867 0.9489527 0.1938575 0.9041902 0.380604 0.5165664 0.7151848 0.4708183 0.3523086 0.9340878 0.05795508 0.6951061 0.7039566 0.1458514 0.8861603 0.3933641 0.2449179 0.9101387 0.323746 -0.2585268 0.9627157 0.1343743 0.2347812 0.9690521 0.05502647 -0.2406455 0.9713882 -0.06811833 0.2275189 0.9649629 -0.1117926 -0.23738 0.910055 -0.3380622 0.2398206 0.8995611 -0.3814627 -0.2127816 0.7348991 -0.6249694 0.2633185 0.7256525 -0.6873815 -0.0305801 0.3587198 -0.9301263 0.07864731 0.432797 -0.8581472 0.2761709 0.08435422 -0.9828304 0.1641001 0.01614469 -0.9929778 0.1171943 0.1564698 -0.9863368 0.05154621 0.5890566 -0.7419287 -0.3202409 0.8088877 -0.01071232 -0.5878658 0.7727798 0.1971548 -0.6032755 0.06256359 0.9979965 0.009430289 0.008423328 0.9376448 0.3474929 -0.03109854 0.9991522 -0.02697849 -0.01785367 0.9301007 0.3668704 -0.02942067 0.8467608 -0.5311596 -0.03939968 0.5196729 -0.8534563 -0.04074281 0.09466987 -0.9946747 -0.02139377 -0.3164209 -0.9483776 -0.002960324 -0.6974557 -0.7166218 0.01055961 -0.9609898 -0.2763822 0.01718205 -0.9851165 0.1710274 0.02868831 -0.8214316 0.569585 0.03781276 -0.4821364 0.8752799 0.03930896 -0.04980766 0.997985 -0.1021168 0.3226476 0.9409945 0.04336822 0.375268 0.9259012 -0.05185234 0.7017011 0.7105822 0.03903454 0.7240772 0.6886135 -0.129373 0.3388907 0.9318883 -0.08191359 0.7123492 0.6970285 0.195107 -0.1403867 0.9706827 0.1651076 -0.3512428 0.9216117 0.1548843 -0.9317477 0.3284159 0.1422493 -0.9842703 -0.1047719 0.1457908 -0.6685255 0.729259 0.1272031 -0.2678347 0.9550309 0.0202648 0.8855792 -0.4640463 0.01312339 0.5457822 -0.8378244 0.04297113 0.1176823 -0.9921212 0.1128307 -0.3160299 -0.9420162 0.1344066 -0.7713119 -0.6221035 0.1111192 -0.3113839 0.9437652 0.1324527 -0.6550309 0.7439025 -0.08386552 -0.358107 0.9299064 0.05151659 -0.7123512 0.6999298 -0.185161 -0.8260067 0.5323799 -0.4297142 -0.455198 0.7798337 -0.5626527 0.09967583 0.8206624 -0.960556 0.1452095 0.2371634 -0.823901 -0.4594691 0.3317761 -0.1487181 0.6596029 0.7367544 -0.6807091 0.6750631 0.2844732 -0.8077083 0.06634765 -0.5858373 -0.8581348 0.2801954 -0.4302271 -0.6704493 0.7035933 -0.2354874 -0.7933451 0.05719286 -0.6060796 -0.8664049 0.3134305 -0.3887209 -0.4282411 0.8627386 -0.2688714 -0.8161066 0.4329109 -0.3828294 -0.3730086 0.8086126 -0.4549838 -0.08169984 0.8998891 -0.428398 -0.3291831 0.5567362 -0.7626816 -0.0764504 0.5632611 -0.8227347 -0.02447611 0.1674569 -0.9855756 0.07950294 -0.2662205 -0.9606279 0.1818013 -0.7551915 -0.629789 0.03576856 -0.7379872 -0.6738661 -0.1613243 -0.1843358 -0.9695333 0.2043866 -0.9748114 -0.08926844 0.06906539 -0.9883705 -0.1354755 0.180951 -0.9228229 0.3400806 0.09003293 -0.9466277 0.3094997 -0.1895573 -0.9648164 0.1822021 -0.2692089 -0.931748 -0.2436645 -0.6638855 -0.7401531 -0.1069089 -0.721542 -0.6372166 -0.2707995 -0.6505563 -0.7520036 0.1061472 -0.8445639 -0.2378988 -0.4797042 -0.9165207 -0.1546405 -0.368885 -0.8776373 -0.2515078 -0.4080402 -0.8876998 0.1358391 -0.4399282 -0.897671 0.07449817 -0.4343234 -0.9136007 -0.04394805 -0.4042305 -0.9845546 -0.01684665 -0.1742655 -0.9193762 -0.1162191 -0.3758199 -0.9782212 -0.008117973 -0.2074062 -0.7617013 0.3821629 -0.5232233 -0.6875838 0.2616358 -0.6773296 -0.2626161 0.2459527 -0.9330273 -0.5753095 -0.08700901 -0.8132948 -0.938762 0.04931855 -0.3410184 -0.9347659 -0.1813437 -0.305495 -0.4003483 -0.641418 -0.6544496 -0.2731782 -0.9467695 0.1702976</float_array>
          <technique_common>
            <accessor source="#Mouse001RLegDigit51Mesh-mesh-normals-array" count="222" stride="3">
              <param name="X" type="float"/>
              <param name="Y" type="float"/>
              <param name="Z" type="float"/>
            </accessor>
          </technique_common>
        </source>
        <source id="Mouse001RLegDigit51Mesh-mesh-map-0">
          <float_array id="Mouse001RLegDigit51Mesh-mesh-map-0-array" count="2640">0.204795 0.269064 0.204052 0.270672 0.205402 0.271305 0.204052 0.270672 0.204795 0.269064 0.2037079 0.269388 0.204052 0.270672 0.203567 0.272071 0.205402 0.271305 0.203567 0.272071 0.204052 0.270672 0.203151 0.271352 0.206004 0.273373 0.205402 0.271305 0.203712 0.27359 0.203712 0.27359 0.205402 0.271305 0.203567 0.272071 0.205576 0.292738 0.205004 0.290912 0.204869 0.292208 0.205004 0.290912 0.205576 0.292738 0.206968 0.291033 0.207677 0.292652 0.205576 0.292738 0.206112 0.293634 0.205576 0.292738 0.207677 0.292652 0.206968 0.291033 0.206968 0.291033 0.204785 0.288747 0.205004 0.290912 0.204785 0.288747 0.206968 0.291033 0.206995 0.288589 0.202825 0.270827 0.202214 0.270003 0.202059 0.270616 0.202214 0.270003 0.202825 0.270827 0.2032189 0.270306 0.2032189 0.270306 0.203151 0.271352 0.204052 0.270672 0.203151 0.271352 0.2032189 0.270306 0.202825 0.270827 0.2020609 0.271267 0.203151 0.271352 0.202825 0.270827 0.2020609 0.271267 0.202825 0.270827 0.202059 0.270616 0.203628 0.291452 0.203004 0.292792 0.204037 0.292875 0.2028689 0.293843 0.204037 0.292875 0.203004 0.292792 0.191829 0.27233 0.190364 0.272919 0.191362 0.27359 0.190364 0.272919 0.191829 0.27233 0.191448 0.271845 0.200194 0.283999 0.2009429 0.282455 0.199329 0.282506 0.2009429 0.282455 0.200194 0.283999 0.201421 0.283553 0.198633 0.270681 0.200384 0.270141 0.199576 0.269598 0.200384 0.270141 0.198633 0.270681 0.200468 0.27148 0.200468 0.27148 0.198292 0.27224 0.199748 0.272562 0.198292 0.27224 0.200468 0.27148 0.198633 0.270681 0.2011539 0.270946 0.2020609 0.271267 0.202059 0.270616 0.2011539 0.270946 0.202059 0.270616 0.201184 0.270321 0.234805 0.269233 0.235141 0.270773 0.235963 0.270147 0.235141 0.270773 0.234805 0.269233 0.23444 0.270023 0.234805 0.269233 0.2338179 0.270028 0.23444 0.270023 0.2338179 0.270028 0.234805 0.269233 0.233604 0.268604 0.2347159 0.271138 0.23444 0.270023 0.2338179 0.270028 0.23444 0.270023 0.2347159 0.271138 0.235141 0.270773 0.235141 0.270773 0.2347159 0.271138 0.235827 0.271507 0.2347159 0.271138 0.235729 0.272287 0.235827 0.271507 0.235141 0.270773 0.235827 0.271507 0.235963 0.270147 0.236932 0.270917 0.235963 0.270147 0.235827 0.271507 0.23242 0.273655 0.231057 0.272029 0.231158 0.273282 0.231057 0.272029 0.23242 0.273655 0.232879 0.271817 0.228308 0.272496 0.231158 0.273282 0.231057 0.272029 0.231158 0.273282 0.228308 0.272496 0.228893 0.274158 0.231158 0.273282 0.229045 0.275066 0.23242 0.273655 0.229045 0.275066 0.231158 0.273282 0.228893 0.274158 0.205004 0.290912 0.203639 0.2891 0.203628 0.291452 0.203639 0.2891 0.205004 0.290912 0.204785 0.288747 0.204037 0.292875 0.204869 0.292208 0.203628 0.291452 0.204869 0.292208 0.205004 0.290912 0.203628 0.291452 0.191362 0.27359 0.1899549 0.275349 0.191127 0.275462 0.1899549 0.275349 0.191362 0.27359 0.190364 0.272919 0.19414 0.272316 0.192293 0.273935 0.19433 0.274085 0.192293 0.273935 0.19414 0.272316 0.192634 0.27225 0.192634 0.27225 0.191362 0.27359 0.192293 0.273935 0.191362 0.27359 0.192634 0.27225 0.191829 0.27233 0.19242 0.277421 0.192589 0.275786 0.191127 0.276821 0.192589 0.275786 0.191127 0.275462 0.191127 0.276821 0.19242 0.277421 0.191127 0.276821 0.1916339 0.278713 0.190203 0.277266 0.1916339 0.278713 0.191127 0.276821 0.235602 0.265156 0.234865 0.266375 0.2357929 0.265867 0.234865 0.266375 0.235602 0.265156 0.2338269 0.265333 0.2357929 0.265867 0.23689 0.266445 0.2370949 0.265609 0.2370949 0.265609 0.235602 0.265156 0.2357929 0.265867 0.234865 0.266375 0.236232 0.267311 0.2357929 0.265867 0.236232 0.267311 0.23689 0.266445 0.2357929 0.265867 0.238074 0.266299 0.239002 0.267264 0.238543 0.266004 0.239002 0.267264 0.238074 0.266299 0.238073 0.267122 0.238074 0.266299 0.23689 0.266445 0.238073 0.267122 0.23689 0.266445 0.238074 0.266299 0.2370949 0.265609 0.2187409 0.278473 0.228557 0.278798 0.229472 0.276424 0.228557 0.278798 0.2187409 0.278473 0.218928 0.280017 0.231875 0.27633 0.229472 0.276424 0.2306579 0.278444 0.2306579 0.278444 0.229472 0.276424 0.228557 0.278798 0.203115 0.269647 0.202247 0.268875 0.202192 0.269401 0.2037079 0.269388 0.202247 0.268875 0.203115 0.269647 0.202214 0.270003 0.2032189 0.270306 0.203115 0.269647 0.202214 0.270003 0.203115 0.269647 0.202192 0.269401 0.2032189 0.270306 0.204052 0.270672 0.203115 0.269647 0.204052 0.270672 0.2037079 0.269388 0.203115 0.269647 0.202267 0.268277 0.2037079 0.269388 0.204795 0.269064 0.2037079 0.269388 0.202267 0.268277 0.202247 0.268875 0.202267 0.268277 0.204711 0.267258 0.202292 0.267382 0.204711 0.267258 0.202267 0.268277 0.204795 0.269064 0.203692 0.294539 0.204264 0.295424 0.204308 0.294884 0.204264 0.295424 0.203692 0.294539 0.203195 0.295456 0.204308 0.294884 0.20509 0.294446 0.204608 0.29368 0.204608 0.29368 0.203692 0.294539 0.204308 0.294884 0.20509 0.294446 0.204308 0.294884 0.205391 0.294957 0.204264 0.295424 0.205391 0.294957 0.204308 0.294884 0.204608 0.29368 0.204869 0.292208 0.204037 0.292875 0.204869 0.292208 0.204608 0.29368 0.205576 0.292738 0.206505 0.284552 0.204804 0.286827 0.206646 0.286508 0.204804 0.286827 0.206505 0.284552 0.204252 0.284744 0.204252 0.284744 0.203252 0.287283 0.204804 0.286827 0.203252 0.287283 0.204252 0.284744 0.202123 0.285588 0.203552 0.282876 0.204252 0.284744 0.2063339 0.282889 0.2063339 0.282889 0.204252 0.284744 0.206505 0.284552 0.201436 0.269855 0.202214 0.270003 0.202192 0.269401 0.202192 0.269401 0.201008 0.269365 0.201436 0.269855 0.201436 0.269855 0.201008 0.269365 0.200384 0.270141 0.200384 0.270141 0.201184 0.270321 0.201436 0.269855 0.199748 0.272562 0.1982139 0.273891 0.2003909 0.273968 0.1982139 0.273891 0.199748 0.272562 0.198292 0.27224 0.201415 0.273606 0.200468 0.27148 0.199748 0.272562 0.201415 0.273606 0.199748 0.272562 0.2003909 0.273968 0.200589 0.275391 0.198651 0.276043 0.200571 0.276496 0.198651 0.276043 0.199165 0.277347 0.200571 0.276496 0.201799 0.275219 0.200571 0.276496 0.201355 0.27687 0.200571 0.276496 0.201799 0.275219 0.200589 0.275391 0.20247 0.277043 0.201799 0.275219 0.201355 0.27687 0.201799 0.275219 0.20247 0.277043 0.202873 0.275128 0.20247 0.277043 0.201355 0.27687 0.201083 0.279273 0.201083 0.279273 0.201355 0.27687 0.1999779 0.27884 0.1999779 0.27884 0.201355 0.27687 0.199165 0.277347 0.200571 0.276496 0.199165 0.277347 0.201355 0.27687 0.1999779 0.27884 0.200444 0.281205 0.201083 0.279273 0.200444 0.281205 0.1999779 0.27884 0.199071 0.281152 0.1999779 0.27884 0.199165 0.277347 0.197238 0.277771 0.1999779 0.27884 0.197238 0.277771 0.197342 0.278815 0.197342 0.278815 0.195989 0.277788 0.195873 0.279026 0.195989 0.277788 0.197342 0.278815 0.197238 0.277771 0.1968989 0.276115 0.195989 0.277788 0.197238 0.277771 0.195989 0.277788 0.1968989 0.276115 0.196036 0.276101 0.199165 0.277347 0.198651 0.276043 0.197238 0.277771 0.198651 0.276043 0.1968989 0.276115 0.197238 0.277771 0.19669 0.273985 0.196036 0.276101 0.1968989 0.276115 0.196036 0.276101 0.19669 0.273985 0.195861 0.274041 0.198651 0.276043 0.1982139 0.273891 0.1968989 0.276115 0.1982139 0.273891 0.19669 0.273985 0.1968989 0.276115 0.196587 0.272111 0.195861 0.274041 0.19669 0.273985 0.195861 0.274041 0.196587 0.272111 0.195453 0.272154 0.1982139 0.273891 0.198292 0.27224 0.19669 0.273985 0.198292 0.27224 0.196587 0.272111 0.19669 0.273985 0.196601 0.271071 0.195453 0.272154 0.196587 0.272111 0.195453 0.272154 0.196601 0.271071 0.195375 0.271145 0.196587 0.272111 0.198292 0.27224 0.198633 0.270681 0.198633 0.270681 0.196601 0.271071 0.196587 0.272111 0.198869 0.267873 0.197853 0.269063 0.19889 0.268777 0.197853 0.269063 0.198869 0.267873 0.1977159 0.268087 0.19889 0.268777 0.198633 0.270681 0.199576 0.269598 0.198633 0.270681 0.19889 0.268777 0.197853 0.269063 0.200478 0.26838 0.198869 0.267873 0.19889 0.268777 0.198869 0.267873 0.200478 0.26838 0.200443 0.267602 0.200478 0.26838 0.199576 0.269598 0.20081 0.269026 0.199576 0.269598 0.200478 0.26838 0.19889 0.268777 0.20081 0.269026 0.200384 0.270141 0.201008 0.269365 0.200384 0.270141 0.20081 0.269026 0.199576 0.269598 0.20081 0.269026 0.202247 0.268875 0.202267 0.268277 0.202267 0.268277 0.200478 0.26838 0.20081 0.269026 0.202247 0.268875 0.201008 0.269365 0.202192 0.269401 0.201008 0.269365 0.202247 0.268875 0.20081 0.269026 0.202267 0.268277 0.200443 0.267602 0.200478 0.26838 0.200443 0.267602 0.202267 0.268277 0.202292 0.267382 0.202889 0.296451 0.204365 0.29607 0.203195 0.295456 0.203195 0.295456 0.204365 0.29607 0.204264 0.295424 0.204365 0.29607 0.205944 0.295419 0.205391 0.294957 0.204365 0.29607 0.205391 0.294957 0.204264 0.295424 0.2017599 0.296641 0.202889 0.296451 0.202093 0.295347 0.202093 0.295347 0.202889 0.296451 0.203195 0.295456 0.195453 0.272154 0.193858 0.271056 0.19414 0.272316 0.193858 0.271056 0.195453 0.272154 0.195375 0.271145 0.195453 0.272154 0.19433 0.274085 0.195861 0.274041 0.19433 0.274085 0.195453 0.272154 0.19414 0.272316 0.195861 0.274041 0.194791 0.276101 0.196036 0.276101 0.194791 0.276101 0.195861 0.274041 0.19433 0.274085 0.195989 0.277788 0.196036 0.276101 0.194791 0.276101 0.195989 0.277788 0.194791 0.276101 0.194648 0.277942 0.194648 0.277942 0.194791 0.276101 0.19242 0.277421 0.19242 0.277421 0.194791 0.276101 0.192589 0.275786 0.19433 0.274085 0.192589 0.275786 0.194791 0.276101 0.192589 0.275786 0.19433 0.274085 0.192293 0.273935 0.195989 0.277788 0.194648 0.277942 0.195873 0.279026 0.1941069 0.279081 0.195873 0.279026 0.194648 0.277942 0.19242 0.277421 0.1941069 0.279081 0.194648 0.277942 0.1941069 0.279081 0.19242 0.277421 0.1916339 0.278713 0.199329 0.282506 0.200444 0.281205 0.199071 0.281152 0.200444 0.281205 0.199329 0.282506 0.2009429 0.282455 0.201083 0.279273 0.20304 0.281369 0.2032009 0.279678 0.20304 0.281369 0.201083 0.279273 0.200444 0.281205 0.2009429 0.282455 0.20304 0.281369 0.200444 0.281205 0.20304 0.281369 0.2009429 0.282455 0.203552 0.282876 0.2032009 0.279678 0.206077 0.281291 0.205919 0.279587 0.206077 0.281291 0.2032009 0.279678 0.20304 0.281369 0.206077 0.281291 0.203552 0.282876 0.2063339 0.282889 0.203552 0.282876 0.206077 0.281291 0.20304 0.281369 0.218928 0.280017 0.2063339 0.282889 0.219066 0.281684 0.2063339 0.282889 0.218928 0.280017 0.206077 0.281291 0.2063339 0.282889 0.219192 0.283362 0.219066 0.281684 0.219192 0.283362 0.2063339 0.282889 0.206505 0.284552 0.219192 0.283362 0.206646 0.286508 0.219363 0.28498 0.206646 0.286508 0.219192 0.283362 0.206505 0.284552 0.219363 0.28498 0.206995 0.288589 0.219645 0.286907 0.206995 0.288589 0.219363 0.28498 0.206646 0.286508 0.219645 0.286907 0.206995 0.288589 0.2198629 0.288629 0.206968 0.291033 0.2198629 0.288629 0.206995 0.288589 0.2198629 0.288629 0.207677 0.292652 0.2199749 0.289909 0.207677 0.292652 0.2198629 0.288629 0.206968 0.291033 0.2199749 0.289909 0.207677 0.292652 0.2201139 0.291546 0.207796 0.294253 0.2201139 0.291546 0.207677 0.292652 0.217591 0.268582 0.204795 0.269064 0.217751 0.27019 0.204795 0.269064 0.217591 0.268582 0.204711 0.267258 0.205402 0.271305 0.217917 0.271951 0.217751 0.27019 0.205402 0.271305 0.217751 0.27019 0.204795 0.269064 0.217917 0.271951 0.206004 0.273373 0.218096 0.273612 0.206004 0.273373 0.217917 0.271951 0.205402 0.271305 0.218096 0.273612 0.206061 0.275322 0.218338 0.275295 0.206061 0.275322 0.218096 0.273612 0.206004 0.273373 0.218338 0.275295 0.206024 0.27736 0.218541 0.27706 0.206024 0.27736 0.218338 0.275295 0.206061 0.275322 0.206024 0.27736 0.20389 0.275171 0.203822 0.277269 0.20389 0.275171 0.206024 0.27736 0.206061 0.275322 0.20389 0.275171 0.206004 0.273373 0.203712 0.27359 0.206004 0.273373 0.20389 0.275171 0.206061 0.275322 0.203822 0.277269 0.202873 0.275128 0.20247 0.277043 0.202873 0.275128 0.203822 0.277269 0.20389 0.275171 0.202873 0.275128 0.203712 0.27359 0.2026039 0.27362 0.203712 0.27359 0.202873 0.275128 0.20389 0.275171 0.2026039 0.27362 0.203712 0.27359 0.203567 0.272071 0.2026039 0.27362 0.203567 0.272071 0.202144 0.272051 0.202873 0.275128 0.2026039 0.27362 0.201799 0.275219 0.201799 0.275219 0.2026039 0.27362 0.201415 0.273606 0.202144 0.272051 0.201415 0.273606 0.2026039 0.27362 0.201415 0.273606 0.202144 0.272051 0.200468 0.27148 0.203822 0.277269 0.205919 0.279587 0.206024 0.27736 0.205919 0.279587 0.203822 0.277269 0.2032009 0.279678 0.20247 0.277043 0.2032009 0.279678 0.203822 0.277269 0.2032009 0.279678 0.20247 0.277043 0.201083 0.279273 0.206024 0.27736 0.2187409 0.278473 0.218541 0.27706 0.2187409 0.278473 0.206024 0.27736 0.205919 0.279587 0.206077 0.281291 0.2187409 0.278473 0.205919 0.279587 0.2187409 0.278473 0.206077 0.281291 0.218928 0.280017 0.2201139 0.291546 0.229043 0.293362 0.22917 0.290839 0.2201139 0.291546 0.22917 0.290839 0.2199749 0.289909 0.22667 0.267361 0.217751 0.27019 0.227204 0.269153 0.217751 0.27019 0.22667 0.267361 0.217591 0.268582 0.227204 0.269153 0.217917 0.271951 0.227989 0.27093 0.217917 0.271951 0.227204 0.269153 0.217751 0.27019 0.227989 0.27093 0.218096 0.273612 0.228308 0.272496 0.218096 0.273612 0.227989 0.27093 0.217917 0.271951 0.228308 0.272496 0.218338 0.275295 0.228893 0.274158 0.218338 0.275295 0.228308 0.272496 0.218096 0.273612 0.228893 0.274158 0.218541 0.27706 0.229045 0.275066 0.218541 0.27706 0.228893 0.274158 0.218338 0.275295 0.218541 0.27706 0.229472 0.276424 0.229045 0.275066 0.2187409 0.278473 0.229472 0.276424 0.218541 0.27706 0.218928 0.280017 0.228689 0.280757 0.228557 0.278798 0.228689 0.280757 0.218928 0.280017 0.219066 0.281684 0.219066 0.281684 0.228812 0.282499 0.228689 0.280757 0.228812 0.282499 0.219066 0.281684 0.219192 0.283362 0.228812 0.282499 0.219192 0.283362 0.228933 0.284318 0.219363 0.28498 0.228933 0.284318 0.219192 0.283362 0.228933 0.284318 0.219645 0.286907 0.229072 0.286652 0.219645 0.286907 0.228933 0.284318 0.219363 0.28498 0.229072 0.286652 0.219645 0.286907 0.228959 0.288597 0.2198629 0.288629 0.228959 0.288597 0.219645 0.286907 0.228959 0.288597 0.2199749 0.289909 0.22917 0.290839 0.2199749 0.289909 0.228959 0.288597 0.2198629 0.288629 0.227989 0.27093 0.23044 0.270467 0.229426 0.268592 0.229426 0.268592 0.227204 0.269153 0.227989 0.27093 0.23044 0.270467 0.228308 0.272496 0.231057 0.272029 0.228308 0.272496 0.23044 0.270467 0.227989 0.27093 0.23257 0.270157 0.230759 0.268167 0.23044 0.270467 0.230759 0.268167 0.229426 0.268592 0.23044 0.270467 0.23257 0.270157 0.231057 0.272029 0.232879 0.271817 0.231057 0.272029 0.23257 0.270157 0.23044 0.270467 0.230759 0.268167 0.23257 0.270157 0.231339 0.267969 0.232771 0.270151 0.231339 0.267969 0.23257 0.270157 0.232879 0.271817 0.233996 0.271482 0.23257 0.270157 0.233996 0.271482 0.232771 0.270151 0.23257 0.270157 0.232771 0.270151 0.23423 0.271474 0.233027 0.270066 0.23423 0.271474 0.232771 0.270151 0.233996 0.271482 0.233996 0.271482 0.2330189 0.274089 0.23442 0.273968 0.23442 0.273968 0.23423 0.271474 0.233996 0.271482 0.2330189 0.274089 0.232879 0.271817 0.23242 0.273655 0.232879 0.271817 0.2330189 0.274089 0.233996 0.271482 0.2330189 0.274089 0.229472 0.276424 0.231875 0.27633 0.231875 0.27633 0.23442 0.273968 0.2330189 0.274089 0.229472 0.276424 0.23242 0.273655 0.229045 0.275066 0.23242 0.273655 0.229472 0.276424 0.2330189 0.274089 0.23442 0.273968 0.234583 0.271352 0.23423 0.271474 0.234583 0.271352 0.23442 0.273968 0.235432 0.273468 0.23442 0.273968 0.231875 0.27633 0.233299 0.276331 0.233299 0.276331 0.235432 0.273468 0.23442 0.273968 0.235432 0.273468 0.237581 0.271605 0.235729 0.272287 0.237581 0.271605 0.235432 0.273468 0.238212 0.272002 0.238212 0.272002 0.239035 0.270309 0.237581 0.271605 0.239035 0.270309 0.238212 0.272002 0.239913 0.270546 0.231875 0.27633 0.232025 0.278373 0.233299 0.276331 0.232025 0.278373 0.231875 0.27633 0.2306579 0.278444 0.239913 0.270546 0.239852 0.268766 0.239035 0.270309 0.239852 0.268766 0.239913 0.270546 0.240895 0.268821 0.2306579 0.278444 0.231364 0.280236 0.232025 0.278373 0.231364 0.280236 0.2306579 0.278444 0.230392 0.280282 0.230392 0.280282 0.23129 0.282191 0.231364 0.280236 0.23129 0.282191 0.230392 0.280282 0.230332 0.282305 0.228689 0.280757 0.230332 0.282305 0.230392 0.280282 0.230332 0.282305 0.228689 0.280757 0.228812 0.282499 0.2306579 0.278444 0.228557 0.278798 0.230392 0.280282 0.228557 0.278798 0.228689 0.280757 0.230392 0.280282 0.228933 0.284318 0.230332 0.282305 0.228812 0.282499 0.230332 0.282305 0.228933 0.284318 0.2307299 0.284232 0.229072 0.286652 0.230894 0.286495 0.228933 0.284318 0.230894 0.286495 0.2307299 0.284232 0.228933 0.284318 0.228959 0.288597 0.230715 0.288564 0.229072 0.286652 0.230715 0.288564 0.230894 0.286495 0.229072 0.286652 0.2318969 0.288531 0.230894 0.286495 0.230715 0.288564 0.230894 0.286495 0.2318969 0.288531 0.231896 0.286209 0.2318969 0.288531 0.231146 0.291198 0.232271 0.291231 0.231146 0.291198 0.2318969 0.288531 0.230715 0.288564 0.231146 0.291198 0.230715 0.288564 0.22917 0.290839 0.22917 0.290839 0.230715 0.288564 0.228959 0.288597 0.232271 0.291231 0.231154 0.293593 0.23236 0.293557 0.231154 0.293593 0.232271 0.291231 0.231146 0.291198 0.231154 0.293593 0.231146 0.291198 0.229043 0.293362 0.229043 0.293362 0.231146 0.291198 0.22917 0.290839 0.230583 0.265838 0.229426 0.268592 0.230759 0.268167 0.229426 0.268592 0.230583 0.265838 0.228897 0.266446 0.229426 0.268592 0.228897 0.266446 0.227204 0.269153 0.227204 0.269153 0.228897 0.266446 0.22667 0.267361 0.231489 0.265958 0.232629 0.26386 0.230583 0.265838 0.232629 0.26386 0.231489 0.265958 0.233067 0.264343 0.231489 0.265958 0.230759 0.268167 0.231339 0.267969 0.230759 0.268167 0.231489 0.265958 0.230583 0.265838 0.232208 0.266205 0.233453 0.264832 0.231489 0.265958 0.233453 0.264832 0.233067 0.264343 0.231489 0.265958 0.232208 0.266205 0.231339 0.267969 0.231872 0.268003 0.231339 0.267969 0.232208 0.266205 0.231489 0.265958 0.232208 0.266205 0.2324399 0.268135 0.2328529 0.266542 0.2324399 0.268135 0.232208 0.266205 0.231872 0.268003 0.2324399 0.268135 0.233027 0.270066 0.233207 0.270112 0.233027 0.270066 0.2324399 0.268135 0.231872 0.268003 0.232771 0.270151 0.231872 0.268003 0.231339 0.267969 0.231872 0.268003 0.232771 0.270151 0.233027 0.270066 0.2338179 0.270028 0.233604 0.268604 0.233207 0.270112 0.233604 0.268604 0.2324399 0.268135 0.233207 0.270112 0.2338179 0.270028 0.234583 0.271352 0.2347159 0.271138 0.234583 0.271352 0.2338179 0.270028 0.233207 0.270112 0.234583 0.271352 0.233207 0.270112 0.23423 0.271474 0.233027 0.270066 0.23423 0.271474 0.233207 0.270112 0.233604 0.268604 0.233718 0.267168 0.2324399 0.268135 0.233718 0.267168 0.2328529 0.266542 0.2324399 0.268135 0.235424 0.268242 0.234865 0.266375 0.233718 0.267168 0.234865 0.266375 0.235424 0.268242 0.236232 0.267311 0.235424 0.268242 0.233604 0.268604 0.234805 0.269233 0.233604 0.268604 0.235424 0.268242 0.233718 0.267168 0.233718 0.267168 0.2338269 0.265333 0.2328529 0.266542 0.2338269 0.265333 0.233718 0.267168 0.234865 0.266375 0.23686 0.269199 0.236232 0.267311 0.235424 0.268242 0.236232 0.267311 0.23686 0.269199 0.237639 0.268174 0.234805 0.269233 0.235963 0.270147 0.235424 0.268242 0.235963 0.270147 0.23686 0.269199 0.235424 0.268242 0.2380419 0.269869 0.237639 0.268174 0.23686 0.269199 0.237639 0.268174 0.2380419 0.269869 0.238942 0.26868 0.235963 0.270147 0.236932 0.270917 0.23686 0.269199 0.236932 0.270917 0.2380419 0.269869 0.23686 0.269199 0.239035 0.270309 0.238942 0.26868 0.2380419 0.269869 0.238942 0.26868 0.239035 0.270309 0.239852 0.268766 0.236932 0.270917 0.237581 0.271605 0.2380419 0.269869 0.237581 0.271605 0.239035 0.270309 0.2380419 0.269869 0.238942 0.26868 0.239002 0.267264 0.238073 0.267122 0.238942 0.26868 0.238073 0.267122 0.237639 0.268174 0.239002 0.267264 0.239852 0.268766 0.239946 0.267084 0.239852 0.268766 0.239002 0.267264 0.238942 0.26868 0.239327 0.265553 0.239002 0.267264 0.239946 0.267084 0.239002 0.267264 0.239327 0.265553 0.238543 0.266004 0.239946 0.267084 0.239762 0.265064 0.239327 0.265553 0.239762 0.265064 0.239946 0.267084 0.240811 0.266767 0.239852 0.268766 0.240895 0.268821 0.239946 0.267084 0.240895 0.268821 0.240811 0.266767 0.239946 0.267084 0.239762 0.265064 0.237913 0.263457 0.2377409 0.264088 0.2377409 0.264088 0.239327 0.265553 0.239762 0.265064 0.231896 0.286209 0.2307299 0.284232 0.230894 0.286495 0.2307299 0.284232 0.231896 0.286209 0.23163 0.283998 0.23129 0.282191 0.2307299 0.284232 0.23163 0.283998 0.2307299 0.284232 0.23129 0.282191 0.230332 0.282305 0.239327 0.265553 0.237497 0.264759 0.238543 0.266004 0.237497 0.264759 0.239327 0.265553 0.2377409 0.264088 0.2377409 0.264088 0.235523 0.264358 0.237497 0.264759 0.235523 0.264358 0.2377409 0.264088 0.235456 0.26331 0.235456 0.26331 0.237913 0.263457 0.235422 0.262578 0.237913 0.263457 0.235456 0.26331 0.2377409 0.264088 0.233067 0.264343 0.235523 0.264358 0.235456 0.26331 0.235523 0.264358 0.233067 0.264343 0.233453 0.264832 0.235456 0.26331 0.232629 0.26386 0.233067 0.264343 0.232629 0.26386 0.235456 0.26331 0.235422 0.262578 0.237497 0.264759 0.235602 0.265156 0.2370949 0.265609 0.235602 0.265156 0.237497 0.264759 0.235523 0.264358 0.235523 0.264358 0.233453 0.264832 0.2338269 0.265333 0.235523 0.264358 0.2338269 0.265333 0.235602 0.265156 0.2370949 0.265609 0.238074 0.266299 0.237497 0.264759 0.238074 0.266299 0.238543 0.266004 0.237497 0.264759 0.237639 0.268174 0.23689 0.266445 0.236232 0.267311 0.23689 0.266445 0.237639 0.268174 0.238073 0.267122 0.232208 0.266205 0.2338269 0.265333 0.233453 0.264832 0.2338269 0.265333 0.232208 0.266205 0.2328529 0.266542 0.236932 0.270917 0.235729 0.272287 0.237581 0.271605 0.235729 0.272287 0.236932 0.270917 0.235827 0.271507 0.234583 0.271352 0.235729 0.272287 0.2347159 0.271138 0.235729 0.272287 0.234583 0.271352 0.235432 0.273468 0.201799 0.275219 0.2003909 0.273968 0.200589 0.275391 0.2003909 0.273968 0.201799 0.275219 0.201415 0.273606 0.1982139 0.273891 0.198651 0.276043 0.200589 0.275391 0.1982139 0.273891 0.200589 0.275391 0.2003909 0.273968 0.201184 0.270321 0.202059 0.270616 0.201436 0.269855 0.202059 0.270616 0.202214 0.270003 0.201436 0.269855 0.203552 0.282876 0.2009429 0.282455 0.201421 0.283553 0.201421 0.283553 0.204252 0.284744 0.203552 0.282876 0.202123 0.285588 0.201421 0.283553 0.200194 0.283999 0.201421 0.283553 0.202123 0.285588 0.204252 0.284744 0.204785 0.288747 0.206995 0.288589 0.204804 0.286827 0.206995 0.288589 0.206646 0.286508 0.204804 0.286827 0.204785 0.288747 0.203252 0.287283 0.203639 0.2891 0.203252 0.287283 0.204785 0.288747 0.204804 0.286827 0.205576 0.292738 0.204608 0.29368 0.206112 0.293634 0.206112 0.293634 0.204608 0.29368 0.20509 0.294446 0.204037 0.292875 0.203692 0.294539 0.204608 0.29368 0.203692 0.294539 0.204037 0.292875 0.2028689 0.293843 0.2028689 0.293843 0.203195 0.295456 0.203692 0.294539 0.203195 0.295456 0.2028689 0.293843 0.202093 0.295347 0.1899549 0.275349 0.191127 0.276821 0.191127 0.275462 0.191127 0.276821 0.1899549 0.275349 0.190203 0.277266 0.192293 0.273935 0.191127 0.275462 0.192589 0.275786 0.191127 0.275462 0.192293 0.273935 0.191362 0.27359 0.202144 0.272051 0.203567 0.272071 0.203151 0.271352 0.202144 0.272051 0.203151 0.271352 0.2020609 0.271267 0.193858 0.271056 0.192634 0.27225 0.19414 0.272316 0.192634 0.27225 0.193858 0.271056 0.192137 0.270989 0.192137 0.270989 0.191829 0.27233 0.192634 0.27225 0.191829 0.27233 0.192137 0.270989 0.191448 0.271845 0.200384 0.270141 0.200468 0.27148 0.201184 0.270321 0.200468 0.27148 0.2011539 0.270946 0.201184 0.270321 0.200468 0.27148 0.202144 0.272051 0.2011539 0.270946 0.202144 0.272051 0.2020609 0.271267 0.2011539 0.270946 0.206273 0.294363 0.207796 0.294253 0.206112 0.293634 0.207796 0.294253 0.207677 0.292652 0.206112 0.293634 0.206273 0.294363 0.205944 0.295419 0.207796 0.294253 0.205944 0.295419 0.206273 0.294363 0.205391 0.294957 0.206273 0.294363 0.20509 0.294446 0.205391 0.294957 0.20509 0.294446 0.206273 0.294363 0.206112 0.293634</float_array>
          <technique_common>
            <accessor source="#Mouse001RLegDigit51Mesh-mesh-map-0-array" count="1320" stride="2">
              <param name="S" type="float"/>
              <param name="T" type="float"/>
            </accessor>
          </technique_common>
        </source>
        <vertices id="Mouse001RLegDigit51Mesh-mesh-vertices">
          <input semantic="POSITION" source="#Mouse001RLegDigit51Mesh-mesh-positions"/>
        </vertices>
        <triangles count="440">
          <input semantic="VERTEX" source="#Mouse001RLegDigit51Mesh-mesh-vertices" offset="0"/>
          <input semantic="NORMAL" source="#Mouse001RLegDigit51Mesh-mesh-normals" offset="1"/>
          <input semantic="TEXCOORD" source="#Mouse001RLegDigit51Mesh-mesh-map-0" offset="2" set="0"/>
          <p>3 0 0 1 1 1 0 2 2 1 1 3 3 0 4 2 3 5 1 1 6 4 4 7 0 2 8 4 4 9 1 1 10 5 5 11 6 6 12 0 2 13 7 7 14 7 7 15 0 2 16 4 4 17 9 8 18 11 9 19 10 10 20 11 9 21 9 8 22 8 11 23 12 12 24 9 8 25 13 13 26 9 8 27 12 12 28 8 11 29 8 11 30 14 14 31 11 9 32 14 14 33 8 11 34 15 15 35 16 16 36 18 17 37 17 18 38 18 17 39 16 16 40 19 19 41 19 19 42 5 5 43 1 1 44 5 5 45 19 19 46 16 16 47 20 20 48 5 5 49 16 16 50 20 20 51 16 16 52 17 18 53 22 21 54 21 22 55 23 23 56 24 24 57 23 23 58 21 22 59 25 25 60 22 21 61 26 26 62 22 21 63 25 25 64 21 22 65 28 27 66 30 28 67 29 29 68 30 28 69 28 27 70 27 30 71 32 31 72 34 32 73 33 33 74 34 32 75 32 31 76 31 34 77 31 34 78 36 35 79 35 36 80 36 35 81 31 34 82 32 31 83 37 37 84 20 20 85 17 18 86 37 37 87 17 18 88 38 38 89 40 39 90 42 40 91 41 41 92 42 40 93 40 39 94 39 42 95 40 39 96 43 43 97 39 42 98 43 43 99 40 39 100 44 44 101 45 45 102 39 42 103 43 43 104 39 42 105 45 45 106 42 40 107 42 40 108 45 45 109 46 46 110 45 45 111 47 47 112 46 46 113 42 40 114 46 46 115 41 41 116 48 48 117 41 41 118 46 46 119 52 49 120 50 50 121 49 51 122 50 50 123 52 49 124 51 52 125 54 53 126 49 51 127 50 50 128 49 51 129 54 53 130 53 54 131 49 51 132 55 55 133 52 49 134 55 55 135 49 51 136 53 54 137 11 9 138 56 56 139 22 21 140 56 56 141 11 9 142 14 14 143 23 23 144 10 10 145 22 21 146 10 10 147 11 9 148 22 21 149 26 26 150 56 56 151 57 57 152 56 56 153 26 26 154 22 21 155 59 58 156 61 59 157 60 60 158 61 59 159 59 58 160 58 61 161 58 61 162 26 26 163 61 59 164 26 26 165 58 61 166 25 25 167 64 62 168 63 63 169 62 64 170 63 63 171 57 57 172 62 64 173 64 62 174 62 64 175 65 65 176 66 66 177 65 65 178 62 64 179 70 67 180 68 68 181 67 69 182 68 68 183 70 67 184 69 70 185 67 69 186 72 71 187 71 72 188 71 72 189 70 67 190 67 69 191 68 68 192 73 73 193 67 69 194 73 73 195 72 71 196 67 69 197 74 74 198 76 75 199 75 76 200 76 75 201 74 74 202 77 77 203 74 74 204 72 71 205 77 77 206 72 71 207 74 74 208 71 72 209 146 78 210 79 79 211 78 80 212 79 79 213 146 78 214 147 81 215 80 82 216 78 80 217 81 83 218 81 83 219 78 80 220 79 79 221 82 84 222 84 85 223 83 86 224 2 3 225 84 85 226 82 84 227 18 17 228 19 19 229 82 84 230 18 17 231 82 84 232 83 86 233 19 19 234 1 1 235 82 84 236 1 1 237 2 3 238 82 84 239 85 87 240 2 3 241 3 0 242 2 3 243 85 87 244 84 85 245 85 87 246 87 88 247 86 89 248 87 88 249 85 87 250 3 0 251 91 90 252 89 91 253 88 92 254 89 91 255 91 90 256 90 93 257 88 92 258 93 94 259 92 95 260 92 95 261 91 90 262 88 92 263 93 94 264 88 92 265 94 96 266 89 91 267 94 96 268 88 92 269 92 95 270 10 10 271 23 23 272 10 10 273 92 95 274 9 8 275 96 97 276 98 98 277 97 99 278 98 98 279 96 97 280 95 100 281 95 100 282 66 66 283 98 98 284 66 66 285 95 100 286 65 65 287 99 101 288 95 100 289 100 102 290 100 102 291 95 100 292 96 97 293 101 103 294 18 17 295 83 86 296 83 86 297 102 104 298 101 103 299 101 103 300 102 104 301 34 32 302 34 32 303 38 38 304 101 103 305 35 36 306 104 105 307 103 106 308 104 105 309 35 36 310 36 35 311 105 107 312 31 34 313 35 36 314 105 107 315 35 36 316 103 106 317 109 108 318 108 109 319 106 110 320 108 109 321 107 111 322 106 110 323 110 112 324 106 110 325 111 113 326 106 110 327 110 112 328 109 108 329 113 114 330 110 112 331 111 113 332 110 112 333 113 114 334 112 115 335 113 114 336 111 113 337 114 116 338 114 116 339 111 113 340 115 117 341 115 117 342 111 113 343 107 111 344 106 110 345 107 111 346 111 113 347 115 117 348 116 118 349 114 116 350 116 118 351 115 117 352 117 119 353 115 117 354 107 111 355 118 120 356 115 117 357 118 120 358 117 119 359 117 119 360 119 121 361 29 29 362 119 121 363 117 119 364 118 120 365 121 122 366 119 121 367 118 120 368 119 121 369 121 122 370 120 123 371 107 111 372 108 109 373 118 120 374 108 109 375 121 122 376 118 120 377 123 124 378 120 123 379 121 122 380 120 123 381 123 124 382 122 125 383 108 109 384 104 105 385 121 122 386 104 105 387 123 124 388 121 122 389 125 126 390 122 125 391 123 124 392 122 125 393 125 126 394 124 127 395 104 105 396 36 35 397 123 124 398 36 35 399 125 126 400 123 124 401 127 128 402 124 127 403 125 126 404 124 127 405 127 128 406 126 129 407 125 126 408 36 35 409 32 31 410 32 31 411 127 128 412 125 126 413 128 130 414 127 128 415 129 131 416 127 128 417 128 130 418 126 129 419 129 131 420 32 31 421 33 33 422 32 31 423 129 131 424 127 128 425 131 132 426 128 130 427 129 131 428 128 130 429 131 132 430 130 133 431 131 132 432 33 33 433 132 134 434 33 33 435 131 132 436 129 131 437 132 134 438 34 32 439 102 104 440 34 32 441 132 134 442 33 33 443 132 134 444 84 85 445 85 87 446 85 87 447 131 132 448 132 134 449 84 85 450 102 104 451 83 86 452 102 104 453 84 85 454 132 134 455 85 87 456 130 133 457 131 132 458 130 133 459 85 87 460 86 89 461 128 130 462 130 133 463 90 93 464 90 93 465 130 133 466 89 91 467 130 133 468 86 89 469 94 96 470 130 133 471 94 96 472 89 91 473 126 129 474 128 130 475 133 135 476 133 135 477 128 130 478 90 93 479 124 127 480 133 135 481 59 58 482 133 135 483 124 127 484 126 129 485 124 127 486 60 60 487 122 125 488 60 60 489 124 127 490 59 58 491 122 125 492 134 136 493 120 123 494 134 136 495 122 125 496 60 60 497 119 121 498 120 123 499 134 136 500 119 121 501 134 136 502 135 137 503 135 137 504 134 136 505 64 62 506 64 62 507 134 136 508 63 63 509 60 60 510 63 63 511 134 136 512 63 63 513 60 60 514 61 59 515 119 121 516 135 137 517 29 29 518 28 27 519 29 29 520 135 137 521 64 62 522 28 27 523 135 137 524 28 27 525 64 62 526 65 65 527 29 29 528 116 118 529 117 119 530 116 118 531 29 29 532 30 28 533 114 116 534 137 138 535 136 139 536 137 138 537 114 116 538 116 118 539 30 28 540 137 138 541 116 118 542 137 138 543 30 28 544 99 101 545 136 139 546 139 140 547 138 141 548 139 140 549 136 139 550 137 138 551 139 140 552 99 101 553 100 102 554 99 101 555 139 140 556 137 138 557 147 81 558 100 102 559 148 142 560 100 102 561 147 81 562 139 140 563 100 102 564 149 143 565 148 142 566 149 143 567 100 102 568 96 97 569 149 143 570 97 99 571 150 144 572 97 99 573 149 143 574 96 97 575 150 144 576 15 15 577 151 145 578 15 15 579 150 144 580 97 99 581 151 145 582 15 15 583 152 146 584 8 11 585 152 146 586 15 15 587 152 146 588 12 12 589 153 147 590 12 12 591 152 146 592 8 11 593 153 147 594 12 12 595 154 148 596 87 88 597 154 148 598 12 12 599 154 148 600 3 0 601 155 149 602 3 0 603 154 148 604 87 88 605 0 2 606 156 150 607 155 149 608 0 2 609 155 149 610 3 0 611 156 150 612 6 6 613 157 151 614 6 6 615 156 150 616 0 2 617 157 151 618 140 152 619 158 153 620 140 152 621 157 151 622 6 6 623 158 153 624 141 154 625 159 155 626 141 154 627 158 153 628 140 152 629 141 154 630 143 156 631 142 157 632 143 156 633 141 154 634 140 152 635 143 156 636 6 6 637 7 7 638 6 6 639 143 156 640 140 152 641 142 157 642 112 115 643 113 114 644 112 115 645 142 157 646 143 156 647 112 115 648 7 7 649 144 158 650 7 7 651 112 115 652 143 156 653 144 158 654 7 7 655 4 4 656 144 158 657 4 4 658 145 159 659 112 115 660 144 158 661 110 112 662 110 112 663 144 158 664 105 107 665 145 159 666 105 107 667 144 158 668 105 107 669 145 159 670 31 34 671 142 157 672 138 141 673 141 154 674 138 141 675 142 157 676 136 139 677 113 114 678 136 139 679 142 157 680 136 139 681 113 114 682 114 116 683 141 154 684 146 78 685 159 155 686 146 78 687 141 154 688 138 141 689 139 140 690 146 78 691 138 141 692 146 78 693 139 140 694 147 81 695 154 148 696 162 160 697 161 161 698 154 148 699 161 161 700 153 147 701 162 160 702 155 149 703 163 162 704 155 149 705 162 160 706 154 148 707 163 162 708 156 150 709 164 163 710 156 150 711 163 162 712 155 149 713 164 163 714 157 151 715 54 53 716 157 151 717 164 163 718 156 150 719 54 53 720 158 153 721 53 54 722 158 153 723 54 53 724 157 151 725 53 54 726 159 155 727 55 55 728 159 155 729 53 54 730 158 153 731 159 155 732 78 80 733 55 55 734 146 78 735 78 80 736 159 155 737 147 81 738 188 164 739 79 79 740 188 164 741 147 81 742 148 142 743 148 142 744 187 165 745 188 164 746 187 165 747 148 142 748 149 143 749 187 165 750 149 143 751 190 166 752 150 144 753 190 166 754 149 143 755 190 166 756 151 145 757 192 167 758 151 145 759 190 166 760 150 144 761 192 167 762 151 145 763 160 168 764 152 146 765 160 168 766 151 145 767 160 168 768 153 147 769 161 161 770 153 147 771 160 168 772 152 146 773 164 163 774 166 169 775 165 170 776 165 170 777 163 162 778 164 163 779 166 169 780 54 53 781 50 50 782 54 53 783 166 169 784 164 163 785 168 171 786 167 172 787 166 169 788 167 172 789 165 170 790 166 169 791 168 171 792 50 50 793 51 52 794 50 50 795 168 171 796 166 169 797 167 172 798 168 171 799 169 173 800 170 174 801 169 173 802 168 171 803 51 52 804 171 175 805 168 171 806 171 175 807 170 174 808 168 171 809 170 174 810 173 176 811 172 177 812 173 176 813 170 174 814 171 175 815 171 175 816 175 178 817 174 179 818 174 179 819 173 176 820 171 175 821 175 178 822 51 52 823 52 49 824 51 52 825 175 178 826 171 175 827 175 178 828 78 80 829 80 82 830 80 82 831 174 179 832 175 178 833 78 80 834 52 49 835 55 55 836 52 49 837 78 80 838 175 178 839 174 179 840 176 180 841 173 176 842 176 180 843 174 179 844 177 181 845 174 179 846 80 82 847 178 182 848 178 182 849 177 181 850 174 179 851 177 181 852 179 183 853 47 47 854 179 183 855 177 181 856 178 182 857 178 182 858 180 184 859 179 183 860 180 184 861 178 182 862 181 185 863 80 82 864 181 185 865 178 182 866 181 185 867 80 82 868 81 83 869 181 185 870 182 186 871 180 184 872 182 186 873 181 185 874 183 187 875 81 83 876 183 187 877 181 185 878 183 187 879 81 83 880 184 188 881 184 188 882 185 189 883 183 187 884 185 189 885 184 188 886 186 190 887 188 164 888 186 190 889 184 188 890 186 190 891 188 164 892 187 165 893 81 83 894 79 79 895 184 188 896 79 79 897 188 164 898 184 188 899 190 166 900 186 190 901 187 165 902 186 190 903 190 166 904 189 191 905 192 167 906 191 192 907 190 166 908 191 192 909 189 191 910 190 166 911 160 168 912 193 193 913 192 167 914 193 193 915 191 192 916 192 167 917 195 194 918 191 192 919 193 193 920 191 192 921 195 194 922 194 195 923 195 194 924 197 196 925 196 197 926 197 196 927 195 194 928 193 193 929 197 196 930 193 193 931 161 161 932 161 161 933 193 193 934 160 168 935 196 197 936 199 198 937 198 199 938 199 198 939 196 197 940 197 196 941 199 198 942 197 196 943 162 160 944 162 160 945 197 196 946 161 161 947 198 199 948 165 170 949 167 172 950 165 170 951 198 199 952 199 198 953 165 170 954 199 198 955 163 162 956 163 162 957 199 198 958 162 160 959 201 200 960 196 197 961 198 199 962 196 197 963 201 200 964 200 201 965 201 200 966 167 172 967 169 173 968 167 172 969 201 200 970 198 199 971 203 202 972 202 203 973 201 200 974 202 203 975 200 201 976 201 200 977 203 202 978 169 173 979 204 204 980 169 173 981 203 202 982 201 200 983 203 202 984 206 205 985 205 206 986 206 205 987 203 202 988 204 204 989 206 205 990 172 177 991 207 207 992 172 177 993 206 205 994 204 204 995 170 174 996 204 204 997 169 173 998 204 204 999 170 174 1000 172 177 1001 43 43 1002 44 44 1003 207 207 1004 44 44 1005 206 205 1006 207 207 1007 43 43 1008 176 180 1009 45 45 1010 176 180 1011 43 43 1012 207 207 1013 176 180 1014 207 207 1015 173 176 1016 172 177 1017 173 176 1018 207 207 1019 44 44 1020 208 208 1021 206 205 1022 208 208 1023 205 206 1024 206 205 1025 209 209 1026 68 68 1027 208 208 1028 68 68 1029 209 209 1030 73 73 1031 209 209 1032 44 44 1033 40 39 1034 44 44 1035 209 209 1036 208 208 1037 208 208 1038 69 70 1039 205 206 1040 69 70 1041 208 208 1042 68 68 1043 211 210 1044 73 73 1045 209 209 1046 73 73 1047 211 210 1048 210 211 1049 40 39 1050 41 41 1051 209 209 1052 41 41 1053 211 210 1054 209 209 1055 213 212 1056 210 211 1057 211 210 1058 210 211 1059 213 212 1060 212 213 1061 41 41 1062 48 48 1063 211 210 1064 48 48 1065 213 212 1066 211 210 1067 180 184 1068 212 213 1069 213 212 1070 212 213 1071 180 184 1072 182 186 1073 48 48 1074 179 183 1075 213 212 1076 179 183 1077 180 184 1078 213 212 1079 212 213 1080 76 75 1081 77 77 1082 212 213 1083 77 77 1084 210 211 1085 76 75 1086 182 186 1087 214 214 1088 182 186 1089 76 75 1090 212 213 1091 215 215 1092 76 75 1093 214 214 1094 76 75 1095 215 215 1096 75 76 1097 214 214 1098 216 216 1099 215 215 1100 216 216 1101 214 214 1102 185 189 1103 182 186 1104 183 187 1105 214 214 1106 183 187 1107 185 189 1108 214 214 1109 216 216 1110 194 195 1111 217 217 1112 217 217 1113 215 215 1114 216 216 1115 194 195 1116 189 191 1117 191 192 1118 189 191 1119 194 195 1120 216 216 1121 185 189 1122 189 191 1123 216 216 1124 189 191 1125 185 189 1126 186 190 1127 215 215 1128 218 218 1129 75 76 1130 218 218 1131 215 215 1132 217 217 1133 217 217 1134 219 219 1135 218 218 1136 219 219 1137 217 217 1138 220 220 1139 220 220 1140 194 195 1141 195 194 1142 194 195 1143 220 220 1144 217 217 1145 200 201 1146 219 219 1147 220 220 1148 219 219 1149 200 201 1150 202 203 1151 220 220 1152 196 197 1153 200 201 1154 196 197 1155 220 220 1156 195 194 1157 218 218 1158 70 67 1159 71 72 1160 70 67 1161 218 218 1162 219 219 1163 219 219 1164 202 203 1165 69 70 1166 219 219 1167 69 70 1168 70 67 1169 71 72 1170 74 74 1171 218 218 1172 74 74 1173 75 76 1174 218 218 1175 210 211 1176 72 71 1177 73 73 1178 72 71 1179 210 211 1180 77 77 1181 203 202 1182 69 70 1183 202 203 1184 69 70 1185 203 202 1186 205 206 1187 48 48 1188 47 47 1189 179 183 1190 47 47 1191 48 48 1192 46 46 1193 176 180 1194 47 47 1195 45 45 1196 47 47 1197 176 180 1198 177 181 1199 110 112 1200 103 106 1201 109 108 1202 103 106 1203 110 112 1204 105 107 1205 104 105 1206 108 109 1207 109 108 1208 104 105 1209 109 108 1210 103 106 1211 38 38 1212 17 18 1213 101 103 1214 17 18 1215 18 17 1216 101 103 1217 99 101 1218 30 28 1219 27 30 1220 27 30 1221 95 100 1222 99 101 1223 65 65 1224 27 30 1225 28 27 1226 27 30 1227 65 65 1228 95 100 1229 14 14 1230 15 15 1231 98 98 1232 15 15 1233 97 99 1234 98 98 1235 14 14 1236 66 66 1237 56 56 1238 66 66 1239 14 14 1240 98 98 1241 9 8 1242 92 95 1243 13 13 1244 13 13 1245 92 95 1246 93 94 1247 23 23 1248 91 90 1249 92 95 1250 91 90 1251 23 23 1252 24 24 1253 24 24 1254 90 93 1255 91 90 1256 90 93 1257 24 24 1258 133 135 1259 56 56 1260 62 64 1261 57 57 1262 62 64 1263 56 56 1264 66 66 1265 61 59 1266 57 57 1267 63 63 1268 57 57 1269 61 59 1270 26 26 1271 145 159 1272 4 4 1273 5 5 1274 145 159 1275 5 5 1276 20 20 1277 133 135 1278 58 61 1279 59 58 1280 58 61 1281 133 135 1282 24 24 1283 24 24 1284 25 25 1285 58 61 1286 25 25 1287 24 24 1288 21 22 1289 34 32 1290 31 34 1291 38 38 1292 31 34 1293 37 37 1294 38 38 1295 31 34 1296 145 159 1297 37 37 1298 145 159 1299 20 20 1300 37 37 1301 221 221 1302 87 88 1303 13 13 1304 87 88 1305 12 12 1306 13 13 1307 221 221 1308 86 89 1309 87 88 1310 86 89 1311 221 221 1312 94 96 1313 221 221 1314 93 94 1315 94 96 1316 93 94 1317 221 221 1318 13 13 1319</p>
        </triangles>
      </mesh>
    </geometry>
  </library_geometries>
  <library_controllers>
    <controller id="Armature_Mouse001RLegDigit51-skin" name="Armature">
      <skin source="#Mouse001RLegDigit51Mesh-mesh">
        <bind_shape_matrix>0.2230081 0.0852068 0.9710898 7.208132 0.9743673 0.01019444 -0.2246647 12.82347 -0.02904161 0.9963247 -0.08074986 0.1927195 0 0 0 1</bind_shape_matrix>
        <source id="Armature_Mouse001RLegDigit51-skin-joints">
          <Name_array id="Armature_Mouse001RLegDigit51-skin-joints-array" count="1">RMetaCarpus1</Name_array>
          <technique_common>
            <accessor source="#Armature_Mouse001RLegDigit51-skin-joints-array" count="1" stride="1">
              <param name="JOINT" type="name"/>
            </accessor>
          </technique_common>
        </source>
        <source id="Armature_Mouse001RLegDigit51-skin-bind_poses">
          <float_array id="Armature_Mouse001RLegDigit51-skin-bind_poses-array" count="16">0.9748106 -0.2230115 0.003280401 -4.167411 0.2230115 0.9743832 -0.02904254 -14.09687 0.003280282 0.0290423 0.9995728 -0.5887074 0 0 0 1</float_array>
          <technique_common>
            <accessor source="#Armature_Mouse001RLegDigit51-skin-bind_poses-array" count="1" stride="16">
              <param name="TRANSFORM" type="float4x4"/>
            </accessor>
          </technique_common>
        </source>
        <source id="Armature_Mouse001RLegDigit51-skin-weights">
          <float_array id="Armature_Mouse001RLegDigit51-skin-weights-array" count="222">1 1 1 1 1 1 1 1 1 1 1 1 1 1 1 1 1 1 1 1 1 1 1 1 1 1 1 1 1 1 1 1 1 1 1 1 1 1 1 1 1 1 1 1 1 1 1 1 1 1 1 1 1 1 1 1 1 1 1 1 1 1 1 1 1 1 1 1 1 1 1 1 1 1 1 1 1 1 1 1 1 1 1 1 1 1 1 1 1 1 1 1 1 1 1 1 1 1 1 1 1 1 1 1 1 1 1 1 1 1 1 1 1 1 1 1 1 1 1 1 1 1 1 1 1 1 1 1 1 1 1 1 1 1 1 1 1 1 1 1 1 1 1 1 1 1 1 1 1 1 1 1 1 1 1 1 1 1 1 1 1 1 1 1 1 1 1 1 1 1 1 1 1 1 1 1 1 1 1 1 1 1 1 1 1 1 1 1 1 1 1 1 1 1 1 1 1 1 1 1 1 1 1 1 1 1 1 1 1 1 1 1 1 1 1 1 1 1 1 1 1 1</float_array>
          <technique_common>
            <accessor source="#Armature_Mouse001RLegDigit51-skin-weights-array" count="222" stride="1">
              <param name="WEIGHT" type="float"/>
            </accessor>
          </technique_common>
        </source>
        <joints>
          <input semantic="JOINT" source="#Armature_Mouse001RLegDigit51-skin-joints"/>
          <input semantic="INV_BIND_MATRIX" source="#Armature_Mouse001RLegDigit51-skin-bind_poses"/>
        </joints>
        <vertex_weights count="222">
          <input semantic="JOINT" source="#Armature_Mouse001RLegDigit51-skin-joints" offset="0"/>
          <input semantic="WEIGHT" source="#Armature_Mouse001RLegDigit51-skin-weights" offset="1"/>
          <vcount>1 1 1 1 1 1 1 1 1 1 1 1 1 1 1 1 1 1 1 1 1 1 1 1 1 1 1 1 1 1 1 1 1 1 1 1 1 1 1 1 1 1 1 1 1 1 1 1 1 1 1 1 1 1 1 1 1 1 1 1 1 1 1 1 1 1 1 1 1 1 1 1 1 1 1 1 1 1 1 1 1 1 1 1 1 1 1 1 1 1 1 1 1 1 1 1 1 1 1 1 1 1 1 1 1 1 1 1 1 1 1 1 1 1 1 1 1 1 1 1 1 1 1 1 1 1 1 1 1 1 1 1 1 1 1 1 1 1 1 1 1 1 1 1 1 1 1 1 1 1 1 1 1 1 1 1 1 1 1 1 1 1 1 1 1 1 1 1 1 1 1 1 1 1 1 1 1 1 1 1 1 1 1 1 1 1 1 1 1 1 1 1 1 1 1 1 1 1 1 1 1 1 1 1 1 1 1 1 1 1 1 1 1 1 1 1 1 1 1 1 1 1 </vcount>
          <v>0 0 0 1 0 2 0 3 0 4 0 5 0 6 0 7 0 8 0 9 0 10 0 11 0 12 0 13 0 14 0 15 0 16 0 17 0 18 0 19 0 20 0 21 0 22 0 23 0 24 0 25 0 26 0 27 0 28 0 29 0 30 0 31 0 32 0 33 0 34 0 35 0 36 0 37 0 38 0 39 0 40 0 41 0 42 0 43 0 44 0 45 0 46 0 47 0 48 0 49 0 50 0 51 0 52 0 53 0 54 0 55 0 56 0 57 0 58 0 59 0 60 0 61 0 62 0 63 0 64 0 65 0 66 0 67 0 68 0 69 0 70 0 71 0 72 0 73 0 74 0 75 0 76 0 77 0 78 0 79 0 80 0 81 0 82 0 83 0 84 0 85 0 86 0 87 0 88 0 89 0 90 0 91 0 92 0 93 0 94 0 95 0 96 0 97 0 98 0 99 0 100 0 101 0 102 0 103 0 104 0 105 0 106 0 107 0 108 0 109 0 110 0 111 0 112 0 113 0 114 0 115 0 116 0 117 0 118 0 119 0 120 0 121 0 122 0 123 0 124 0 125 0 126 0 127 0 128 0 129 0 130 0 131 0 132 0 133 0 134 0 135 0 136 0 137 0 138 0 139 0 140 0 141 0 142 0 143 0 144 0 145 0 146 0 147 0 148 0 149 0 150 0 151 0 152 0 153 0 154 0 155 0 156 0 157 0 158 0 159 0 160 0 161 0 162 0 163 0 164 0 165 0 166 0 167 0 168 0 169 0 170 0 171 0 172 0 173 0 174 0 175 0 176 0 177 0 178 0 179 0 180 0 181 0 182 0 183 0 184 0 185 0 186 0 187 0 188 0 189 0 190 0 191 0 192 0 193 0 194 0 195 0 196 0 197 0 198 0 199 0 200 0 201 0 202 0 203 0 204 0 205 0 206 0 207 0 208 0 209 0 210 0 211 0 212 0 213 0 214 0 215 0 216 0 217 0 218 0 219 0 220 0 221</v>
        </vertex_weights>
      </skin>
    </controller>
  </library_controllers>
  <library_visual_scenes>
    <visual_scene id="Scene" name="Scene">
      <node id="Mouse001RLegDigit51" name="Mouse001RLegDigit51" type="NODE">
        <matrix sid="transform">0.2230081 0.0852068 0.9710898 7.208135 0.9743673 0.01019444 -0.2246647 25.40596 -0.02904161 0.9963247 -0.08074986 -5.078866 0 0 0 1</matrix>
        <instance_geometry url="#Mouse001RLegDigit51Mesh-mesh" name="Mouse001RLegDigit51"/>
      </node>
    </visual_scene>
  </library_visual_scenes>
  <scene>
    <instance_visual_scene url="#Scene"/>
  </scene>
</COLLADA>