<?xml version="1.0" encoding="utf-8"?>
<COLLADA xmlns="http://www.collada.org/2005/11/COLLADASchema" version="1.4.1" xmlns:xsi="http://www.w3.org/2001/XMLSchema-instance">
  <asset>
    <contributor>
      <author>Blender User</author>
      <authoring_tool>Blender 2.79.0 commit date:2018-03-22, commit time:14:10, hash:f4dc9f9d68b</authoring_tool>
    </contributor>
    <created>2018-10-31T09:52:37</created>
    <modified>2018-10-31T09:52:37</modified>
    <unit name="meter" meter="1"/>
    <up_axis>Z_UP</up_axis>
  </asset>
  <library_images/>
  <library_geometries>
    <geometry id="Mouse001RLegDigit11Mesh-mesh" name="Mouse001RLegDigit11Mesh">
      <mesh>
        <source id="Mouse001RLegDigit11Mesh-mesh-positions">
          <float_array id="Mouse001RLegDigit11Mesh-mesh-positions-array" count="219">0.490269 -0.07840996 0.02885699 0.45967 -0.02556794 0.08387696 0.512213 -0.07759898 0.06052094 0.571033 -0.077766 -0.07229298 0.58491 -0.08802795 -0.01821595 0.614571 -0.06479197 -0.02635097 0.586956 -0.03403794 -0.100489 0.529986 -0.08013999 -0.07613998 0.558119 -0.09183496 -0.01223295 0.537038 -0.03751295 -0.113507 0.604521 -0.01134598 -0.076725 0.622617 -0.02657496 -0.02389496 0.622004 0.02374196 -0.02363795 0.596576 0.03067898 -0.08196896 0.571941 0.03569298 -0.11038 0.588822 -0.02376198 0.08110499 0.612251 -0.04157495 0.04652595 0.599001 -0.07027095 0.04943799 0.570558 -0.03986895 0.092839 0.552561 0.005424976 0.105615 0.582297 0.01184099 0.08490896 0.616644 0.01798099 0.04507094 0.1364279 0.05038398 -0.02424198 0.39119 -0.05974298 0.03086799 0.389002 -0.007063984 0.08020097 0.576803 0.04777497 0.08746796 0.557619 0.05971997 0.102847 0.585379 0.104803 0.05457496 0.608239 0.066567 0.04909497 0.138968 0.008914947 -0.02583396 0.592183 0.07162696 -0.08052498 0.579205 0.09199196 -0.09333699 0.512225 -0.007169961 0.108439 0.541927 -0.05822098 0.08452796 0.510637 0.07032996 0.104987 0.541553 0.117166 0.04870396 0.55033 0.1299329 -0.01795995 0.392855 0.067662 0.083449 0.400438 0.115564 0.03857696 0.406327 0.126491 -0.02503496 0.407379 0.105625 -0.08600097 0.406175 0.05322897 -0.120634 0.1286489 0.07335996 -0.154283 0.135967 -0.00335896 -0.159087 0.162008 -0.06983399 -0.115128 0.187045 -0.100285 -0.04056495 0.111372 -0.005652964 -0.146713 0.142637 -0.06787699 -0.104836 0.169757 -0.09210199 -0.035604 0.184604 -0.07350295 0.03875398 0.19941 -0.080379 0.04245197 0.104946 0.07356095 -0.14152 0.156392 0.133706 -0.100777 0.137292 0.130071 -0.09209001 0.180052 0.1479189 -0.03503096 0.164493 0.142571 -0.03009796 0.189476 0.137412 0.04266297 0.172193 0.128911 0.03884994 0.189157 0.07118695 0.09132099 0.169867 0.06500101 0.08404695 0.196763 -0.01069498 0.08649796 0.1783829 -0.00822699 0.07649999 0.394257 -0.07543998 -0.03082996 0.397637 -0.05480897 -0.08350098 0.403331 -0.008640944 -0.117999 0.525567 0.04260796 -0.126127 0.533577 0.11133 -0.089531 0.596869 0.110489 -0.01648396 0.613636 0.08200198 -0.02141296 0.504118 -0.090483 -0.01888895 0.575233 -0.08403897 0.04328697 0.552442 -0.08991795 0.03430294 0.539181 -0.09123599 -0.001554965</float_array>
          <technique_common>
            <accessor source="#Mouse001RLegDigit11Mesh-mesh-positions-array" count="73" stride="3">
              <param name="X" type="float"/>
              <param name="Y" type="float"/>
              <param name="Z" type="float"/>
            </accessor>
          </technique_common>
        </source>
        <source id="Mouse001RLegDigit11Mesh-mesh-normals">
          <float_array id="Mouse001RLegDigit11Mesh-mesh-normals-array" count="219">-0.0488612 -0.3640332 0.9301035 -0.04452794 -0.8564997 0.5142233 -0.2366465 -0.4556225 0.8581414 -0.2346296 -0.9205736 0.3122394 -0.2365871 -0.8304658 0.5043345 0.3836215 -0.919837 -0.08206504 0.3397749 -0.7972943 -0.4988736 0.839064 -0.5186736 -0.1641626 0.5834931 -0.2944169 -0.7568716 0.07342946 -0.9957234 -0.05606395 -0.01663303 -0.8643991 -0.5025313 0.1059322 -0.4060891 -0.9076729 0.9875461 -0.1017821 -0.1199716 0.8784074 -0.02823036 -0.4770781 0.9862777 0.08981698 -0.138525 0.8432744 0.09900408 -0.5282863 0.5253319 0.06961494 -0.8480449 0.3453207 -0.3717194 0.8617299 0.8991156 -0.2184233 0.3793187 0.69828 -0.1072751 0.7077409 0.64005 -0.6311689 0.4381346 0.2948729 -0.07388603 0.9526757 0.6631816 0.04492419 0.7471092 0.9277611 0.05267655 0.3694381 -0.9559971 0.07666283 0.2831827 -0.6918737 0.7169911 -0.08505737 -0.864476 0.3126652 -0.3936011 -0.6370853 0.7524169 0.1673055 0.3630298 0.3096817 0.8788098 0.8736343 0.2679255 0.4061762 0.5307919 0.6995942 0.4783597 0.6834704 0.1069076 0.7221074 -0.6823481 -0.7110972 0.1695341 -0.9428261 -0.1747522 0.283797 -0.7062975 -0.6784642 -0.2020652 -0.8299207 -0.3268349 -0.452118 -0.7050551 0.5837412 0.4026706 -0.7103654 0.1205814 0.6934272 -0.6742557 -0.5711931 0.4681 -0.7254119 -0.2602681 0.6372113 0.8561822 0.1819547 -0.4835748 0.5466012 0.5346377 -0.6445072 0.002258419 -0.6267793 0.7791937 -0.1492713 -0.2123247 0.965731 -0.04641985 0.4153679 0.9084684 0.08462995 0.8948867 0.438196 -0.04446691 0.3342496 0.9414351 0.01303172 0.8872279 0.4611473 0.03500479 0.9966455 -0.07397705 0.1872314 0.9808976 -0.05276662 0.1059013 0.7864164 -0.608551 0.04095679 0.785291 -0.6177707 -0.09427207 0.9951522 -0.02801609 -0.09909498 0.863808 -0.4939795 0.0596646 0.2808358 -0.9578995 -0.1841201 0.3808141 -0.9061349 -0.1553115 -0.2698192 -0.950303 0.04196375 -0.3303694 -0.9429184 -0.1097164 -0.7710672 -0.6272302 0.01739579 -0.7983161 -0.6019874 -0.1280883 -0.9904032 -0.05191284 -0.002197384 -0.9971892 -0.07489448 -0.1544576 -0.802075 0.5769043 -0.1821708 0.8477091 0.4982 -0.1932502 0.279102 0.9406149 -0.2040536 -0.3175559 0.9260241 0.1168882 0.1582416 -0.9804575 0.6601026 0.7486391 -0.06167954 0.9340777 0.3398644 -0.1095037 -0.1109356 -0.9934152 -0.02862656 0.2576135 -0.8903095 0.3754791 0.01651066 -0.9683933 0.2488811 -0.07510846 -0.9942334 0.07654285</float_array>
          <technique_common>
            <accessor source="#Mouse001RLegDigit11Mesh-mesh-normals-array" count="73" stride="3">
              <param name="X" type="float"/>
              <param name="Y" type="float"/>
              <param name="Z" type="float"/>
            </accessor>
          </technique_common>
        </source>
        <source id="Mouse001RLegDigit11Mesh-mesh-map-0">
          <float_array id="Mouse001RLegDigit11Mesh-mesh-map-0-array" count="852">0.42364 0.25794 0.421484 0.257564 0.422795 0.259982 0.420347 0.260308 0.420892 0.261216 0.422795 0.259982 0.422795 0.259982 0.421484 0.257564 0.420347 0.260308 0.436287 0.267596 0.435747 0.266057 0.434618 0.267964 0.434437 0.265522 0.434618 0.267964 0.435747 0.266057 0.437324 0.266894 0.435747 0.266057 0.436287 0.267596 0.435747 0.266057 0.437324 0.266894 0.436466 0.265005 0.435747 0.266057 0.436466 0.265005 0.435107 0.264324 0.435107 0.264324 0.434437 0.265522 0.435747 0.266057 0.433332 0.267566 0.433593 0.265977 0.431932 0.266795 0.431932 0.266795 0.433593 0.265977 0.432628 0.265211 0.433593 0.265977 0.432961 0.264281 0.432628 0.265211 0.432961 0.264281 0.433593 0.265977 0.434437 0.265522 0.434618 0.267964 0.434437 0.265522 0.433593 0.265977 0.434618 0.267964 0.433593 0.265977 0.433332 0.267566 0.431516 0.270991 0.432541 0.269472 0.431426 0.270209 0.432541 0.269472 0.431516 0.270991 0.433204 0.270131 0.429959 0.270802 0.431516 0.270991 0.431426 0.270209 0.429959 0.270802 0.431426 0.270209 0.430388 0.269823 0.431426 0.270209 0.431056 0.268481 0.430388 0.269823 0.431056 0.268481 0.431426 0.270209 0.432541 0.269472 0.436225 0.249354 0.433275 0.251298 0.435392 0.252228 0.433275 0.251298 0.436225 0.249354 0.43318 0.249023 0.428682 0.269696 0.42973 0.267811 0.428453 0.26746 0.42973 0.267811 0.428682 0.269696 0.429388 0.269327 0.428682 0.269696 0.429959 0.270802 0.429388 0.269327 0.429959 0.270802 0.430388 0.269823 0.429388 0.269327 0.429388 0.269327 0.430388 0.269823 0.431056 0.268481 0.431056 0.268481 0.42973 0.267811 0.429388 0.269327 0.440695 0.250212 0.437494 0.249568 0.439722 0.252684 0.437494 0.249568 0.43742 0.252823 0.439722 0.252684 0.434056 0.247047 0.436225 0.249354 0.43622 0.246067 0.436225 0.249354 0.434056 0.247047 0.43318 0.249023 0.437494 0.249568 0.440305 0.247832 0.438424 0.246519 0.440305 0.247832 0.437494 0.249568 0.440695 0.250212 0.431607 0.264616 0.432628 0.265211 0.432961 0.264281 0.432961 0.264281 0.431417 0.264034 0.431607 0.264616 0.421467 0.262278 0.423334 0.263002 0.423197 0.261758 0.423334 0.263002 0.421467 0.262278 0.421775 0.263246 0.425368 0.261983 0.423334 0.263002 0.424998 0.26336 0.423334 0.263002 0.425368 0.261983 0.423197 0.261758 0.424998 0.26336 0.427363 0.263084 0.425368 0.261983 0.427363 0.263084 0.424998 0.26336 0.426982 0.264423 0.425368 0.261983 0.425894 0.258404 0.422795 0.259982 0.425368 0.261983 0.422795 0.259982 0.423197 0.261758 0.422795 0.259982 0.425894 0.258404 0.42364 0.25794 0.425368 0.261983 0.427893 0.258827 0.425894 0.258404 0.427893 0.258827 0.425368 0.261983 0.427363 0.263084 0.427363 0.263084 0.429868 0.2592 0.427893 0.258827 0.429868 0.2592 0.427363 0.263084 0.429203 0.26346 0.429868 0.2592 0.429203 0.26346 0.431167 0.262871 0.429868 0.2592 0.431167 0.262871 0.431889 0.259496 0.431889 0.259496 0.431166 0.252519 0.429868 0.2592 0.431166 0.252519 0.431889 0.259496 0.433125 0.252143 0.433125 0.252143 0.43387 0.259912 0.435377 0.252562 0.43387 0.259912 0.433125 0.252143 0.431889 0.259496 0.437316 0.253239 0.43387 0.259912 0.435771 0.26047 0.43387 0.259912 0.437316 0.253239 0.435377 0.252562 0.439521 0.253662 0.435771 0.26047 0.4375 0.260995 0.435771 0.26047 0.439521 0.253662 0.437316 0.253239 0.441537 0.254973 0.4375 0.260995 0.439118 0.261528 0.4375 0.260995 0.441537 0.254973 0.439521 0.253662 0.439722 0.252684 0.437316 0.253239 0.439521 0.253662 0.437316 0.253239 0.439722 0.252684 0.43742 0.252823 0.441537 0.254973 0.439722 0.252684 0.439521 0.253662 0.439722 0.252684 0.441537 0.254973 0.441731 0.254309 0.422089 0.251417 0.41956 0.251366 0.422008 0.251887 0.41956 0.251366 0.422089 0.251417 0.419812 0.250825 0.435392 0.252228 0.437494 0.249568 0.436225 0.249354 0.437494 0.249568 0.435392 0.252228 0.43742 0.252823 0.43742 0.252823 0.435377 0.252562 0.437316 0.253239 0.435377 0.252562 0.43742 0.252823 0.435392 0.252228 0.435377 0.252562 0.433275 0.251298 0.433125 0.252143 0.433275 0.251298 0.435377 0.252562 0.435392 0.252228 0.433125 0.252143 0.431115 0.251985 0.431166 0.252519 0.431115 0.251985 0.433125 0.252143 0.433275 0.251298 0.428969 0.251969 0.431166 0.252519 0.431115 0.251985 0.431166 0.252519 0.428969 0.251969 0.428933 0.252531 0.428969 0.251969 0.426654 0.252266 0.428933 0.252531 0.426654 0.252266 0.428969 0.251969 0.42662 0.251637 0.424387 0.251571 0.426654 0.252266 0.42662 0.251637 0.426654 0.252266 0.424387 0.251571 0.424334 0.252189 0.43622 0.246067 0.436225 0.249354 0.438424 0.246519 0.438424 0.246519 0.436225 0.249354 0.437494 0.249568 0.424334 0.252189 0.422089 0.251417 0.422008 0.251887 0.422089 0.251417 0.424334 0.252189 0.424387 0.251571 0.425894 0.258404 0.426654 0.252266 0.424334 0.252189 0.425894 0.258404 0.424334 0.252189 0.42364 0.25794 0.424334 0.252189 0.421484 0.257564 0.42364 0.25794 0.421484 0.257564 0.424334 0.252189 0.422008 0.251887 0.422008 0.251887 0.419616 0.257239 0.421484 0.257564 0.419616 0.257239 0.422008 0.251887 0.41956 0.251366 0.4375 0.260995 0.435107 0.264324 0.436466 0.265005 0.435107 0.264324 0.4375 0.260995 0.435771 0.26047 0.435771 0.26047 0.433273 0.263045 0.435107 0.264324 0.433273 0.263045 0.435771 0.26047 0.43387 0.259912 0.431889 0.259496 0.433273 0.263045 0.43387 0.259912 0.433273 0.263045 0.431889 0.259496 0.431167 0.262871 0.433273 0.263045 0.431417 0.264034 0.432961 0.264281 0.431417 0.264034 0.433273 0.263045 0.431167 0.262871 0.431417 0.264034 0.429203 0.26346 0.429319 0.26516 0.429203 0.26346 0.431417 0.264034 0.431167 0.262871 0.431417 0.264034 0.430319 0.265848 0.431607 0.264616 0.430319 0.265848 0.431417 0.264034 0.429319 0.26516 0.428453 0.26746 0.42973 0.267811 0.429319 0.26516 0.42973 0.267811 0.430319 0.265848 0.429319 0.26516 0.426982 0.264423 0.429203 0.26346 0.427363 0.263084 0.429203 0.26346 0.426982 0.264423 0.429319 0.26516 0.431932 0.266795 0.431607 0.264616 0.430319 0.265848 0.431607 0.264616 0.431932 0.266795 0.432628 0.265211 0.431932 0.266795 0.42973 0.267811 0.431056 0.268481 0.42973 0.267811 0.431932 0.266795 0.430319 0.265848 0.435107 0.264324 0.432961 0.264281 0.434437 0.265522 0.432961 0.264281 0.435107 0.264324 0.433273 0.263045 0.4375 0.260995 0.438249 0.265179 0.439118 0.261528 0.438249 0.265179 0.4375 0.260995 0.436466 0.265005 0.421484 0.257564 0.419616 0.257239 0.420347 0.260308 0.420347 0.260308 0.419616 0.257239 0.418833 0.260207 0.426654 0.252266 0.425894 0.258404 0.428933 0.252531 0.427893 0.258827 0.428933 0.252531 0.425894 0.258404 0.429868 0.2592 0.428933 0.252531 0.427893 0.258827 0.428933 0.252531 0.429868 0.2592 0.431166 0.252519 0.419837 0.262778 0.421467 0.262278 0.419746 0.262063 0.419746 0.262063 0.421467 0.262278 0.420892 0.261216 0.419837 0.262778 0.421775 0.263246 0.421467 0.262278 0.421775 0.263246 0.419837 0.262778 0.419931 0.263586 0.419746 0.262063 0.418401 0.261794 0.419837 0.262778 0.418401 0.261794 0.418025 0.26255 0.419837 0.262778 0.418025 0.26255 0.419931 0.263586 0.419837 0.262778 0.419931 0.263586 0.418025 0.26255 0.417598 0.263612 0.422795 0.259982 0.420892 0.261216 0.423197 0.261758 0.420892 0.261216 0.421467 0.262278 0.423197 0.261758 0.431056 0.268481 0.432541 0.269472 0.433332 0.267566 0.431056 0.268481 0.433332 0.267566 0.431932 0.266795 0.434618 0.267964 0.432541 0.269472 0.433204 0.270131 0.432541 0.269472 0.434618 0.267964 0.433332 0.267566 0.418891 0.261344 0.420347 0.260308 0.418833 0.260207 0.420347 0.260308 0.418891 0.261344 0.420892 0.261216 0.418891 0.261344 0.419746 0.262063 0.420892 0.261216 0.419746 0.262063 0.418891 0.261344 0.418401 0.261794 0.436466 0.265005 0.437324 0.266894 0.438249 0.265179 0.438249 0.265179 0.437324 0.266894 0.43802 0.266491</float_array>
          <technique_common>
            <accessor source="#Mouse001RLegDigit11Mesh-mesh-map-0-array" count="426" stride="2">
              <param name="S" type="float"/>
              <param name="T" type="float"/>
            </accessor>
          </technique_common>
        </source>
        <vertices id="Mouse001RLegDigit11Mesh-mesh-vertices">
          <input semantic="POSITION" source="#Mouse001RLegDigit11Mesh-mesh-positions"/>
        </vertices>
        <triangles count="142">
          <input semantic="VERTEX" source="#Mouse001RLegDigit11Mesh-mesh-vertices" offset="0"/>
          <input semantic="NORMAL" source="#Mouse001RLegDigit11Mesh-mesh-normals" offset="1"/>
          <input semantic="TEXCOORD" source="#Mouse001RLegDigit11Mesh-mesh-map-0" offset="2" set="0"/>
          <p>24 0 0 23 1 1 1 2 2 0 3 3 2 4 4 1 2 5 1 2 6 23 1 7 0 3 8 4 5 9 3 6 10 5 7 11 6 8 12 5 7 13 3 6 14 8 9 15 3 6 16 4 5 17 3 6 18 8 9 19 7 10 20 3 6 21 7 10 22 9 11 23 9 11 24 6 8 25 3 6 26 11 12 27 10 13 28 12 14 29 12 14 30 10 13 31 13 15 32 10 13 33 14 16 34 13 15 35 14 16 36 10 13 37 6 8 38 5 7 39 6 8 40 10 13 41 5 7 42 10 13 43 11 12 44 18 17 45 16 18 46 15 19 47 16 18 48 18 17 49 17 20 50 19 21 51 18 17 52 15 19 53 19 21 54 15 19 55 20 22 56 15 19 57 21 23 58 20 22 59 21 23 60 15 19 61 16 18 62 22 24 63 53 25 64 51 26 65 53 25 66 22 24 67 55 27 68 26 28 69 28 29 70 27 30 71 28 29 72 26 28 73 25 31 74 26 28 75 19 21 76 25 31 77 19 21 78 20 22 79 25 31 80 25 31 81 20 22 82 21 23 83 21 23 84 28 29 85 25 31 86 48 32 87 29 33 88 47 34 89 29 33 90 46 35 91 47 34 92 57 36 93 22 24 94 59 37 95 22 24 96 57 36 97 55 27 98 29 33 99 49 38 100 61 39 101 49 38 102 29 33 103 48 32 104 30 40 105 13 15 106 14 16 107 14 16 108 31 41 109 30 40 110 33 42 111 19 21 112 32 43 113 19 21 114 33 42 115 18 17 116 34 44 117 19 21 118 26 28 119 19 21 120 34 44 121 32 43 122 26 28 123 35 45 124 34 44 125 35 45 126 26 28 127 27 30 128 34 44 129 37 46 130 1 2 131 34 44 132 1 2 133 32 43 134 1 2 135 37 46 136 24 0 137 34 44 138 38 47 139 37 46 140 38 47 141 34 44 142 35 45 143 35 45 144 39 48 145 38 47 146 39 48 147 35 45 148 36 49 149 39 48 150 36 49 151 66 50 152 39 48 153 66 50 154 40 51 155 40 51 156 54 52 157 39 48 158 54 52 159 40 51 160 52 53 161 52 53 162 41 54 163 42 55 164 41 54 165 52 53 166 40 51 167 43 56 168 41 54 169 64 57 170 41 54 171 43 56 172 42 55 173 44 58 174 64 57 175 63 59 176 64 57 177 44 58 178 43 56 179 45 60 180 63 59 181 62 61 182 63 59 183 45 60 184 44 58 185 47 34 186 43 56 187 44 58 188 43 56 189 47 34 190 46 35 191 45 60 192 47 34 193 44 58 194 47 34 195 45 60 196 48 32 197 49 38 198 45 60 199 50 62 200 45 60 201 49 38 202 48 32 203 51 26 204 29 33 205 22 24 206 29 33 207 51 26 208 46 35 209 46 35 210 42 55 211 43 56 212 42 55 213 46 35 214 51 26 215 42 55 216 53 25 217 52 53 218 53 25 219 42 55 220 51 26 221 52 53 222 55 27 223 54 52 224 55 27 225 52 53 226 53 25 227 57 36 228 54 52 229 55 27 230 54 52 231 57 36 232 56 63 233 57 36 234 58 64 235 56 63 236 58 64 237 57 36 238 59 37 239 61 39 240 58 64 241 59 37 242 58 64 243 61 39 244 60 65 245 59 37 246 22 24 247 61 39 248 61 39 249 22 24 250 29 33 251 60 65 252 49 38 253 50 62 254 49 38 255 60 65 256 61 39 257 37 46 258 58 64 259 60 65 260 37 46 261 60 65 262 24 0 263 60 65 264 23 1 265 24 0 266 23 1 267 60 65 268 50 62 269 50 62 270 62 61 271 23 1 272 62 61 273 50 62 274 45 60 275 63 59 276 9 11 277 7 10 278 9 11 279 63 59 280 64 57 281 64 57 282 65 66 283 9 11 284 65 66 285 64 57 286 41 54 287 40 51 288 65 66 289 41 54 290 65 66 291 40 51 292 66 50 293 65 66 294 31 41 295 14 16 296 31 41 297 65 66 298 66 50 299 31 41 300 36 49 301 67 67 302 36 49 303 31 41 304 66 50 305 31 41 306 68 68 307 30 40 308 68 68 309 31 41 310 67 67 311 27 30 312 28 29 313 67 67 314 28 29 315 68 68 316 67 67 317 27 30 318 36 49 319 35 45 320 36 49 321 27 30 322 67 67 323 12 14 324 30 40 325 68 68 326 30 40 327 12 14 328 13 15 329 12 14 330 28 29 331 21 23 332 28 29 333 12 14 334 68 68 335 9 11 336 14 16 337 6 8 338 14 16 339 9 11 340 65 66 341 63 59 342 69 69 343 62 61 344 69 69 345 63 59 346 7 10 347 23 1 348 62 61 349 0 3 350 0 3 351 62 61 352 69 69 353 58 64 354 37 46 355 56 63 356 38 47 357 56 63 358 37 46 359 39 48 360 56 63 361 38 47 362 56 63 363 39 48 364 54 52 365 70 70 366 33 42 367 71 71 368 71 71 369 33 42 370 2 4 371 70 70 372 18 17 373 33 42 374 18 17 375 70 70 376 17 20 377 71 71 378 8 9 379 70 70 380 8 9 381 4 5 382 70 70 383 4 5 384 17 20 385 70 70 386 17 20 387 4 5 388 5 7 389 1 2 390 2 4 391 32 43 392 2 4 393 33 42 394 32 43 395 21 23 396 16 18 397 11 12 398 21 23 399 11 12 400 12 14 401 5 7 402 16 18 403 17 20 404 16 18 405 5 7 406 11 12 407 72 72 408 0 3 409 69 69 410 0 3 411 72 72 412 2 4 413 72 72 414 71 71 415 2 4 416 71 71 417 72 72 418 8 9 419 7 10 420 8 9 421 69 69 422 69 69 423 8 9 424 72 72 425</p>
        </triangles>
      </mesh>
    </geometry>
  </library_geometries>
  <library_controllers>
    <controller id="Armature_Mouse001RLegDigit11-skin" name="Armature">
      <skin source="#Mouse001RLegDigit11Mesh-mesh">
        <bind_shape_matrix>-0.3068429 -0.03653355 0.9510619 6.142262 0.9432494 0.1215493 0.3090026 12.76047 -0.1268859 0.9919263 -0.002836418 0.2391516 0 0 0 1</bind_shape_matrix>
        <source id="Armature_Mouse001RLegDigit11-skin-joints">
          <Name_array id="Armature_Mouse001RLegDigit11-skin-joints-array" count="1">RMetaCarpus5</Name_array>
          <technique_common>
            <accessor source="#Armature_Mouse001RLegDigit11-skin-joints-array" count="1" stride="1">
              <param name="JOINT" type="name"/>
            </accessor>
          </technique_common>
        </source>
        <source id="Armature_Mouse001RLegDigit11-skin-bind_poses">
          <float_array id="Armature_Mouse001RLegDigit11-skin-bind_poses-array" count="16">0.9515482 0.3068466 -0.02003592 -9.755373 -0.3068467 0.9432628 -0.1268882 -10.1214 -0.02003616 0.1268879 0.9917148 -1.733255 0 0 0 1</float_array>
          <technique_common>
            <accessor source="#Armature_Mouse001RLegDigit11-skin-bind_poses-array" count="1" stride="16">
              <param name="TRANSFORM" type="float4x4"/>
            </accessor>
          </technique_common>
        </source>
        <source id="Armature_Mouse001RLegDigit11-skin-weights">
          <float_array id="Armature_Mouse001RLegDigit11-skin-weights-array" count="73">1 1 1 1 1 1 1 1 1 1 1 1 1 1 1 1 1 1 1 1 1 1 1 1 1 1 1 1 1 1 1 1 1 1 1 1 1 1 1 1 1 1 1 1 1 1 1 1 1 1 1 1 1 1 1 1 1 1 1 1 1 1 1 1 1 1 1 1 1 1 1 1 1</float_array>
          <technique_common>
            <accessor source="#Armature_Mouse001RLegDigit11-skin-weights-array" count="73" stride="1">
              <param name="WEIGHT" type="float"/>
            </accessor>
          </technique_common>
        </source>
        <joints>
          <input semantic="JOINT" source="#Armature_Mouse001RLegDigit11-skin-joints"/>
          <input semantic="INV_BIND_MATRIX" source="#Armature_Mouse001RLegDigit11-skin-bind_poses"/>
        </joints>
        <vertex_weights count="73">
          <input semantic="JOINT" source="#Armature_Mouse001RLegDigit11-skin-joints" offset="0"/>
          <input semantic="WEIGHT" source="#Armature_Mouse001RLegDigit11-skin-weights" offset="1"/>
          <vcount>1 1 1 1 1 1 1 1 1 1 1 1 1 1 1 1 1 1 1 1 1 1 1 1 1 1 1 1 1 1 1 1 1 1 1 1 1 1 1 1 1 1 1 1 1 1 1 1 1 1 1 1 1 1 1 1 1 1 1 1 1 1 1 1 1 1 1 1 1 1 1 1 1 </vcount>
          <v>0 0 0 1 0 2 0 3 0 4 0 5 0 6 0 7 0 8 0 9 0 10 0 11 0 12 0 13 0 14 0 15 0 16 0 17 0 18 0 19 0 20 0 21 0 22 0 23 0 24 0 25 0 26 0 27 0 28 0 29 0 30 0 31 0 32 0 33 0 34 0 35 0 36 0 37 0 38 0 39 0 40 0 41 0 42 0 43 0 44 0 45 0 46 0 47 0 48 0 49 0 50 0 51 0 52 0 53 0 54 0 55 0 56 0 57 0 58 0 59 0 60 0 61 0 62 0 63 0 64 0 65 0 66 0 67 0 68 0 69 0 70 0 71 0 72</v>
        </vertex_weights>
      </skin>
    </controller>
  </library_controllers>
  <library_visual_scenes>
    <visual_scene id="Scene" name="Scene">
      <node id="Mouse001RLegDigit11" name="Mouse001RLegDigit11" type="NODE">
        <matrix sid="transform">-0.3068429 -0.03653355 0.9510619 6.142264 0.9432494 0.1215493 0.3090026 25.34296 -0.1268859 0.9919263 -0.002836418 -5.032434 0 0 0 1</matrix>
        <instance_geometry url="#Mouse001RLegDigit11Mesh-mesh" name="Mouse001RLegDigit11"/>
      </node>
    </visual_scene>
  </library_visual_scenes>
  <scene>
    <instance_visual_scene url="#Scene"/>
  </scene>
</COLLADA>