<?xml version="1.0" encoding="utf-8"?>
<COLLADA xmlns="http://www.collada.org/2005/11/COLLADASchema" version="1.4.1" xmlns:xsi="http://www.w3.org/2001/XMLSchema-instance">
  <asset>
    <contributor>
      <author>Blender User</author>
      <authoring_tool>Blender 2.79.0 commit date:2018-03-22, commit time:14:10, hash:f4dc9f9d68b</authoring_tool>
    </contributor>
    <created>2018-10-31T09:52:38</created>
    <modified>2018-10-31T09:52:38</modified>
    <unit name="meter" meter="1"/>
    <up_axis>Z_UP</up_axis>
  </asset>
  <library_images/>
  <library_geometries>
    <geometry id="Mouse001RLegDigit31_ncl1_1Mesh-mesh" name="Mouse001RLegDigit31_ncl1_1Mesh">
      <mesh>
        <source id="Mouse001RLegDigit31_ncl1_1Mesh-mesh-positions">
          <float_array id="Mouse001RLegDigit31_ncl1_1Mesh-mesh-positions-array" count="1065">3.675569 -0.318796 -0.175558 0.234013 0.165526 -0.20507 0.204529 -0.1427839 -0.134872 0.427889 -0.317529 -0.280633 3.71698 0.348444 0.172426 3.713021 -0.269516 0.260089 3.626832 0.291045 -0.20342 3.764074 0.295386 0.249589 3.765386 0.188814 -0.324608 3.779976 0.321977 -0.115424 0.250772 0.25427 0.02336299 0.203606 -0.142391 -0.06819599 0.370801 -0.147266 0.32651 0.200311 -0.06459099 0.114402 0.195949 -0.122468 0.179677 3.772349 0.345118 0.02865695 3.634436 -0.345016 -0.01651096 3.785821 -0.353325 -0.006410956 3.77943 -0.273148 -0.214013 3.619914 -0.218336 -0.231423 3.571394 -0.286455 -0.154 3.680874 -0.375156 -0.107386 3.829247 -0.3118 -0.184629 3.5657 -0.325516 -0.05850398 0.244813 0.198653 -0.155496 0.232252 0.108741 -0.134271 0.226172 0.09174895 -0.1972759 0.234862 0.190734 -0.238433 0.252771 0.256747 -0.179481 0.227456 0.1085129 -0.257571 0.213564 -0.03071099 -0.171448 0.213109 -0.01758295 -0.129846 0.2198989 -0.266344 -0.05021595 0.230159 -0.2344149 -0.1588349 0.220703 -0.05139195 -0.216256 0.387334 -0.372731 -0.238286 0.558047 -0.399222 -0.246829 0.552906 -0.310969 -0.296883 0.514171 -0.18318 -0.33217 0.364653 -0.205339 -0.289361 3.823116 0.31892 0.207553 3.620496 0.301607 0.209137 3.576656 0.336981 0.0884 3.716885 0.358651 0.07554 3.858807 0.353755 0.132974 3.726857 -0.330947 0.197878 3.620816 -0.331484 0.17637 3.63455 -0.2497839 0.251304 3.712602 -0.1563529 0.313435 3.81357 -0.199818 0.303094 3.574503 0.340839 -0.05511599 3.414763 0.280252 -0.05563396 3.426017 0.2447299 -0.164424 3.429349 0.186249 -0.239372 3.618826 0.2019039 -0.291169 3.732806 0.326806 -0.152692 3.685299 0.352653 -0.04723 3.805218 0.2207159 0.285607 3.628813 0.214097 0.273289 3.921798 0.2210659 0.232103 3.81494 0.09850299 -0.343072 3.945238 0.116622 -0.288444 3.811927 0.240741 -0.2911 3.647369 0.09979099 -0.325584 3.892281 0.283853 -0.13703 3.877115 0.299645 -0.04941397 3.762597 0.333104 -0.04692995 3.87712 0.287237 -0.214556 0.2319779 0.173273 0.070297 0.238722 0.136441 -0.03146797 0.255978 0.2348819 -0.063699 0.260255 0.335662 0.05820494 0.232306 0.22966 0.169701 0.261963 0.307786 -0.07386797 0.2128649 0.001800954 0.00662297 0.202436 -0.114799 0.03569799 0.201691 -0.233897 0.07052797 0.325572 -0.215921 0.302654 0.249759 -0.062864 0.265426 0.339405 -0.03108495 0.317332 0.509778 -0.03510898 0.361814 0.51546 -0.1813769 0.344437 0.209394 0.048213 0.102048 0.208589 0.06910097 0.1837 0.294311 -0.305069 0.220842 0.315252 -0.365881 0.09656095 3.875225 0.328608 0.05798494 3.679798 -0.335877 0.00931096 3.746105 -0.375662 -0.04961699 3.553056 -0.31906 0.03822898 3.650377 -0.331384 0.08287495 3.765756 -0.313589 0.03646397 3.75349 -0.323435 0.112906 3.871064 -0.253145 0.145233 3.882872 -0.252993 0.04225897 3.891 -0.294139 -0.02970999 3.87793 -0.333528 -0.104093 4.020845 -0.142562 0.01745796 4.012097 -0.1791419 -0.08660697 4.00783 -0.1856369 -0.161813 3.932131 -0.176733 -0.239632 4.061021 -4.51e-4 -0.123879 4.046305 -0.01232194 -0.199047 3.982718 -0.01572495 -0.266528 3.848474 -0.02636897 -0.338794 3.826025 -0.1548089 -0.288085 3.995209 0.138108 -0.231215 4.012414 0.1485919 -0.154525 4.068725 0.01958495 -0.006961941 4.017984 0.164542 -0.03371495 4.05414 0.04209899 0.09878796 4.003971 0.200147 0.07678395 4.030843 0.06008398 0.17823 3.992162 0.217262 0.150141 3.978026 0.07743495 0.24702 3.991536 -0.08608597 0.2172099 3.944948 -0.05373698 0.28316 3.83259 -0.02342396 0.336184 3.85218 0.110306 0.313801 3.653995 -0.003887951 0.33335 3.661787 0.114123 0.309876 3.417538 8.2e-5 0.277998 3.423285 0.11217 0.252104 3.419868 0.190683 0.218282 3.162121 0.089275 0.199374 3.160021 0.153046 0.163797 3.163172 0.196372 0.114587 3.41837 0.235377 0.172713 3.16965 0.223912 0.03855395 3.420546 0.269056 0.08674997 3.169151 0.233862 -0.06969696 2.899155 0.214247 0.01295495 2.900535 0.213165 -0.06234496 2.897567 0.188054 -0.127377 3.165412 0.211026 -0.152565 2.895239 0.13451 -0.1868309 3.164174 0.163098 -0.215838 2.89459 0.07256698 -0.225594 3.166194 0.09243297 -0.25635 3.434384 0.102505 -0.286369 3.167109 0.01686596 -0.270569 3.437546 0.01049697 -0.303687 3.700801 -0.01551598 -0.342262 3.435366 -0.07790899 -0.286253 3.702587 -0.111118 -0.315108 3.4109 -0.183455 -0.221922 3.168678 -0.06803196 -0.254681 3.167536 -0.158635 -0.202161 3.163129 -0.2211019 -0.134223 3.416059 -0.257634 -0.139951 3.159386 -0.247232 -0.06389898 3.408663 -0.28943 -0.05814898 3.157281 -0.245663 0.02572494 3.399893 -0.290758 0.03561699 3.160416 -0.216044 0.1075479 3.390527 -0.262677 0.118912 3.519426 -0.295486 0.13616 3.390532 -0.192836 0.207831 3.526857 -0.223092 0.229153 3.388408 -0.102278 0.258603 3.572713 -0.1258299 0.298433 3.166341 -0.159036 0.174033 3.16683 -0.08725696 0.212151 3.165628 -0.007630944 0.220464 2.893797 -0.07299596 0.182238 2.895623 -0.00742799 0.18997 2.893877 0.07277899 0.175161 2.623387 -0.001577973 0.181442 2.623605 0.07945299 0.165873 2.623489 0.150951 0.124817 2.894544 0.141632 0.135833 2.624358 0.195623 0.071976 2.896945 0.1895239 0.08157199 2.624173 0.217588 0.008259952 2.351092 0.196256 0.069076 2.350121 0.216418 0.004210948 2.352679 0.213056 -0.06953495 2.626414 0.215335 -0.06454396 2.354882 0.184837 -0.136622 2.627659 0.189584 -0.127988 2.355312 0.133846 -0.191595 2.627223 0.1351799 -0.186062 2.354688 0.06863498 -0.225841 2.625346 0.07150596 -0.222523 2.35294 -0.009689986 -0.233331 2.624199 -3.32e-4 -0.231487 2.89555 0.005779981 -0.237108 2.623713 -0.077353 -0.214874 2.898872 -0.071904 -0.223851 2.623694 -0.141363 -0.178121 2.899374 -0.1399469 -0.185744 2.624095 -0.1839359 -0.123468 2.897071 -0.185837 -0.132954 2.625871 -0.20425 -0.05783694 2.893985 -0.207437 -0.06742596 2.626453 -0.199093 0.01829099 2.892962 -0.2051759 0.01422297 2.626253 -0.169233 0.09094899 2.89156 -0.177721 0.09417796 2.625489 -0.1207 0.14368 2.891834 -0.1289319 0.150542 2.624131 -0.065391 0.17428 2.353276 -0.1268489 0.151592 2.35504 -0.06686496 0.182958 2.356228 0.003892958 0.187366 2.082911 -0.05648595 0.196274 2.084415 0.01685094 0.200273 2.085928 0.08942395 0.183166 2.355644 0.081685 0.168537 2.084708 0.1517879 0.136711 2.353566 0.150638 0.122738 2.082384 0.199602 0.07493495 1.811365 0.160274 0.145207 1.80901 0.206594 0.08167695 1.807181 0.2260439 0.003337979 2.0809 0.220153 0.00325495 1.807111 0.219151 -0.079755 2.0804 0.2144989 -0.07529497 1.807652 0.188501 -0.146885 2.080718 0.1848649 -0.141896 1.808427 0.133351 -0.199735 2.080895 0.1329669 -0.194927 1.8097 0.05957698 -0.234082 2.08113 0.06509596 -0.228207 1.809006 -0.02211797 -0.2393569 2.08108 -0.01447999 -0.234638 1.808537 -0.102485 -0.21749 2.080523 -0.092745 -0.214607 2.351041 -0.08857399 -0.216321 2.080888 -0.154881 -0.17257 2.35157 -0.150456 -0.177045 2.081391 -0.197569 -0.1126289 2.352586 -0.194041 -0.118211 2.08146 -0.2158589 -0.04353696 2.353595 -0.213732 -0.04821598 2.081056 -0.209149 0.03524398 2.353282 -0.207974 0.03007996 2.080905 -0.176721 0.108756 2.353088 -0.177976 0.100001 2.081388 -0.119568 0.165448 1.812883 -0.1803539 0.108277 1.81163 -0.117833 0.167047 1.81187 -0.04508495 0.201947 1.544451 -0.1412349 0.183046 1.543035 -0.054021 0.2204059 1.54158 0.02632194 0.226655 1.812854 0.03033798 0.207867 1.540142 0.09616398 0.205988 1.812747 0.1000159 0.190123 1.537327 0.160472 0.157719 1.268082 0.091641 0.2275249 1.268558 0.16421 0.172657 1.269449 0.2222149 0.08566498 1.535767 0.208604 0.08565795 1.270198 0.245656 -0.00751698 1.535277 0.228161 -0.001711964 1.265801 0.232967 -0.105467 1.533604 0.217031 -0.09120696 1.263491 0.1937209 -0.183508 1.534162 0.182886 -0.159243 1.262104 0.122927 -0.245124 1.535522 0.124122 -0.21385 1.263652 0.04260998 -0.278154 1.536697 0.05174297 -0.246735 1.265614 -0.041305 -0.276846 1.538729 -0.02800798 -0.249801 1.268794 -0.129997 -0.244095 1.539403 -0.113588 -0.224352 1.271376 -0.204943 -0.18547 1.540335 -0.180235 -0.176967 1.809549 -0.165054 -0.17445 1.542542 -0.2286339 -0.104499 1.811014 -0.207199 -0.110637 1.544741 -0.2498289 -0.02359199 1.812863 -0.224777 -0.03684794 1.544532 -0.243524 0.05159294 1.813584 -0.215651 0.03958797 1.544626 -0.208765 0.119662 1.273035 -0.260925 0.05862998 1.274878 -0.223233 0.134258 1.274874 -0.155383 0.202092 1.014544 -0.268596 0.1673099 1.011653 -0.207437 0.229789 1.002619 -0.117101 0.278476 1.272486 -0.07229799 0.2427729 0.995869 -0.01145797 0.291065 1.269433 0.01251095 0.250328 0.998553 0.100562 0.262047 0.727503 -0.04902797 0.351753 0.739406 0.113685 0.312959 0.748662 0.228017 0.243068 1.00378 0.1908659 0.200322 0.748135 0.305371 0.125813 1.005013 0.260157 0.09991496 0.738436 0.32998 -0.009522974 1.003269 0.285003 -0.008322 0.737611 0.295535 -0.139331 1.001269 0.267797 -0.111594 0.742387 0.2291409 -0.235366 0.997622 0.2161509 -0.194274 0.734086 0.151484 -0.29008 0.992329 0.126026 -0.264868 0.709629 0.01139098 -0.329154 0.988145 0.01977998 -0.30414 0.717821 -0.151305 -0.324701 0.985579 -0.08337199 -0.302746 0.744676 -0.26873 -0.285984 0.998457 -0.176835 -0.264481 0.759146 -0.337831 -0.228274 1.009836 -0.250652 -0.203327 0.757389 -0.377285 -0.15296 1.011167 -0.296544 -0.12769 1.272557 -0.253093 -0.10795 1.00703 -0.316538 -0.03367096 1.272318 -0.27142 -0.02229595 1.00848 -0.303545 0.08539497 0.7399 -0.384722 -0.04526299 0.7458 -0.376699 0.129574 0.754625 -0.349202 0.21684 0.499502 -0.417684 0.142802 0.491326 -0.390224 0.232034 0.495938 -0.315277 0.321721 0.753626 -0.291354 0.283645 0.733591 -0.197322 0.331905 0.506989 -0.427828 -0.02581596 0.340329 -0.390039 -0.03175997 0.528823 -0.448173 -0.151751 0.356451 -0.40966 -0.139149 0.270731 -0.242578 -0.210186 0.2995 -0.036861 -0.284183 0.252109 -0.04237395 -0.251087 0.343411 0.111987 -0.324932 0.267428 0.09734696 -0.289789 0.369387 0.234097 -0.301958 0.279692 0.213216 -0.28317 0.384165 0.324695 -0.209228 0.297939 0.305509 -0.207911 0.376676 0.378038 -0.07179397 0.309977 0.368361 -0.08463799 0.395144 0.372252 0.10214 0.314345 0.364829 0.083148 0.353915 0.276068 0.23102 0.274751 0.258078 0.2086369 0.313591 0.123289 0.289474 0.248785 0.102685 0.254905 0.500831 0.127313 0.327092 0.509257 0.262963 0.254347 0.514245 0.344708 0.124085 0.517048 0.352269 -0.02435696 0.508635 0.308179 -0.196888 0.492823 0.246867 -0.294805 0.475836 0.155737 -0.331073 0.46734 -0.008959949 -0.340096 3.864495 -0.248528 0.235301 4.004994 -0.112114 0.13051</float_array>
          <technique_common>
            <accessor source="#Mouse001RLegDigit31_ncl1_1Mesh-mesh-positions-array" count="355" stride="3">
              <param name="X" type="float"/>
              <param name="Y" type="float"/>
              <param name="Z" type="float"/>
            </accessor>
          </technique_common>
        </source>
        <source id="Mouse001RLegDigit31_ncl1_1Mesh-mesh-normals">
          <float_array id="Mouse001RLegDigit31_ncl1_1Mesh-mesh-normals-array" count="1065">-0.2449455 -0.575222 -0.7804623 -0.2326159 -0.788886 -0.5688134 -0.02618527 -0.5684466 -0.8223035 -0.1418221 -0.6122127 -0.7778703 -0.2011204 -0.9387654 -0.2797679 0.2579481 -0.7317887 -0.6308313 -0.2995437 -0.9411442 -0.1565929 -0.9853221 0.1536657 0.07434546 -0.9886642 0.1327578 0.07013273 -0.9875638 0.1498177 0.0476706 -0.9953105 0.09595119 0.01226854 -0.9057808 0.2787322 -0.3191703 -0.9036682 0.3939395 -0.1679156 -0.8744797 0.07755041 -0.4788228 -0.992429 0.03555506 -0.1175606 -0.966368 -0.07458955 -0.2461088 -0.9943753 0.1047418 -0.01571732 -0.9993503 -0.0218212 -0.02868801 -0.8996521 -0.109931 -0.4225417 -0.8556635 -0.362994 -0.3688842 -0.8832145 -0.4604068 -0.08920645 -0.2322841 -0.3949533 -0.8888509 0.03097712 -0.403161 -0.9146047 -0.4109401 -0.6367207 -0.6524685 0.08108973 -0.7360945 -0.6720041 -0.07898414 -0.1600436 -0.9839449 -0.4133564 -0.2087535 -0.8863174 0.2795826 0.7702636 0.5731733 -0.09082436 0.9497498 0.2995435 -9.15569e-4 0.5966154 0.8025269 -0.2434515 0.7644447 0.5969554 0.3636352 0.9108734 0.1951392 -0.03103739 0.998232 0.0506913 -0.2664619 0.9451142 0.189096 0.1541232 -0.9216262 0.3561619 -0.04602289 -0.6030592 0.7963678 -0.2675569 -0.8929753 0.3619511 -0.2853594 -0.5193541 0.805507 -0.1043742 -0.2947198 0.9498665 0.2369537 -0.442686 0.8648018 -0.1696256 0.8265206 -0.536741 -0.2257844 0.8517122 -0.4728717 -0.2309068 0.959121 -0.1636124 -0.2656049 0.9567332 -0.1188096 -0.17506 0.5148339 -0.8392259 -0.2010283 0.6303994 -0.7497895 0.0330519 0.9403473 -0.3386068 0.01144462 0.9885454 -0.1504898 0.1631221 0.4129478 0.8960275 -0.1725863 0.4416134 0.8804497 0.5472089 0.4688357 0.6933653 -0.04196399 0.3740136 -0.9264733 0.1639198 0.6303175 -0.7588347 0.1485074 0.1582736 -0.9761634 0.5403765 0.2590487 -0.8005543 -0.1289116 0.1917499 -0.9729409 0.5665916 0.819597 -0.08505737 0.2481189 0.9624757 -0.1098986 0.4949953 0.8589094 -0.1313558 0.2573709 0.95642 -0.1379176 0.4427119 0.8007024 -0.4035862 -0.9831761 0.1535421 -0.09894323 -0.9858642 0.1414569 -0.08978772 -0.985394 0.1614754 -0.05407947 -0.9930804 0.1172531 -0.006561517 -0.8011093 0.585885 0.1223226 -0.8965932 0.3116316 0.314653 -0.9177158 0.3827427 -0.1063293 -0.9985792 0.03643959 -0.03888106 -0.9915241 0.1167037 -0.05710059 -0.932086 -0.3509094 0.08987891 -0.2809312 -0.084966 0.9559595 -0.3687925 0.05621612 0.9278104 -0.5044268 -0.2823057 0.8160008 -0.6993873 -0.04077416 0.7135789 -0.08206576 0.05981737 0.9948302 -0.04959267 -0.1416062 0.9886801 -0.9975216 0.05710148 -0.04110938 -0.9905475 0.1195114 -0.06732439 -0.9414169 -0.1220756 0.3143754 -0.9662079 0.1243047 0.2258116 -0.6294189 -0.6030201 0.4901007 -0.5443972 -0.8240119 0.156959 0.1907752 0.9656261 -0.1765533 0.5014666 0.8433464 -0.1931276 -0.007049858 -0.9391296 0.343491 -0.1887601 -0.9474325 0.2583435 0.1072132 -0.9818269 0.156593 -0.04397726 -0.9987821 0.0223701 -0.1945286 -0.9752985 0.1046499 0.3231732 -0.8327913 0.4494637 0.2977466 -0.8911646 0.3423048 0.3083968 -0.95104 -0.02035629 0.6270665 -0.7741664 0.0863372 0.5643853 -0.7740499 0.2869078 0.5880147 -0.7317605 0.3446236 0.5327461 -0.8414495 -0.09024578 0.8529492 -0.4884895 0.1839999 0.8558079 -0.5151877 0.0466327 0.7943788 -0.5116509 -0.3273772 0.4729349 -0.45679 -0.7534425 0.9930093 0.00952202 -0.1176522 0.898017 -0.04629707 -0.4375181 0.6145322 -0.1326664 -0.7776567 0.2589561 -0.2000844 -0.9449381 0.1773155 -0.4395655 -0.8805348 0.7737516 0.4009299 -0.490473 0.8592548 0.4770993 -0.1845467 0.8621612 0.5018541 -0.06943064 0.9991825 0.02349936 0.03289914 0.857341 0.51449 -0.01632767 0.9805421 0.03991872 0.1922081 0.9071884 0.09116137 0.4107298 0.8113032 0.5063511 0.2922254 0.684955 0.1894971 0.7035109 0.8271828 -0.3403156 0.4471621 0.6060414 -0.1461543 0.7818905 0.28954 0.2548697 0.9226094 0.2004211 -0.0192272 0.9795212 -0.1199106 0.2392414 0.9635274 -0.1220747 0.03277707 0.9919795 -0.2295943 0.2955763 0.9273193 -0.2227599 0.05609434 0.9732582 -0.2700627 0.5320379 0.8024973 -0.1801242 0.6168231 0.7662145 -0.1720076 0.3396815 0.9246783 -0.1657206 0.8534766 0.4940795 -0.3002158 0.7949905 0.5271249 -0.3003063 0.9289048 0.2166844 -0.1355065 0.9688104 0.2074714 -0.1181704 0.9879688 -0.09976738 -0.04330706 0.9820856 -0.1833914 -0.03009206 0.9857136 0.16572 -0.1211324 0.8882434 -0.4431146 -0.06186199 0.8542876 -0.5161066 -0.1327891 0.65067 -0.7476601 -0.07120096 0.6396186 -0.7653878 -0.1269903 0.3434934 -0.9305298 -0.07025462 0.3532875 -0.9328731 -0.1660262 0.3156635 -0.9342334 -0.1442654 -0.008606433 -0.9895017 -0.1209464 0.001434385 -0.992658 -0.06653177 -0.1183228 -0.9907439 -0.03921675 -0.3988512 -0.9161768 -0.1359021 -0.3509709 -0.9264718 -0.1360857 -0.6168568 -0.7752215 -0.1112123 -0.6194195 -0.7771432 -0.1135024 -0.3431318 -0.9324043 -0.1707245 -0.8368064 -0.5202001 -0.129248 -0.8433623 -0.5215699 -0.1817097 -0.963666 -0.195779 -0.156015 -0.972195 -0.1746319 -0.1966627 -0.9729374 0.121312 -0.1735617 -0.9689183 0.1762779 -0.233595 -0.8611336 0.4515336 -0.1760041 -0.8469988 0.5016133 -0.2868828 -0.8788992 0.3810964 -0.2292603 -0.6288485 0.7429599 -0.2667679 -0.6170057 0.7403641 -0.2250206 -0.3015636 0.9265124 -0.2105531 -0.3197209 0.9238214 -0.1682522 -0.2893829 0.9423104 -0.1734108 -0.6129502 0.7708572 -0.1680369 0.04760938 0.9846304 -0.07040703 0.03427267 0.9969295 -0.0801137 -0.3069958 0.948333 -0.0647915 0.3391866 0.9384853 -0.002807736 0.3515836 0.9361523 -0.001281797 0.04080408 0.9991664 -0.05871838 0.6305817 0.7738985 -0.004913568 0.6442323 0.7648141 -0.0403465 0.8625671 0.5043315 -0.00149542 0.8699331 0.4931676 0.002227842 0.9889962 0.1479252 0.003418087 0.9921618 0.1249129 0.01040697 0.877422 0.4796065 0.002594113 0.9788421 -0.2046006 0.001800596 0.9755502 -0.2197696 0.003662347 0.8437149 -0.5367791 0.005340814 0.8389682 -0.5441544 0.003479123 0.6224034 -0.7826889 0.008301258 0.6087085 -0.7933506 -0.002227902 0.3176458 -0.9482069 0.006622552 0.2854119 -0.9583821 -0.006469905 -0.04287868 -0.9990594 0.008270621 -0.06012254 -0.9981568 -0.06790369 -0.004577755 -0.9976814 -0.06024503 -0.3377876 -0.9392924 -0.002441465 -0.3578959 -0.9337583 -0.05475145 -0.6282992 -0.7760428 2.74672e-4 -0.6551837 -0.7554695 -0.06521946 -0.8636925 -0.4997819 0.001342773 -0.8864519 -0.462819 -0.07757943 -0.9854604 -0.1511608 0.00601226 -0.9930945 -0.1171631 -0.08572822 -0.9806714 0.1758818 0.007629752 -0.97469 0.2234306 -0.08844387 -0.8609701 0.5009075 0.00262463 -0.8431946 0.5376021 -0.08603322 -0.6279604 0.7734753 -0.002533078 -0.6169471 0.7870005 -0.001831114 -0.3033619 0.9528737 0.03479194 -0.2736356 0.9612039 0.03332698 -0.5968651 0.8016493 0.03485298 0.08414161 0.9958441 0.04077345 0.0865826 0.99541 0.02368259 -0.2519635 0.967447 0.03207528 0.3973857 0.917091 0.04797548 0.4187479 0.9068344 0.02078348 0.6674534 0.7443615 0.03952246 0.6982815 0.7147314 0.02801626 0.8921267 0.4509159 0.02108865 0.9055305 0.4237568 0.03399837 0.7126848 0.7006602 0.01968491 0.9946526 0.1013849 0.01471024 0.9966675 0.08023512 0.01757878 0.9699766 -0.2425628 0.01406908 0.9674437 -0.2526951 0.01779288 0.8271411 -0.5617126 0.01574778 0.8165976 -0.5769927 0.01336729 0.5866065 -0.8097618 0.01916617 0.5668975 -0.8235655 0.01055943 0.26539 -0.9640834 0.0263074 0.248608 -0.9682469 0.01156669 -0.08340865 -0.9964483 0.03097641 -0.101444 -0.994359 0.01174992 -0.4091126 -0.9124082 0.03378444 -0.4210395 -0.9064129 0.0100103 -0.3801796 -0.9248585 0.009827136 -0.6814618 -0.7317879 0.01272648 -0.6992552 -0.7147589 0.01336717 -0.8978294 -0.4401406 0.01513743 -0.9049196 -0.4253132 0.01916599 -0.9949237 -0.0987904 0.01934891 -0.9960436 -0.08673453 0.02496486 -0.9710064 0.2377464 0.01614451 -0.967697 0.2515988 0.03009134 -0.8292523 0.5580638 0.01001018 -0.8220896 0.5692704 0.01202446 -0.5785487 0.8155593 0.04825109 -0.5617703 0.825885 0.06338906 -0.7978415 0.5995256 0.04361218 -0.2554168 0.965847 0.08850455 -0.2373448 0.9673854 0.09369319 -0.5495245 0.8302075 0.04648005 0.08938944 0.9949117 0.07455849 0.1076719 0.991387 0.04297059 0.433826 0.8999715 0.05621671 0.4488487 0.8918377 0.04010164 0.7264081 0.6860927 0.09799546 0.7221329 0.6847781 0.1003764 0.4419127 0.8914246 0.03082424 0.917159 0.3973277 0.1015064 0.9099567 0.4020888 0.03106826 0.9981842 0.05160754 0.1063877 0.9928297 0.05450612 0.03726351 0.9564611 -0.2894713 0.09802836 0.9475061 -0.3043397 0.04770141 0.7996932 -0.5985109 0.08661341 0.7843124 -0.61429 0.06045764 0.5533967 -0.8307207 0.0835309 0.5205347 -0.8497449 0.07226848 0.2318207 -0.9700704 0.09106987 0.1900749 -0.9775366 0.074467 -0.1239082 -0.9894956 0.106907 -0.171271 -0.9794065 0.07007128 -0.4390444 -0.8957288 0.1193906 -0.4755789 -0.8715335 0.07104849 -0.7161009 -0.6943713 0.1300404 -0.7344643 -0.6660718 0.04019397 -0.7127188 -0.7002975 0.04706019 -0.9143779 -0.4021176 0.07617604 -0.9113049 -0.4046242 0.05716156 -0.9964066 -0.06250238 0.08292031 -0.993274 -0.08081448 0.06781268 -0.9545966 0.2900809 0.09058111 -0.9576634 0.2732693 0.09222954 -0.797227 0.5965927 0.1454552 -0.8024148 0.5787689 0.13059 -0.9516375 0.2780874 0.1444488 -0.5708065 0.8082788 0.2646063 -0.562998 0.782954 0.2769911 -0.8008813 0.5309097 0.1316589 -0.2568479 0.957442 0.2190081 -0.2723257 0.9369494 0.11228 0.09903466 0.9887292 0.178751 0.0724526 0.9812232 0.1669695 0.4004399 0.9009823 0.1323319 0.3673614 0.920616 0.1290643 0.0400713 0.9908263 0.1744769 0.6949777 0.6975413 0.1645603 0.6762477 0.7180592 0.1719465 0.902307 0.3953182 0.173685 0.9127694 0.3697101 0.1595219 0.9868872 0.02462863 0.1412126 0.9888544 -0.04718273 0.1412736 0.9238486 -0.3557325 0.1404803 0.9047447 -0.4021223 0.1225047 0.7419869 -0.6591268 0.1733778 0.7013548 -0.6914056 0.1024538 0.4773242 -0.8727341 0.1516176 0.4037949 -0.9021983 0.09113132 0.1555581 -0.9836142 0.08429425 0.09494549 -0.9919072 0.121159 -0.1834781 -0.9755288 0.1013849 -0.157174 -0.9823531 0.1853707 -0.4731318 -0.8612689 0.1926074 -0.4505566 -0.8717231 0.2394536 -0.7208941 -0.6503642 0.2781823 -0.7274857 -0.6271997 0.2528232 -0.9012396 -0.3519198 0.2961599 -0.9233329 -0.2444296 0.1352019 -0.9194645 -0.3691958 0.1282714 -0.9909219 -0.04025453 0.2246217 -0.9738697 -0.03351014 0.2384746 -0.9452921 0.2226048 0.2289844 -0.9597632 0.1625444 0.2426882 -0.9696846 0.02853536 0.2485472 -0.8476974 0.4686506 -0.102912 -0.8751182 0.4728397 -0.06390631 -0.9813921 0.1810678 0.2535534 -0.5825197 0.7722575 -0.09189403 -0.5256974 0.8456937 0.1795755 -0.2636866 0.9477459 -0.03521913 -0.9929727 0.112982 -0.4880608 -0.8693659 0.07745736 -0.500302 -0.8470311 -0.1795447 0.01788407 -0.9873169 -0.1577522 -0.6797607 -0.3566508 -0.6408789 -0.4611765 -0.1223517 -0.8788325 -0.6291187 -0.1655961 -0.7594653 -0.2885918 0.07596284 -0.9544342 -0.5140081 -0.01803696 -0.8575958 -0.1289136 0.4863255 -0.8642158 -0.5058276 0.3761814 -0.77629 -0.01718217 0.8368617 -0.5471448 -0.4823939 0.7179753 -0.5018044 0.02533054 0.9856938 -0.1666322 -0.4240335 0.8778234 -0.2227595 0.007049798 0.9477556 0.3189195 -0.3504509 0.8932638 0.2815388 -0.1919367 0.6475308 0.7374715 -0.5729723 0.5365321 0.619545 -0.3585357 0.2497664 0.8994827 -0.7261741 0.1808263 0.6633046 -0.05426317 0.3290888 0.9427387 0.03741723 0.6747317 0.7371141 0.1243976 0.932433 0.3392552 0.1638582 0.9818063 -0.09595268 0.1504579 0.882788 -0.4450258 0.05978733 0.6304683 -0.7739091 -0.01425254 0.248947 -0.9684123 -0.1077319 -0.04031556 -0.9933623 0.5649458 -0.6990789 0.4383206 0.8456836 -0.4721301 0.248822</float_array>
          <technique_common>
            <accessor source="#Mouse001RLegDigit31_ncl1_1Mesh-mesh-normals-array" count="355" stride="3">
              <param name="X" type="float"/>
              <param name="Y" type="float"/>
              <param name="Z" type="float"/>
            </accessor>
          </technique_common>
        </source>
        <source id="Mouse001RLegDigit31_ncl1_1Mesh-mesh-map-0">
          <float_array id="Mouse001RLegDigit31_ncl1_1Mesh-mesh-map-0-array" count="4236">0.947326 0.117635 0.946687 0.114505 0.945667 0.120512 0.943716 0.116121 0.945667 0.120512 0.946687 0.114505 0.950048 0.117945 0.947326 0.117635 0.946991 0.121674 0.945667 0.120512 0.946991 0.121674 0.947326 0.117635 0.946687 0.114505 0.947326 0.117635 0.949801 0.1138769 0.950048 0.117945 0.949801 0.1138769 0.947326 0.117635 0.934037 0.01220095 0.93406 0.01408499 0.936826 0.01271396 0.936312 0.01457399 0.936826 0.01271396 0.93406 0.01408499 0.932568 0.01498198 0.93406 0.01408499 0.932152 0.01194298 0.934037 0.01220095 0.932152 0.01194298 0.93406 0.01408499 0.936312 0.01457399 0.93406 0.01408499 0.935146 0.01600098 0.932568 0.01498198 0.935146 0.01600098 0.93406 0.01408499 0.940125 0.01507794 0.943633 0.01561695 0.940449 0.01407897 0.944743 0.01417499 0.940449 0.01407897 0.943633 0.01561695 0.940015 0.016267 0.945494 0.01735299 0.940125 0.01507794 0.943633 0.01561695 0.940125 0.01507794 0.945494 0.01735299 0.944743 0.01417499 0.943633 0.01561695 0.948203 0.01597297 0.945494 0.01735299 0.948203 0.01597297 0.943633 0.01561695 0.945552 0.02369296 0.944862 0.02707397 0.947317 0.02276998 0.947304 0.02729099 0.947317 0.02276998 0.944862 0.02707397 0.944862 0.02707397 0.945552 0.02369296 0.941544 0.02572697 0.94288 0.02151 0.941544 0.02572697 0.945552 0.02369296 0.915436 0.124243 0.916875 0.121218 0.914335 0.122437 0.915714 0.118246 0.914335 0.122437 0.916875 0.121218 0.917634 0.125419 0.919468 0.121308 0.915436 0.124243 0.916875 0.121218 0.915436 0.124243 0.919468 0.121308 0.916875 0.121218 0.919468 0.121308 0.915714 0.118246 0.919214 0.117104 0.915714 0.118246 0.919468 0.121308 0.956876 0.1287429 0.957486 0.1314139 0.959664 0.127578 0.959812 0.131615 0.959664 0.127578 0.957486 0.1314139 0.959812 0.131615 0.957486 0.1314139 0.957178 0.135694 0.954635 0.134007 0.957178 0.135694 0.957486 0.1314139 0.927524 0.118676 0.926881 0.11226 0.92318 0.117109 0.923448 0.111977 0.92318 0.117109 0.926881 0.11226 0.930728 0.118115 0.929717 0.112197 0.927524 0.118676 0.926881 0.11226 0.927524 0.118676 0.929717 0.112197 0.92587 0.121866 0.927524 0.118676 0.922876 0.1204 0.92318 0.117109 0.922876 0.1204 0.927524 0.118676 0.914335 0.122437 0.915714 0.118246 0.911999 0.123232 0.912924 0.118073 0.911999 0.123232 0.915714 0.118246 0.940005 0.145339 0.941909 0.147004 0.942507 0.142009 0.944401 0.145261 0.942507 0.142009 0.941909 0.147004 0.931789 0.12255 0.930272 0.124758 0.934544 0.123094 0.935107 0.127081 0.934544 0.123094 0.930272 0.124758 0.931789 0.12255 0.934544 0.123094 0.930728 0.118115 0.933696 0.118292 0.930728 0.118115 0.934544 0.123094 0.925507 0.126762 0.924844 0.123277 0.923016 0.126265 0.922894 0.122748 0.923016 0.126265 0.924844 0.123277 0.922894 0.122748 0.924844 0.123277 0.922876 0.1204 0.92587 0.121866 0.922876 0.1204 0.924844 0.123277 0.92587 0.121866 0.924844 0.123277 0.927613 0.126285 0.925507 0.126762 0.927613 0.126285 0.924844 0.123277 0.938367 0.006543993 0.935473 0.006617963 0.937719 0.009670972 0.934598 0.009175956 0.937719 0.009670972 0.935473 0.006617963 0.935473 0.006617963 0.938367 0.006543993 0.933887 0.004537999 0.938363 0.003187954 0.933887 0.004537999 0.938367 0.006543993 0.934598 0.009175956 0.935473 0.006617963 0.932582 0.008361995 0.933887 0.004537999 0.932582 0.008361995 0.935473 0.006617963 0.945761 0.01145696 0.942009 0.01047396 0.944743 0.01417499 0.940449 0.01407897 0.944743 0.01417499 0.942009 0.01047396 0.945761 0.01145696 0.944743 0.01417499 0.94984 0.01282596 0.948203 0.01597297 0.94984 0.01282596 0.944743 0.01417499 0.902675 0.02221 0.905743 0.02081996 0.900665 0.02120494 0.904516 0.01798695 0.900665 0.02120494 0.905743 0.02081996 0.905743 0.02081996 0.902675 0.02221 0.906038 0.025873 0.902109 0.02647995 0.906038 0.025873 0.902675 0.02221 0.945761 0.01145696 0.945567 0.008810997 0.942009 0.01047396 0.942281 0.007470965 0.942009 0.01047396 0.945567 0.008810997 0.945567 0.008810997 0.945761 0.01145696 0.948043 0.007979989 0.94984 0.01282596 0.948043 0.007979989 0.945761 0.01145696 0.942281 0.007470965 0.945567 0.008810997 0.942898 0.005102992 0.948043 0.007979989 0.942898 0.005102992 0.945567 0.008810997 0.897555 0.02019995 0.900665 0.02120494 0.902032 0.01553398 0.904516 0.01798695 0.902032 0.01553398 0.900665 0.02120494 0.902032 0.01553398 0.89712 0.014952 0.897555 0.02019995 0.893762 0.01949399 0.897555 0.02019995 0.89712 0.014952 0.919468 0.121308 0.920717 0.122979 0.922876 0.1204 0.922894 0.122748 0.922876 0.1204 0.920717 0.122979 0.922894 0.122748 0.920717 0.122979 0.923016 0.126265 0.919835 0.126043 0.923016 0.126265 0.920717 0.122979 0.919835 0.126043 0.920717 0.122979 0.917634 0.125419 0.919468 0.121308 0.917634 0.125419 0.920717 0.122979 0.953309 0.116891 0.952004 0.115866 0.952146 0.120442 0.950048 0.117945 0.952146 0.120442 0.952004 0.115866 0.954866 0.115007 0.952454 0.1127369 0.953309 0.116891 0.952004 0.115866 0.953309 0.116891 0.952454 0.1127369 0.950048 0.117945 0.952004 0.115866 0.949801 0.1138769 0.952454 0.1127369 0.949801 0.1138769 0.952004 0.115866 0.952146 0.120442 0.95232 0.122854 0.955489 0.122417 0.953567 0.124473 0.955489 0.122417 0.95232 0.122854 0.955489 0.122417 0.953567 0.124473 0.957613 0.124572 0.955157 0.126537 0.957613 0.124572 0.953567 0.124473 0.955157 0.126537 0.953567 0.124473 0.952253 0.1294929 0.950604 0.127219 0.952253 0.1294929 0.953567 0.124473 0.950604 0.127219 0.953567 0.124473 0.949681 0.125213 0.95232 0.122854 0.949681 0.125213 0.953567 0.124473 0.948787 0.123292 0.949681 0.125213 0.952146 0.120442 0.95232 0.122854 0.952146 0.120442 0.949681 0.125213 0.950604 0.127219 0.949681 0.125213 0.946149 0.130114 0.94525 0.127736 0.946149 0.130114 0.949681 0.125213 0.94525 0.127736 0.949681 0.125213 0.944244 0.126707 0.948787 0.123292 0.944244 0.126707 0.949681 0.125213 0.944244 0.126707 0.948787 0.123292 0.942995 0.124561 0.946991 0.121674 0.942995 0.124561 0.948787 0.123292 0.94525 0.127736 0.944244 0.126707 0.940505 0.130312 0.939823 0.1289139 0.940505 0.130312 0.944244 0.126707 0.939823 0.1289139 0.944244 0.126707 0.938942 0.126989 0.942995 0.124561 0.938942 0.126989 0.944244 0.126707 0.938042 0.123108 0.938942 0.126989 0.941743 0.121942 0.942995 0.124561 0.941743 0.121942 0.938942 0.126989 0.939823 0.1289139 0.938942 0.126989 0.935399 0.129229 0.935107 0.127081 0.935399 0.129229 0.938942 0.126989 0.938942 0.126989 0.938042 0.123108 0.935107 0.127081 0.934544 0.123094 0.935107 0.127081 0.938042 0.123108 0.939823 0.1289139 0.935399 0.129229 0.940505 0.130312 0.936125 0.131398 0.940505 0.130312 0.935399 0.129229 0.936125 0.131398 0.935399 0.129229 0.93134 0.133448 0.930027 0.129772 0.93134 0.133448 0.935399 0.129229 0.935107 0.127081 0.930272 0.124758 0.935399 0.129229 0.930027 0.129772 0.935399 0.129229 0.930272 0.124758 0.936125 0.131398 0.937764 0.134618 0.940505 0.130312 0.941896 0.132748 0.940505 0.130312 0.937764 0.134618 0.932676 0.137207 0.937764 0.134618 0.93134 0.133448 0.936125 0.131398 0.93134 0.133448 0.937764 0.134618 0.939216 0.137729 0.943256 0.13501 0.937764 0.134618 0.941896 0.132748 0.937764 0.134618 0.943256 0.13501 0.937764 0.134618 0.932676 0.137207 0.939216 0.137729 0.934991 0.140983 0.939216 0.137729 0.932676 0.137207 0.943256 0.13501 0.939216 0.137729 0.944399 0.136753 0.940584 0.13949 0.944399 0.136753 0.939216 0.137729 0.940584 0.13949 0.939216 0.137729 0.936968 0.143673 0.934991 0.140983 0.936968 0.143673 0.939216 0.137729 0.945725 0.138683 0.944399 0.136753 0.942507 0.142009 0.940584 0.13949 0.942507 0.142009 0.944399 0.136753 0.942507 0.142009 0.940584 0.13949 0.940005 0.145339 0.936968 0.143673 0.940005 0.145339 0.940584 0.13949 0.944399 0.136753 0.945725 0.138683 0.948409 0.1348029 0.949488 0.136777 0.948409 0.1348029 0.945725 0.138683 0.945725 0.138683 0.947727 0.14235 0.949488 0.136777 0.951954 0.139343 0.949488 0.136777 0.947727 0.14235 0.947727 0.14235 0.945725 0.138683 0.944401 0.145261 0.942507 0.142009 0.944401 0.145261 0.945725 0.138683 0.908747 0.124056 0.909955 0.118555 0.905184 0.122875 0.906769 0.1178359 0.905184 0.122875 0.909955 0.118555 0.908747 0.124056 0.911999 0.123232 0.909955 0.118555 0.912924 0.118073 0.909955 0.118555 0.911999 0.123232 0.909955 0.118555 0.911931 0.111559 0.906769 0.1178359 0.908566 0.110921 0.906769 0.1178359 0.911931 0.111559 0.909955 0.118555 0.912924 0.118073 0.911931 0.111559 0.914471 0.111787 0.911931 0.111559 0.912924 0.118073 0.915823 0.103892 0.913442 0.103763 0.914471 0.111787 0.911931 0.111559 0.914471 0.111787 0.913442 0.103763 0.917984 0.104088 0.915823 0.103892 0.916391 0.111867 0.914471 0.111787 0.916391 0.111867 0.915823 0.103892 0.916391 0.111867 0.914471 0.111787 0.915714 0.118246 0.912924 0.118073 0.915714 0.118246 0.914471 0.111787 0.916391 0.111867 0.919167 0.112023 0.917984 0.104088 0.920598 0.1043519 0.917984 0.104088 0.919167 0.112023 0.919167 0.112023 0.916391 0.111867 0.919214 0.117104 0.915714 0.118246 0.919214 0.117104 0.916391 0.111867 0.919167 0.112023 0.923448 0.111977 0.920598 0.1043519 0.924026 0.104427 0.920598 0.1043519 0.923448 0.111977 0.919214 0.117104 0.92318 0.117109 0.919167 0.112023 0.923448 0.111977 0.919167 0.112023 0.92318 0.117109 0.92422 0.09628498 0.921756 0.09622597 0.924026 0.104427 0.920598 0.1043519 0.924026 0.104427 0.921756 0.09622597 0.924026 0.104427 0.92676 0.104313 0.92422 0.09628498 0.926529 0.09617 0.92422 0.09628498 0.92676 0.104313 0.923448 0.111977 0.926881 0.11226 0.924026 0.104427 0.92676 0.104313 0.924026 0.104427 0.926881 0.11226 0.92676 0.104313 0.929277 0.1041859 0.926529 0.09617 0.929127 0.09602695 0.926529 0.09617 0.929277 0.1041859 0.92676 0.104313 0.926881 0.11226 0.929277 0.1041859 0.929717 0.112197 0.929277 0.1041859 0.926881 0.11226 0.929277 0.1041859 0.93185 0.104059 0.929127 0.09602695 0.931511 0.095905 0.929127 0.09602695 0.93185 0.104059 0.929277 0.1041859 0.929717 0.112197 0.93185 0.104059 0.932598 0.112017 0.93185 0.104059 0.929717 0.112197 0.929717 0.112197 0.930728 0.118115 0.932598 0.112017 0.933696 0.118292 0.932598 0.112017 0.930728 0.118115 0.93547 0.11176 0.934292 0.103886 0.932598 0.112017 0.93185 0.104059 0.932598 0.112017 0.934292 0.103886 0.932598 0.112017 0.933696 0.118292 0.93547 0.11176 0.93716 0.119237 0.93547 0.11176 0.933696 0.118292 0.938042 0.123108 0.93716 0.119237 0.934544 0.123094 0.933696 0.118292 0.934544 0.123094 0.93716 0.119237 0.939999 0.118903 0.938275 0.111394 0.93716 0.119237 0.93547 0.11176 0.93716 0.119237 0.938275 0.111394 0.939999 0.118903 0.93716 0.119237 0.941743 0.121942 0.938042 0.123108 0.941743 0.121942 0.93716 0.119237 0.939999 0.118903 0.943716 0.116121 0.938275 0.111394 0.941976 0.110264 0.938275 0.111394 0.943716 0.116121 0.941743 0.121942 0.945667 0.120512 0.939999 0.118903 0.943716 0.116121 0.939999 0.118903 0.945667 0.120512 0.940245 0.103336 0.937018 0.103695 0.941976 0.110264 0.938275 0.111394 0.941976 0.110264 0.937018 0.103695 0.945429 0.11001 0.943029 0.102898 0.941976 0.110264 0.940245 0.103336 0.941976 0.110264 0.943029 0.102898 0.945429 0.11001 0.941976 0.110264 0.946687 0.114505 0.943716 0.116121 0.946687 0.114505 0.941976 0.110264 0.945429 0.11001 0.948037 0.109337 0.943029 0.102898 0.945226 0.102444 0.943029 0.102898 0.948037 0.109337 0.948037 0.109337 0.945429 0.11001 0.949801 0.1138769 0.946687 0.114505 0.949801 0.1138769 0.945429 0.11001 0.948037 0.109337 0.950607 0.108245 0.945226 0.102444 0.947735 0.101622 0.945226 0.102444 0.950607 0.108245 0.950607 0.108245 0.948037 0.109337 0.952454 0.1127369 0.949801 0.1138769 0.952454 0.1127369 0.948037 0.109337 0.897175 0.10675 0.899598 0.1076959 0.900681 0.100683 0.902978 0.1017799 0.900681 0.100683 0.899598 0.1076959 0.899598 0.1076959 0.897175 0.10675 0.897822 0.111214 0.894766 0.1105239 0.897822 0.111214 0.897175 0.10675 0.896867 0.114461 0.897822 0.111214 0.894182 0.113585 0.894766 0.1105239 0.894182 0.113585 0.897822 0.111214 0.899598 0.1076959 0.897822 0.111214 0.902726 0.108838 0.900972 0.112617 0.902726 0.108838 0.897822 0.111214 0.900972 0.112617 0.897822 0.111214 0.899754 0.11572 0.896867 0.114461 0.899754 0.11572 0.897822 0.111214 0.902726 0.108838 0.900972 0.112617 0.905731 0.109527 0.903862 0.114814 0.905731 0.109527 0.900972 0.112617 0.899754 0.11572 0.902189 0.118718 0.900972 0.112617 0.903862 0.114814 0.900972 0.112617 0.902189 0.118718 0.906769 0.1178359 0.908566 0.110921 0.903862 0.114814 0.905731 0.109527 0.903862 0.114814 0.908566 0.110921 0.903862 0.114814 0.902189 0.118718 0.906769 0.1178359 0.905184 0.122875 0.906769 0.1178359 0.902189 0.118718 0.907829 0.103172 0.905404 0.102669 0.905731 0.109527 0.902726 0.108838 0.905731 0.109527 0.905404 0.102669 0.908566 0.110921 0.910324 0.103488 0.905731 0.109527 0.907829 0.103172 0.905731 0.109527 0.910324 0.103488 0.910324 0.103488 0.912124 0.09562796 0.907829 0.103172 0.910156 0.09539198 0.907829 0.103172 0.912124 0.09562796 0.910324 0.103488 0.913442 0.103763 0.912124 0.09562796 0.914595 0.095779 0.912124 0.09562796 0.913442 0.103763 0.910324 0.103488 0.908566 0.110921 0.913442 0.103763 0.911931 0.111559 0.913442 0.103763 0.908566 0.110921 0.915501 0.08772701 0.913012 0.087583 0.914595 0.095779 0.912124 0.09562796 0.914595 0.095779 0.913012 0.087583 0.914595 0.095779 0.917061 0.09595698 0.915501 0.08772701 0.918032 0.08785098 0.915501 0.08772701 0.917061 0.09595698 0.913442 0.103763 0.915823 0.103892 0.914595 0.095779 0.917061 0.09595698 0.914595 0.095779 0.915823 0.103892 0.917061 0.09595698 0.919384 0.09611499 0.918032 0.08785098 0.920192 0.08792597 0.918032 0.08785098 0.919384 0.09611499 0.915823 0.103892 0.917984 0.104088 0.917061 0.09595698 0.919384 0.09611499 0.917061 0.09595698 0.917984 0.104088 0.919384 0.09611499 0.921756 0.09622597 0.920192 0.08792597 0.922305 0.08794295 0.920192 0.08792597 0.921756 0.09622597 0.917984 0.104088 0.920598 0.1043519 0.919384 0.09611499 0.921756 0.09622597 0.919384 0.09611499 0.920598 0.1043519 0.922806 0.07968795 0.920758 0.07970595 0.922305 0.08794295 0.920192 0.08792597 0.922305 0.08794295 0.920758 0.07970595 0.924577 0.088014 0.925042 0.07976299 0.922305 0.08794295 0.922806 0.07968795 0.922305 0.08794295 0.925042 0.07976299 0.922305 0.08794295 0.921756 0.09622597 0.924577 0.088014 0.92422 0.09628498 0.924577 0.088014 0.921756 0.09622597 0.924577 0.088014 0.926719 0.08802396 0.925042 0.07976299 0.927257 0.07980996 0.925042 0.07976299 0.926719 0.08802396 0.92422 0.09628498 0.926529 0.09617 0.924577 0.088014 0.926719 0.08802396 0.924577 0.088014 0.926529 0.09617 0.926719 0.08802396 0.929184 0.08796399 0.927257 0.07980996 0.929544 0.07979398 0.927257 0.07980996 0.929184 0.08796399 0.926529 0.09617 0.929127 0.09602695 0.926719 0.08802396 0.929184 0.08796399 0.926719 0.08802396 0.929127 0.09602695 0.929184 0.08796399 0.931435 0.08783996 0.929544 0.07979398 0.931791 0.07973295 0.929544 0.07979398 0.931435 0.08783996 0.929127 0.09602695 0.931511 0.095905 0.929184 0.08796399 0.931435 0.08783996 0.929184 0.08796399 0.931511 0.095905 0.931435 0.08783996 0.933626 0.08772397 0.931791 0.07973295 0.934177 0.07964599 0.931791 0.07973295 0.933626 0.08772397 0.931511 0.095905 0.933728 0.09580999 0.931435 0.08783996 0.933626 0.08772397 0.931435 0.08783996 0.933728 0.09580999 0.933728 0.09580999 0.931511 0.095905 0.934292 0.103886 0.93185 0.104059 0.934292 0.103886 0.931511 0.095905 0.933728 0.09580999 0.936235 0.09575396 0.933626 0.08772397 0.935998 0.08761495 0.933626 0.08772397 0.936235 0.09575396 0.934292 0.103886 0.937018 0.103695 0.933728 0.09580999 0.936235 0.09575396 0.933728 0.09580999 0.937018 0.103695 0.936235 0.09575396 0.938652 0.09560596 0.935998 0.08761495 0.938215 0.08751899 0.935998 0.08761495 0.938652 0.09560596 0.937018 0.103695 0.940245 0.103336 0.936235 0.09575396 0.938652 0.09560596 0.936235 0.09575396 0.940245 0.103336 0.938652 0.09560596 0.940756 0.09538096 0.938215 0.08751899 0.940273 0.08742797 0.938215 0.08751899 0.940756 0.09538096 0.938652 0.09560596 0.940245 0.103336 0.940756 0.09538096 0.943029 0.102898 0.940756 0.09538096 0.940245 0.103336 0.940756 0.09538096 0.942763 0.09506195 0.940273 0.08742797 0.942282 0.08736497 0.940273 0.08742797 0.942763 0.09506195 0.940756 0.09538096 0.943029 0.102898 0.942763 0.09506195 0.945226 0.102444 0.942763 0.09506195 0.943029 0.102898 0.942763 0.09506195 0.945103 0.09459799 0.942282 0.08736497 0.944512 0.087296 0.942282 0.08736497 0.945103 0.09459799 0.942763 0.09506195 0.945226 0.102444 0.945103 0.09459799 0.947735 0.101622 0.945103 0.09459799 0.945226 0.102444 0.903736 0.09403598 0.906118 0.09464895 0.905004 0.08696395 0.907272 0.08719795 0.905004 0.08696395 0.906118 0.09464895 0.903736 0.09403598 0.900681 0.100683 0.906118 0.09464895 0.902978 0.1017799 0.906118 0.09464895 0.900681 0.100683 0.906118 0.09464895 0.908264 0.09508299 0.907272 0.08719795 0.909304 0.08739197 0.907272 0.08719795 0.908264 0.09508299 0.906118 0.09464895 0.902978 0.1017799 0.908264 0.09508299 0.905404 0.102669 0.908264 0.09508299 0.902978 0.1017799 0.909304 0.08739197 0.908264 0.09508299 0.911115 0.08749395 0.910156 0.09539198 0.911115 0.08749395 0.908264 0.09508299 0.908264 0.09508299 0.905404 0.102669 0.910156 0.09539198 0.907829 0.103172 0.910156 0.09539198 0.905404 0.102669 0.911115 0.08749395 0.911745 0.07961195 0.909304 0.08739197 0.909783 0.07951295 0.909304 0.08739197 0.911745 0.07961195 0.911115 0.08749395 0.913012 0.087583 0.911745 0.07961195 0.91383 0.07969999 0.911745 0.07961195 0.913012 0.087583 0.910156 0.09539198 0.912124 0.09562796 0.911115 0.08749395 0.913012 0.087583 0.911115 0.08749395 0.912124 0.09562796 0.914053 0.07163995 0.911937 0.07162499 0.91383 0.07969999 0.911745 0.07961195 0.91383 0.07969999 0.911937 0.07162499 0.91383 0.07969999 0.916211 0.07974499 0.914053 0.07163995 0.91622 0.07167798 0.914053 0.07163995 0.916211 0.07974499 0.913012 0.087583 0.915501 0.08772701 0.91383 0.07969999 0.916211 0.07974499 0.91383 0.07969999 0.915501 0.08772701 0.916211 0.07974499 0.918664 0.07975399 0.91622 0.07167798 0.918499 0.07165896 0.91622 0.07167798 0.918664 0.07975399 0.915501 0.08772701 0.918032 0.08785098 0.916211 0.07974499 0.918664 0.07975399 0.916211 0.07974499 0.918032 0.08785098 0.918664 0.07975399 0.920758 0.07970595 0.918499 0.07165896 0.92081 0.07160395 0.918499 0.07165896 0.920758 0.07970595 0.918032 0.08785098 0.920192 0.08792597 0.918664 0.07975399 0.920758 0.07970595 0.918664 0.07975399 0.920192 0.08792597 0.920566 0.06338798 0.91821 0.06347095 0.92081 0.07160395 0.918499 0.07165896 0.92081 0.07160395 0.91821 0.06347095 0.92081 0.07160395 0.923041 0.07156896 0.920566 0.06338798 0.922996 0.06332898 0.920566 0.06338798 0.923041 0.07156896 0.920758 0.07970595 0.922806 0.07968795 0.92081 0.07160395 0.923041 0.07156896 0.92081 0.07160395 0.922806 0.07968795 0.923041 0.07156896 0.925417 0.07155799 0.922996 0.06332898 0.925514 0.06332796 0.922996 0.06332898 0.925417 0.07155799 0.923041 0.07156896 0.922806 0.07968795 0.925417 0.07155799 0.925042 0.07976299 0.925417 0.07155799 0.922806 0.07968795 0.925417 0.07155799 0.92764 0.07156395 0.925514 0.06332796 0.927754 0.06335395 0.925514 0.06332796 0.92764 0.07156395 0.925417 0.07155799 0.925042 0.07976299 0.92764 0.07156395 0.927257 0.07980996 0.92764 0.07156395 0.925042 0.07976299 0.92764 0.07156395 0.929891 0.07155799 0.927754 0.06335395 0.93011 0.06339097 0.927754 0.06335395 0.929891 0.07155799 0.92764 0.07156395 0.927257 0.07980996 0.929891 0.07155799 0.929544 0.07979398 0.929891 0.07155799 0.927257 0.07980996 0.929891 0.07155799 0.932181 0.07155698 0.93011 0.06339097 0.932639 0.06345498 0.93011 0.06339097 0.932181 0.07155698 0.929544 0.07979398 0.931791 0.07973295 0.929891 0.07155799 0.932181 0.07155698 0.929891 0.07155799 0.931791 0.07973295 0.932181 0.07155698 0.9346 0.07155597 0.932639 0.06345498 0.935135 0.063461 0.932639 0.06345498 0.9346 0.07155597 0.931791 0.07973295 0.934177 0.07964599 0.932181 0.07155698 0.9346 0.07155597 0.932181 0.07155698 0.934177 0.07964599 0.9346 0.07155597 0.937017 0.07154697 0.935135 0.063461 0.937635 0.06349796 0.935135 0.063461 0.937017 0.07154697 0.934177 0.07964599 0.936604 0.07955497 0.9346 0.07155597 0.937017 0.07154697 0.9346 0.07155597 0.936604 0.07955497 0.936604 0.07955497 0.934177 0.07964599 0.935998 0.08761495 0.933626 0.08772397 0.935998 0.08761495 0.934177 0.07964599 0.936604 0.07955497 0.938758 0.07952898 0.937017 0.07154697 0.93924 0.07156795 0.937017 0.07154697 0.938758 0.07952898 0.935998 0.08761495 0.938215 0.08751899 0.936604 0.07955497 0.938758 0.07952898 0.936604 0.07955497 0.938215 0.08751899 0.938758 0.07952898 0.940872 0.07953399 0.93924 0.07156795 0.941412 0.071639 0.93924 0.07156795 0.940872 0.07953399 0.938215 0.08751899 0.940273 0.08742797 0.938758 0.07952898 0.940872 0.07953399 0.938758 0.07952898 0.940273 0.08742797 0.940872 0.07953399 0.942985 0.07956898 0.941412 0.071639 0.943514 0.07174295 0.941412 0.071639 0.942985 0.07956898 0.940273 0.08742797 0.942282 0.08736497 0.940872 0.07953399 0.942985 0.07956898 0.940872 0.07953399 0.942282 0.08736497 0.942985 0.07956898 0.945286 0.07964497 0.943514 0.07174295 0.945838 0.07189697 0.943514 0.07174295 0.945286 0.07964497 0.942282 0.08736497 0.944512 0.087296 0.942985 0.07956898 0.945286 0.07964497 0.942985 0.07956898 0.944512 0.087296 0.905461 0.07945895 0.907683 0.07946199 0.905267 0.07191497 0.907607 0.07174599 0.905267 0.07191497 0.907683 0.07946199 0.905004 0.08696395 0.907272 0.08719795 0.905461 0.07945895 0.907683 0.07946199 0.905461 0.07945895 0.907272 0.08719795 0.907683 0.07946199 0.909783 0.07951295 0.907607 0.07174599 0.909926 0.07164096 0.907607 0.07174599 0.909783 0.07951295 0.907683 0.07946199 0.907272 0.08719795 0.909783 0.07951295 0.909304 0.08739197 0.909783 0.07951295 0.907272 0.08719795 0.909926 0.07164096 0.909218 0.06384599 0.907607 0.07174599 0.906729 0.06416797 0.907607 0.07174599 0.909218 0.06384599 0.909926 0.07164096 0.911937 0.07162499 0.909218 0.06384599 0.911584 0.06366699 0.909218 0.06384599 0.911937 0.07162499 0.909783 0.07951295 0.911745 0.07961195 0.909926 0.07164096 0.911937 0.07162499 0.909926 0.07164096 0.911745 0.07961195 0.911584 0.06366699 0.910353 0.05582398 0.909218 0.06384599 0.907561 0.05619299 0.909218 0.06384599 0.910353 0.05582398 0.913824 0.06358999 0.912775 0.05560797 0.911584 0.06366699 0.910353 0.05582398 0.911584 0.06366699 0.912775 0.05560797 0.911937 0.07162499 0.914053 0.07163995 0.911584 0.06366699 0.913824 0.06358999 0.911584 0.06366699 0.914053 0.07163995 0.915964 0.063537 0.914999 0.05547499 0.913824 0.06358999 0.912775 0.05560797 0.913824 0.06358999 0.914999 0.05547499 0.914053 0.07163995 0.91622 0.07167798 0.913824 0.06358999 0.915964 0.063537 0.913824 0.06358999 0.91622 0.07167798 0.915964 0.063537 0.91821 0.06347095 0.914999 0.05547499 0.917465 0.05531495 0.914999 0.05547499 0.91821 0.06347095 0.91622 0.07167798 0.918499 0.07165896 0.915964 0.063537 0.91821 0.06347095 0.915964 0.063537 0.918499 0.07165896 0.917465 0.05531495 0.916485 0.04734998 0.914999 0.05547499 0.913646 0.04749596 0.914999 0.05547499 0.916485 0.04734998 0.917465 0.05531495 0.920136 0.05520695 0.916485 0.04734998 0.91972 0.04722899 0.916485 0.04734998 0.920136 0.05520695 0.917465 0.05531495 0.91821 0.06347095 0.920136 0.05520695 0.920566 0.06338798 0.920136 0.05520695 0.91821 0.06347095 0.920136 0.05520695 0.922912 0.05515497 0.91972 0.04722899 0.922693 0.04717397 0.91972 0.04722899 0.922912 0.05515497 0.920566 0.06338798 0.922996 0.06332898 0.920136 0.05520695 0.922912 0.05515497 0.920136 0.05520695 0.922996 0.06332898 0.922912 0.05515497 0.925723 0.05510097 0.922693 0.04717397 0.925726 0.04703295 0.922693 0.04717397 0.925723 0.05510097 0.922996 0.06332898 0.925514 0.06332796 0.922912 0.05515497 0.925723 0.05510097 0.922912 0.05515497 0.925514 0.06332796 0.925723 0.05510097 0.928137 0.05514597 0.925726 0.04703295 0.928409 0.04700797 0.925726 0.04703295 0.928137 0.05514597 0.925514 0.06332796 0.927754 0.06335395 0.925723 0.05510097 0.928137 0.05514597 0.925723 0.05510097 0.927754 0.06335395 0.928137 0.05514597 0.93067 0.05523699 0.928409 0.04700797 0.931285 0.04706197 0.928409 0.04700797 0.93067 0.05523699 0.927754 0.06335395 0.93011 0.06339097 0.928137 0.05514597 0.93067 0.05523699 0.928137 0.05514597 0.93011 0.06339097 0.93067 0.05523699 0.933179 0.05532598 0.931285 0.04706197 0.933958 0.04721498 0.931285 0.04706197 0.933179 0.05532598 0.93011 0.06339097 0.932639 0.06345498 0.93067 0.05523699 0.933179 0.05532598 0.93067 0.05523699 0.932639 0.06345498 0.933179 0.05532598 0.935727 0.05545395 0.933958 0.04721498 0.936518 0.04737997 0.933958 0.04721498 0.935727 0.05545395 0.932639 0.06345498 0.935135 0.063461 0.933179 0.05532598 0.935727 0.05545395 0.933179 0.05532598 0.935135 0.063461 0.935727 0.05545395 0.938547 0.05557698 0.936518 0.04737997 0.939401 0.04761999 0.936518 0.04737997 0.938547 0.05557698 0.935135 0.063461 0.937635 0.06349796 0.935727 0.05545395 0.938547 0.05557698 0.935727 0.05545395 0.937635 0.06349796 0.938547 0.05557698 0.94107 0.05572098 0.939401 0.04761999 0.942379 0.04787898 0.939401 0.04761999 0.94107 0.05572098 0.937635 0.06349796 0.93992 0.06359398 0.938547 0.05557698 0.94107 0.05572098 0.938547 0.05557698 0.93992 0.06359398 0.93992 0.06359398 0.937635 0.06349796 0.93924 0.07156795 0.937017 0.07154697 0.93924 0.07156795 0.937635 0.06349796 0.93992 0.06359398 0.94221 0.06376296 0.94107 0.05572098 0.943685 0.05598998 0.94107 0.05572098 0.94221 0.06376296 0.93992 0.06359398 0.93924 0.07156795 0.94221 0.06376296 0.941412 0.071639 0.94221 0.06376296 0.93924 0.07156795 0.94221 0.06376296 0.944448 0.06401199 0.943685 0.05598998 0.946149 0.05634796 0.943685 0.05598998 0.944448 0.06401199 0.941412 0.071639 0.943514 0.07174295 0.94221 0.06376296 0.944448 0.06401199 0.94221 0.06376296 0.943514 0.07174295 0.944448 0.06401199 0.946696 0.06432497 0.946149 0.05634796 0.94834 0.05674099 0.946149 0.05634796 0.946696 0.06432497 0.943514 0.07174295 0.945838 0.07189697 0.944448 0.06401199 0.946696 0.06432497 0.944448 0.06401199 0.945838 0.07189697 0.904499 0.06453895 0.906729 0.06416797 0.902704 0.05717694 0.904882 0.056656 0.902704 0.05717694 0.906729 0.06416797 0.904499 0.06453895 0.905267 0.07191497 0.906729 0.06416797 0.907607 0.07174599 0.906729 0.06416797 0.905267 0.07191497 0.904882 0.056656 0.902838 0.04908597 0.902704 0.05717694 0.900433 0.04977995 0.902704 0.05717694 0.902838 0.04908597 0.904882 0.056656 0.907561 0.05619299 0.902838 0.04908597 0.905663 0.04849499 0.902838 0.04908597 0.907561 0.05619299 0.904882 0.056656 0.906729 0.06416797 0.907561 0.05619299 0.909218 0.06384599 0.907561 0.05619299 0.906729 0.06416797 0.905663 0.04849499 0.90269 0.04112297 0.902838 0.04908597 0.900104 0.04171496 0.902838 0.04908597 0.90269 0.04112297 0.908452 0.04803699 0.905715 0.04039996 0.905663 0.04849499 0.90269 0.04112297 0.905663 0.04849499 0.905715 0.04039996 0.905663 0.04849499 0.907561 0.05619299 0.908452 0.04803699 0.910353 0.05582398 0.908452 0.04803699 0.907561 0.05619299 0.911073 0.04770797 0.908883 0.03984296 0.908452 0.04803699 0.905715 0.04039996 0.908452 0.04803699 0.908883 0.03984296 0.908452 0.04803699 0.910353 0.05582398 0.911073 0.04770797 0.912775 0.05560797 0.911073 0.04770797 0.910353 0.05582398 0.913646 0.04749596 0.912358 0.03957897 0.911073 0.04770797 0.908883 0.03984296 0.911073 0.04770797 0.912358 0.03957897 0.911073 0.04770797 0.912775 0.05560797 0.913646 0.04749596 0.914999 0.05547499 0.913646 0.04749596 0.912775 0.05560797 0.912358 0.03957897 0.911092 0.03194397 0.908883 0.03984296 0.906408 0.03214097 0.908883 0.03984296 0.911092 0.03194397 0.915629 0.03944694 0.914762 0.03177499 0.912358 0.03957897 0.911092 0.03194397 0.912358 0.03957897 0.914762 0.03177499 0.912358 0.03957897 0.913646 0.04749596 0.915629 0.03944694 0.916485 0.04734998 0.915629 0.03944694 0.913646 0.04749596 0.919227 0.03924298 0.918587 0.03144198 0.915629 0.03944694 0.914762 0.03177499 0.915629 0.03944694 0.918587 0.03144198 0.915629 0.03944694 0.916485 0.04734998 0.919227 0.03924298 0.91972 0.04722899 0.919227 0.03924298 0.916485 0.04734998 0.919227 0.03924298 0.922472 0.03908097 0.918587 0.03144198 0.922316 0.03102296 0.918587 0.03144198 0.922472 0.03908097 0.91972 0.04722899 0.922693 0.04717397 0.919227 0.03924298 0.922472 0.03908097 0.919227 0.03924298 0.922693 0.04717397 0.922472 0.03908097 0.925519 0.03902697 0.922316 0.03102296 0.925975 0.03103297 0.922316 0.03102296 0.925519 0.03902697 0.922693 0.04717397 0.925726 0.04703295 0.922472 0.03908097 0.925519 0.03902697 0.922472 0.03908097 0.925726 0.04703295 0.925519 0.03902697 0.928351 0.03901398 0.925975 0.03103297 0.929145 0.031295 0.925975 0.03103297 0.928351 0.03901398 0.925519 0.03902697 0.925726 0.04703295 0.928351 0.03901398 0.928409 0.04700797 0.928351 0.03901398 0.925726 0.04703295 0.928351 0.03901398 0.93169 0.03902494 0.929145 0.031295 0.931692 0.031246 0.929145 0.031295 0.93169 0.03902494 0.928409 0.04700797 0.931285 0.04706197 0.928351 0.03901398 0.93169 0.03902494 0.928351 0.03901398 0.931285 0.04706197 0.93169 0.03902494 0.935019 0.03910398 0.931692 0.031246 0.935736 0.03090399 0.931692 0.031246 0.935019 0.03910398 0.931285 0.04706197 0.933958 0.04721498 0.93169 0.03902494 0.935019 0.03910398 0.93169 0.03902494 0.933958 0.04721498 0.935019 0.03910398 0.938101 0.039195 0.935736 0.03090399 0.94026 0.03147 0.935736 0.03090399 0.938101 0.039195 0.933958 0.04721498 0.936518 0.04737997 0.935019 0.03910398 0.938101 0.039195 0.935019 0.03910398 0.936518 0.04737997 0.938101 0.039195 0.941141 0.03978496 0.94026 0.03147 0.943657 0.03243696 0.94026 0.03147 0.941141 0.03978496 0.936518 0.04737997 0.939401 0.04761999 0.938101 0.039195 0.941141 0.03978496 0.938101 0.039195 0.939401 0.04761999 0.941141 0.03978496 0.944079 0.04030799 0.943657 0.03243696 0.946105 0.032947 0.943657 0.03243696 0.944079 0.04030799 0.939401 0.04761999 0.942379 0.04787898 0.941141 0.03978496 0.944079 0.04030799 0.941141 0.03978496 0.942379 0.04787898 0.944079 0.04030799 0.946859 0.04053097 0.946105 0.032947 0.948495 0.03295296 0.946105 0.032947 0.946859 0.04053097 0.942379 0.04787898 0.945245 0.04816496 0.944079 0.04030799 0.946859 0.04053097 0.944079 0.04030799 0.945245 0.04816496 0.945245 0.04816496 0.942379 0.04787898 0.943685 0.05598998 0.94107 0.05572098 0.943685 0.05598998 0.942379 0.04787898 0.945245 0.04816496 0.947926 0.04851895 0.946859 0.04053097 0.949855 0.04073899 0.946859 0.04053097 0.947926 0.04851895 0.945245 0.04816496 0.943685 0.05598998 0.947926 0.04851895 0.946149 0.05634796 0.947926 0.04851895 0.943685 0.05598998 0.947926 0.04851895 0.950301 0.04908198 0.949855 0.04073899 0.953336 0.04157894 0.949855 0.04073899 0.950301 0.04908198 0.947926 0.04851895 0.946149 0.05634796 0.950301 0.04908198 0.94834 0.05674099 0.950301 0.04908198 0.946149 0.05634796 0.956641 0.03337895 0.951623 0.032637 0.953336 0.04157894 0.949855 0.04073899 0.953336 0.04157894 0.951623 0.032637 0.900104 0.04171496 0.896992 0.03405499 0.897553 0.04246395 0.89439 0.03450298 0.897553 0.04246395 0.896992 0.03405499 0.897553 0.04246395 0.900433 0.04977995 0.900104 0.04171496 0.902838 0.04908597 0.900104 0.04171496 0.900433 0.04977995 0.896992 0.03405499 0.895374 0.02621495 0.89439 0.03450298 0.892833 0.02631098 0.89439 0.03450298 0.895374 0.02621495 0.899452 0.03368794 0.898444 0.02629595 0.896992 0.03405499 0.895374 0.02621495 0.896992 0.03405499 0.898444 0.02629595 0.896992 0.03405499 0.900104 0.04171496 0.899452 0.03368794 0.90269 0.04112297 0.899452 0.03368794 0.900104 0.04171496 0.899452 0.03368794 0.902273 0.03279799 0.898444 0.02629595 0.902109 0.02647995 0.898444 0.02629595 0.902273 0.03279799 0.899452 0.03368794 0.90269 0.04112297 0.902273 0.03279799 0.905715 0.04039996 0.902273 0.03279799 0.90269 0.04112297 0.902273 0.03279799 0.906408 0.03214097 0.902109 0.02647995 0.906038 0.025873 0.902109 0.02647995 0.906408 0.03214097 0.902273 0.03279799 0.905715 0.04039996 0.906408 0.03214097 0.908883 0.03984296 0.906408 0.03214097 0.905715 0.04039996 0.900665 0.02120494 0.897555 0.02019995 0.898444 0.02629595 0.895374 0.02621495 0.898444 0.02629595 0.897555 0.02019995 0.900665 0.02120494 0.898444 0.02629595 0.902675 0.02221 0.902109 0.02647995 0.902675 0.02221 0.898444 0.02629595 0.897555 0.02019995 0.893762 0.01949399 0.895374 0.02621495 0.892833 0.02631098 0.895374 0.02621495 0.893762 0.01949399 0.957582 0.02477794 0.952943 0.025469 0.956641 0.03337895 0.951623 0.032637 0.956641 0.03337895 0.952943 0.025469 0.957582 0.02477794 0.954566 0.01797598 0.952943 0.025469 0.951734 0.02014195 0.952943 0.025469 0.954566 0.01797598 0.951734 0.02014195 0.949676 0.02163296 0.952943 0.025469 0.949861 0.02638995 0.952943 0.025469 0.949676 0.02163296 0.951734 0.02014195 0.948203 0.01597297 0.949676 0.02163296 0.945494 0.01735299 0.949676 0.02163296 0.948203 0.01597297 0.951734 0.02014195 0.954566 0.01797598 0.948203 0.01597297 0.94984 0.01282596 0.948203 0.01597297 0.954566 0.01797598 0.949676 0.02163296 0.947317 0.02276998 0.949861 0.02638995 0.947304 0.02729099 0.949861 0.02638995 0.947317 0.02276998 0.944937 0.01866698 0.947317 0.02276998 0.945494 0.01735299 0.949676 0.02163296 0.945494 0.01735299 0.947317 0.02276998 0.938749 0.01885998 0.94288 0.02151 0.9393 0.01730996 0.944937 0.01866698 0.9393 0.01730996 0.94288 0.02151 0.9393 0.01730996 0.944937 0.01866698 0.940015 0.016267 0.945494 0.01735299 0.940015 0.016267 0.944937 0.01866698 0.945552 0.02369296 0.947317 0.02276998 0.94288 0.02151 0.944937 0.01866698 0.94288 0.02151 0.947317 0.02276998 0.938749 0.01885998 0.9393 0.01730996 0.934518 0.01984298 0.935172 0.01747095 0.934518 0.01984298 0.9393 0.01730996 0.935172 0.01747095 0.9393 0.01730996 0.935146 0.01600098 0.940015 0.016267 0.935146 0.01600098 0.9393 0.01730996 0.934518 0.01984298 0.935172 0.01747095 0.931218 0.02008295 0.931881 0.01722496 0.931218 0.02008295 0.935172 0.01747095 0.931881 0.01722496 0.935172 0.01747095 0.932568 0.01498198 0.935146 0.01600098 0.932568 0.01498198 0.935172 0.01747095 0.931218 0.02008295 0.931881 0.01722496 0.927809 0.02018499 0.928371 0.01749598 0.927809 0.02018499 0.931881 0.01722496 0.928371 0.01749598 0.931881 0.01722496 0.928676 0.01535797 0.932568 0.01498198 0.928676 0.01535797 0.931881 0.01722496 0.927809 0.02018499 0.928371 0.01749598 0.923857 0.01991099 0.924264 0.01788997 0.923857 0.01991099 0.928371 0.01749598 0.924264 0.01788997 0.928371 0.01749598 0.924304 0.01565396 0.928676 0.01535797 0.924304 0.01565396 0.928371 0.01749598 0.923857 0.01991099 0.924264 0.01788997 0.91911 0.02067399 0.919306 0.018193 0.91911 0.02067399 0.924264 0.01788997 0.919306 0.018193 0.924264 0.01788997 0.919536 0.01629298 0.924304 0.01565396 0.919536 0.01629298 0.924264 0.01788997 0.91911 0.02067399 0.919306 0.018193 0.914596 0.02007997 0.914277 0.01767098 0.914596 0.02007997 0.919306 0.018193 0.914277 0.01767098 0.919306 0.018193 0.914089 0.01585894 0.919536 0.01629298 0.914089 0.01585894 0.919306 0.018193 0.914596 0.02007997 0.914277 0.01767098 0.909961 0.01948595 0.90938 0.01741194 0.909961 0.01948595 0.914277 0.01767098 0.90938 0.01741194 0.914277 0.01767098 0.908555 0.01502698 0.914089 0.01585894 0.908555 0.01502698 0.914277 0.01767098 0.909961 0.01948595 0.90938 0.01741194 0.905743 0.02081996 0.904516 0.01798695 0.905743 0.02081996 0.90938 0.01741194 0.908555 0.01502698 0.902032 0.01553398 0.90938 0.01741194 0.904516 0.01798695 0.90938 0.01741194 0.902032 0.01553398 0.909961 0.01948595 0.905743 0.02081996 0.910422 0.02501398 0.906038 0.025873 0.910422 0.02501398 0.905743 0.02081996 0.909961 0.01948595 0.910422 0.02501398 0.914596 0.02007997 0.914486 0.02467197 0.914596 0.02007997 0.910422 0.02501398 0.914486 0.02467197 0.910422 0.02501398 0.914762 0.03177499 0.911092 0.03194397 0.914762 0.03177499 0.910422 0.02501398 0.914486 0.02467197 0.918583 0.02435195 0.914596 0.02007997 0.91911 0.02067399 0.914596 0.02007997 0.918583 0.02435195 0.914762 0.03177499 0.918587 0.03144198 0.914486 0.02467197 0.918583 0.02435195 0.914486 0.02467197 0.918587 0.03144198 0.918583 0.02435195 0.922591 0.02429497 0.91911 0.02067399 0.923857 0.01991099 0.91911 0.02067399 0.922591 0.02429497 0.918587 0.03144198 0.922316 0.03102296 0.918583 0.02435195 0.922591 0.02429497 0.918583 0.02435195 0.922316 0.03102296 0.922591 0.02429497 0.927439 0.024046 0.923857 0.01991099 0.927809 0.02018499 0.923857 0.01991099 0.927439 0.024046 0.922316 0.03102296 0.925975 0.03103297 0.922591 0.02429497 0.927439 0.024046 0.922591 0.02429497 0.925975 0.03103297 0.927809 0.02018499 0.927439 0.024046 0.931218 0.02008295 0.930359 0.02371698 0.931218 0.02008295 0.927439 0.024046 0.925975 0.03103297 0.929145 0.031295 0.927439 0.024046 0.930359 0.02371698 0.927439 0.024046 0.929145 0.031295 0.931218 0.02008295 0.930359 0.02371698 0.934518 0.01984298 0.932759 0.02353894 0.934518 0.01984298 0.930359 0.02371698 0.929145 0.031295 0.931692 0.031246 0.930359 0.02371698 0.932759 0.02353894 0.930359 0.02371698 0.931692 0.031246 0.932759 0.02353894 0.937088 0.02386796 0.934518 0.01984298 0.938749 0.01885998 0.934518 0.01984298 0.937088 0.02386796 0.931692 0.031246 0.935736 0.03090399 0.932759 0.02353894 0.937088 0.02386796 0.932759 0.02353894 0.935736 0.03090399 0.941544 0.02572697 0.94288 0.02151 0.937088 0.02386796 0.938749 0.01885998 0.937088 0.02386796 0.94288 0.02151 0.937088 0.02386796 0.935736 0.03090399 0.941544 0.02572697 0.94026 0.03147 0.941544 0.02572697 0.935736 0.03090399 0.910422 0.02501398 0.906038 0.025873 0.911092 0.03194397 0.906408 0.03214097 0.911092 0.03194397 0.906038 0.025873 0.949861 0.02638995 0.947304 0.02729099 0.948495 0.03295296 0.946105 0.032947 0.948495 0.03295296 0.947304 0.02729099 0.948495 0.03295296 0.951623 0.032637 0.949861 0.02638995 0.952943 0.025469 0.949861 0.02638995 0.951623 0.032637 0.951623 0.032637 0.948495 0.03295296 0.949855 0.04073899 0.946859 0.04053097 0.949855 0.04073899 0.948495 0.03295296 0.947304 0.02729099 0.944862 0.02707397 0.946105 0.032947 0.943657 0.03243696 0.946105 0.032947 0.944862 0.02707397 0.943657 0.03243696 0.944862 0.02707397 0.94026 0.03147 0.941544 0.02572697 0.94026 0.03147 0.944862 0.02707397 0.905404 0.102669 0.902978 0.1017799 0.902726 0.108838 0.899598 0.1076959 0.902726 0.108838 0.902978 0.1017799 0.937018 0.103695 0.934292 0.103886 0.938275 0.111394 0.93547 0.11176 0.938275 0.111394 0.934292 0.103886 0.957178 0.135694 0.954635 0.134007 0.951954 0.139343 0.949488 0.136777 0.951954 0.139343 0.954635 0.134007 0.954635 0.134007 0.953356 0.131667 0.949488 0.136777 0.948409 0.1348029 0.949488 0.136777 0.953356 0.131667 0.952253 0.1294929 0.953356 0.131667 0.955157 0.126537 0.956876 0.1287429 0.955157 0.126537 0.953356 0.131667 0.956876 0.1287429 0.953356 0.131667 0.957486 0.1314139 0.954635 0.134007 0.957486 0.1314139 0.953356 0.131667 0.953356 0.131667 0.952253 0.1294929 0.948409 0.1348029 0.947499 0.132699 0.948409 0.1348029 0.952253 0.1294929 0.952253 0.1294929 0.950604 0.127219 0.947499 0.132699 0.946149 0.130114 0.947499 0.132699 0.950604 0.127219 0.948409 0.1348029 0.947499 0.132699 0.944399 0.136753 0.943256 0.13501 0.944399 0.136753 0.947499 0.132699 0.946149 0.130114 0.941896 0.132748 0.947499 0.132699 0.943256 0.13501 0.947499 0.132699 0.941896 0.132748 0.941896 0.132748 0.946149 0.130114 0.940505 0.130312 0.94525 0.127736 0.940505 0.130312 0.946149 0.130114 0.945667 0.120512 0.941743 0.121942 0.946991 0.121674 0.942995 0.124561 0.946991 0.121674 0.941743 0.121942 0.952146 0.120442 0.950048 0.117945 0.948787 0.123292 0.946991 0.121674 0.948787 0.123292 0.950048 0.117945 0.957613 0.124572 0.955157 0.126537 0.959664 0.127578 0.956876 0.1287429 0.959664 0.127578 0.955157 0.126537 0.942281 0.007470965 0.942898 0.005102992 0.938367 0.006543993 0.938363 0.003187954 0.938367 0.006543993 0.942898 0.005102992 0.942009 0.01047396 0.942281 0.007470965 0.937719 0.009670972 0.938367 0.006543993 0.937719 0.009670972 0.942281 0.007470965 0.936826 0.01271396 0.940449 0.01407897 0.937719 0.009670972 0.942009 0.01047396 0.937719 0.009670972 0.940449 0.01407897 0.934598 0.009175956 0.932582 0.008361995 0.934037 0.01220095 0.932152 0.01194298 0.934037 0.01220095 0.932582 0.008361995 0.937719 0.009670972 0.934598 0.009175956 0.936826 0.01271396 0.934037 0.01220095 0.936826 0.01271396 0.934598 0.009175956 0.92587 0.121866 0.927613 0.126285 0.927524 0.118676 0.930272 0.124758 0.927524 0.118676 0.927613 0.126285 0.930272 0.124758 0.931789 0.12255 0.927524 0.118676 0.930728 0.118115 0.927524 0.118676 0.931789 0.12255 0.92318 0.117109 0.919214 0.117104 0.922876 0.1204 0.919468 0.121308 0.922876 0.1204 0.919214 0.117104 0.935146 0.01600098 0.940015 0.016267 0.936312 0.01457399 0.940125 0.01507794 0.936312 0.01457399 0.940015 0.016267 0.940125 0.01507794 0.940449 0.01407897 0.936312 0.01457399 0.936826 0.01271396 0.936312 0.01457399 0.940449 0.01407897</float_array>
          <technique_common>
            <accessor source="#Mouse001RLegDigit31_ncl1_1Mesh-mesh-map-0-array" count="2118" stride="2">
              <param name="S" type="float"/>
              <param name="T" type="float"/>
            </accessor>
          </technique_common>
        </source>
        <vertices id="Mouse001RLegDigit31_ncl1_1Mesh-mesh-vertices">
          <input semantic="POSITION" source="#Mouse001RLegDigit31_ncl1_1Mesh-mesh-positions"/>
        </vertices>
        <triangles count="706">
          <input semantic="VERTEX" source="#Mouse001RLegDigit31_ncl1_1Mesh-mesh-vertices" offset="0"/>
          <input semantic="NORMAL" source="#Mouse001RLegDigit31_ncl1_1Mesh-mesh-normals" offset="1"/>
          <input semantic="TEXCOORD" source="#Mouse001RLegDigit31_ncl1_1Mesh-mesh-map-0" offset="2" set="0"/>
          <p>0 0 0 20 1 1 18 2 2 19 3 3 18 2 4 20 1 5 21 4 6 0 0 7 22 5 8 18 2 9 22 5 10 0 0 11 20 1 12 0 0 13 23 6 14 21 4 15 23 6 16 0 0 17 24 7 18 1 8 19 25 9 20 26 10 21 25 9 22 1 8 23 27 11 24 1 8 25 28 12 26 24 7 27 28 12 28 1 8 29 26 10 30 1 8 31 29 13 32 27 11 33 29 13 34 1 8 35 30 14 36 2 15 37 31 16 38 11 17 39 31 16 40 2 15 41 34 18 42 33 19 43 30 14 44 2 15 45 30 14 46 33 19 47 11 17 48 2 15 49 32 20 50 33 19 51 32 20 52 2 15 53 3 21 54 37 22 55 35 23 56 36 24 57 35 23 58 37 22 59 37 22 60 3 21 61 38 25 62 39 26 63 38 25 64 3 21 65 40 27 66 4 28 67 7 29 68 41 30 69 7 29 70 4 28 71 44 31 72 43 32 73 40 27 74 4 28 75 40 27 76 43 32 77 4 28 78 43 32 79 41 30 80 42 33 81 41 30 82 43 32 83 45 34 84 5 35 85 46 36 86 47 37 87 46 36 88 5 35 89 47 37 90 5 35 91 48 38 92 49 39 93 48 38 94 5 35 95 6 40 96 52 41 97 50 42 98 51 43 99 50 42 100 52 41 101 54 44 102 53 45 103 6 40 104 52 41 105 6 40 106 53 45 107 55 46 108 6 40 109 56 47 110 50 42 111 56 47 112 6 40 113 7 29 114 41 30 115 57 48 116 58 49 117 57 48 118 41 30 119 40 27 120 7 29 121 59 50 122 57 48 123 59 50 124 7 29 125 8 51 126 62 52 127 60 53 128 61 54 129 60 53 130 62 52 131 8 51 132 60 53 133 54 44 134 63 55 135 54 44 136 60 53 137 64 56 138 9 57 139 65 58 140 66 59 141 65 58 142 9 57 143 66 59 144 9 57 145 56 47 146 55 46 147 56 47 148 9 57 149 55 46 150 9 57 151 67 60 152 64 56 153 67 60 154 9 57 155 68 61 156 10 62 157 69 63 158 70 64 159 69 63 160 10 62 161 10 62 162 68 61 163 71 65 164 72 66 165 71 65 166 68 61 167 70 64 168 10 62 169 73 67 170 71 65 171 73 67 172 10 62 173 75 68 174 74 69 175 11 17 176 31 16 177 11 17 178 74 69 179 75 68 180 11 17 181 76 70 182 32 20 183 76 70 184 11 17 185 12 71 186 79 72 187 77 73 188 78 74 189 77 73 190 79 72 191 79 72 192 12 71 193 80 75 194 81 76 195 80 75 196 12 71 197 75 68 198 13 77 199 74 69 200 82 78 201 74 69 202 13 77 203 13 77 204 75 68 205 14 79 206 76 70 207 14 79 208 75 68 209 82 78 210 13 77 211 83 80 212 14 79 213 83 80 214 13 77 215 84 81 216 77 73 217 14 79 218 78 74 219 14 79 220 77 73 221 14 79 222 76 70 223 84 81 224 85 82 225 84 81 226 76 70 227 43 32 228 15 83 229 56 47 230 66 59 231 56 47 232 15 83 233 66 59 234 15 83 235 65 58 236 86 84 237 65 58 238 15 83 239 86 84 240 15 83 241 44 31 242 43 32 243 44 31 244 15 83 245 87 85 246 16 86 247 88 87 248 21 4 249 88 87 250 16 86 251 90 88 252 89 89 253 87 85 254 16 86 255 87 85 256 89 89 257 21 4 258 16 86 259 23 6 260 89 89 261 23 6 262 16 86 263 88 87 264 17 90 265 87 85 266 91 91 267 87 85 268 17 90 269 87 85 270 91 91 271 90 88 272 92 92 273 90 88 274 91 91 275 92 92 276 91 91 277 93 93 278 94 94 279 93 93 280 91 91 281 94 94 282 91 91 283 95 95 284 17 90 285 95 95 286 91 91 287 96 96 288 95 95 289 88 87 290 17 90 291 88 87 292 95 95 293 94 94 294 95 95 295 97 97 296 98 98 297 97 97 298 95 95 299 98 98 300 95 95 301 99 99 302 96 96 303 99 99 304 95 95 305 99 99 306 96 96 307 100 100 308 22 5 309 100 100 310 96 96 311 98 98 312 99 99 313 101 101 314 102 102 315 101 101 316 99 99 317 102 102 318 99 99 319 103 103 320 100 100 321 103 103 322 99 99 323 104 104 324 103 103 325 105 105 326 100 100 327 105 105 328 103 103 329 102 102 330 103 103 331 106 106 332 61 54 333 106 106 334 103 103 335 103 103 336 104 104 337 61 54 338 60 53 339 61 54 340 104 104 341 102 102 342 106 106 343 101 101 344 107 107 345 101 101 346 106 106 347 107 107 348 106 106 349 64 56 350 67 60 351 64 56 352 106 106 353 61 54 354 62 52 355 106 106 356 67 60 357 106 106 358 62 52 359 107 107 360 109 108 361 101 101 362 108 109 363 101 101 364 109 108 365 65 58 366 109 108 367 64 56 368 107 107 369 64 56 370 109 108 371 111 110 372 110 111 373 109 108 374 108 109 375 109 108 376 110 111 377 109 108 378 65 58 379 111 110 380 86 84 381 111 110 382 65 58 383 110 111 384 111 110 385 112 112 386 113 113 387 112 112 388 111 110 389 113 113 390 111 110 391 44 31 392 86 84 393 44 31 394 111 110 395 114 114 396 112 112 397 59 50 398 113 113 399 59 50 400 112 112 401 59 50 402 113 113 403 40 27 404 44 31 405 40 27 406 113 113 407 112 112 408 114 114 409 115 115 410 116 116 411 115 115 412 114 114 413 114 114 414 118 117 415 116 116 416 117 118 417 116 116 418 118 117 419 118 117 420 114 114 421 57 48 422 59 50 423 57 48 424 114 114 425 118 117 426 120 119 427 117 118 428 119 120 429 117 118 430 120 119 431 118 117 432 57 48 433 120 119 434 58 49 435 120 119 436 57 48 437 120 119 438 122 121 439 119 120 440 121 122 441 119 120 442 122 121 443 120 119 444 58 49 445 122 121 446 123 123 447 122 121 448 58 49 449 125 124 450 124 125 451 123 123 452 122 121 453 123 123 454 124 125 455 126 126 456 125 124 457 127 127 458 123 123 459 127 127 460 125 124 461 127 127 462 123 123 463 41 30 464 58 49 465 41 30 466 123 123 467 127 127 468 129 128 469 126 126 470 128 129 471 126 126 472 129 128 473 129 128 474 127 127 475 42 33 476 41 30 477 42 33 478 127 127 479 129 128 480 51 43 481 128 129 482 130 130 483 128 129 484 51 43 485 42 33 486 50 42 487 129 128 488 51 43 489 129 128 490 50 42 491 132 131 492 131 132 493 130 130 494 128 129 495 130 130 496 131 132 497 130 130 498 134 133 499 132 131 500 133 134 501 132 131 502 134 133 503 51 43 504 52 41 505 130 130 506 134 133 507 130 130 508 52 41 509 134 133 510 136 135 511 133 134 512 135 136 513 133 134 514 136 135 515 134 133 516 52 41 517 136 135 518 53 45 519 136 135 520 52 41 521 136 135 522 138 137 523 135 136 524 137 138 525 135 136 526 138 137 527 136 135 528 53 45 529 138 137 530 139 139 531 138 137 532 53 45 533 53 45 534 54 44 535 139 139 536 63 55 537 139 139 538 54 44 539 141 140 540 140 141 541 139 139 542 138 137 543 139 139 544 140 141 545 139 139 546 63 55 547 141 140 548 142 142 549 141 140 550 63 55 551 104 104 552 142 142 553 60 53 554 63 55 555 60 53 556 142 142 557 144 143 558 143 144 559 142 142 560 141 140 561 142 142 562 143 144 563 144 143 564 142 142 565 105 105 566 104 104 567 105 105 568 142 142 569 144 143 570 19 3 571 143 144 572 145 145 573 143 144 574 19 3 575 105 105 576 18 2 577 144 143 578 19 3 579 144 143 580 18 2 581 147 146 582 146 147 583 145 145 584 143 144 585 145 145 586 146 147 587 149 148 588 148 149 589 145 145 590 147 146 591 145 145 592 148 149 593 149 148 594 145 145 595 20 1 596 19 3 597 20 1 598 145 145 599 149 148 600 151 150 601 148 149 602 150 151 603 148 149 604 151 150 605 151 150 606 149 148 607 23 6 608 20 1 609 23 6 610 149 148 611 151 150 612 153 152 613 150 151 614 152 153 615 150 151 616 153 152 617 153 152 618 151 150 619 89 89 620 23 6 621 89 89 622 151 150 623 153 152 624 155 154 625 152 153 626 154 155 627 152 153 628 155 154 629 155 154 630 153 152 631 156 156 632 89 89 633 156 156 634 153 152 635 46 36 636 156 156 637 90 88 638 89 89 639 90 88 640 156 156 641 155 154 642 156 156 643 157 157 644 158 158 645 157 157 646 156 156 647 158 158 648 156 156 649 47 37 650 46 36 651 47 37 652 156 156 653 157 157 654 158 158 655 159 159 656 160 160 657 159 159 658 158 158 659 47 37 660 48 38 661 158 158 662 160 160 663 158 158 664 48 38 665 119 120 666 121 122 667 160 160 668 159 159 669 160 160 670 121 122 671 160 160 672 48 38 673 119 120 674 117 118 675 119 120 676 48 38 677 162 161 678 161 162 679 159 159 680 157 157 681 159 159 682 161 162 683 121 122 684 163 163 685 159 159 686 162 161 687 159 159 688 163 163 689 163 163 690 165 164 691 162 161 692 164 165 693 162 161 694 165 164 695 163 163 696 124 125 697 165 164 698 166 166 699 165 164 700 124 125 701 163 163 702 121 122 703 124 125 704 122 121 705 124 125 706 121 122 707 168 167 708 167 168 709 166 166 710 165 164 711 166 166 712 167 168 713 166 166 714 170 169 715 168 167 716 169 170 717 168 167 718 170 169 719 124 125 720 125 124 721 166 166 722 170 169 723 166 166 724 125 124 725 170 169 726 172 171 727 169 170 728 171 172 729 169 170 730 172 171 731 125 124 732 126 126 733 170 169 734 172 171 735 170 169 736 126 126 737 172 171 738 131 132 739 171 172 740 173 173 741 171 172 742 131 132 743 126 126 744 128 129 745 172 171 746 131 132 747 172 171 748 128 129 749 175 174 750 174 175 751 173 173 752 171 172 753 173 173 754 174 175 755 177 176 756 176 177 757 173 173 758 175 174 759 173 173 760 176 177 761 173 173 762 131 132 763 177 176 764 132 131 765 177 176 766 131 132 767 177 176 768 179 178 769 176 177 770 178 179 771 176 177 772 179 178 773 132 131 774 133 134 775 177 176 776 179 178 777 177 176 778 133 134 779 179 178 780 181 180 781 178 179 782 180 181 783 178 179 784 181 180 785 133 134 786 135 136 787 179 178 788 181 180 789 179 178 790 135 136 791 181 180 792 183 182 793 180 181 794 182 183 795 180 181 796 183 182 797 135 136 798 137 138 799 181 180 800 183 182 801 181 180 802 137 138 803 183 182 804 185 184 805 182 183 806 184 185 807 182 183 808 185 184 809 137 138 810 186 186 811 183 182 812 185 184 813 183 182 814 186 186 815 186 186 816 137 138 817 140 141 818 138 137 819 140 141 820 137 138 821 186 186 822 188 187 823 185 184 824 187 188 825 185 184 826 188 187 827 140 141 828 146 147 829 186 186 830 188 187 831 186 186 832 146 147 833 188 187 834 190 189 835 187 188 836 189 190 837 187 188 838 190 189 839 146 147 840 147 146 841 188 187 842 190 189 843 188 187 844 147 146 845 190 189 846 192 191 847 189 190 848 191 192 849 189 190 850 192 191 851 190 189 852 147 146 853 192 191 854 148 149 855 192 191 856 147 146 857 192 191 858 194 193 859 191 192 860 193 194 861 191 192 862 194 193 863 192 191 864 148 149 865 194 193 866 150 151 867 194 193 868 148 149 869 194 193 870 196 195 871 193 194 872 195 196 873 193 194 874 196 195 875 194 193 876 150 151 877 196 195 878 152 153 879 196 195 880 150 151 881 196 195 882 198 197 883 195 196 884 197 198 885 195 196 886 198 197 887 196 195 888 152 153 889 198 197 890 154 155 891 198 197 892 152 153 893 198 197 894 200 199 895 197 198 896 199 200 897 197 198 898 200 199 899 198 197 900 154 155 901 200 199 902 161 162 903 200 199 904 154 155 905 199 200 906 200 199 907 201 201 908 164 165 909 201 201 910 200 199 911 200 199 912 161 162 913 164 165 914 162 161 915 164 165 916 161 162 917 201 201 918 203 202 919 199 200 920 202 203 921 199 200 922 203 202 923 201 201 924 167 168 925 203 202 926 204 204 927 203 202 928 167 168 929 164 165 930 165 164 931 201 201 932 167 168 933 201 201 934 165 164 935 206 205 936 205 206 937 204 204 938 203 202 939 204 204 940 205 206 941 204 204 942 208 207 943 206 205 944 207 208 945 206 205 946 208 207 947 167 168 948 168 167 949 204 204 950 208 207 951 204 204 952 168 167 953 208 207 954 210 209 955 207 208 956 209 210 957 207 208 958 210 209 959 168 167 960 169 170 961 208 207 962 210 209 963 208 207 964 169 170 965 210 209 966 174 175 967 209 210 968 211 211 969 209 210 970 174 175 971 169 170 972 171 172 973 210 209 974 174 175 975 210 209 976 171 172 977 213 212 978 212 213 979 211 211 980 209 210 981 211 211 982 212 213 983 211 211 984 215 214 985 213 212 986 214 215 987 213 212 988 215 214 989 174 175 990 175 174 991 211 211 992 215 214 993 211 211 994 175 174 995 215 214 996 217 216 997 214 215 998 216 217 999 214 215 1000 217 216 1001 215 214 1002 175 174 1003 217 216 1004 176 177 1005 217 216 1006 175 174 1007 217 216 1008 219 218 1009 216 217 1010 218 219 1011 216 217 1012 219 218 1013 217 216 1014 176 177 1015 219 218 1016 178 179 1017 219 218 1018 176 177 1019 219 218 1020 221 220 1021 218 219 1022 220 221 1023 218 219 1024 221 220 1025 219 218 1026 178 179 1027 221 220 1028 180 181 1029 221 220 1030 178 179 1031 221 220 1032 223 222 1033 220 221 1034 222 223 1035 220 221 1036 223 222 1037 180 181 1038 182 183 1039 221 220 1040 223 222 1041 221 220 1042 182 183 1043 223 222 1044 225 224 1045 222 223 1046 224 225 1047 222 223 1048 225 224 1049 182 183 1050 184 185 1051 223 222 1052 225 224 1053 223 222 1054 184 185 1055 225 224 1056 227 226 1057 224 225 1058 226 227 1059 224 225 1060 227 226 1061 184 185 1062 228 228 1063 225 224 1064 227 226 1065 225 224 1066 228 228 1067 228 228 1068 184 185 1069 187 188 1070 185 184 1071 187 188 1072 184 185 1073 228 228 1074 230 229 1075 227 226 1076 229 230 1077 227 226 1078 230 229 1079 187 188 1080 189 190 1081 228 228 1082 230 229 1083 228 228 1084 189 190 1085 230 229 1086 232 231 1087 229 230 1088 231 232 1089 229 230 1090 232 231 1091 189 190 1092 191 192 1093 230 229 1094 232 231 1095 230 229 1096 191 192 1097 232 231 1098 234 233 1099 231 232 1100 233 234 1101 231 232 1102 234 233 1103 191 192 1104 193 194 1105 232 231 1106 234 233 1107 232 231 1108 193 194 1109 234 233 1110 236 235 1111 233 234 1112 235 236 1113 233 234 1114 236 235 1115 193 194 1116 195 196 1117 234 233 1118 236 235 1119 234 233 1120 195 196 1121 236 235 1122 238 237 1123 235 236 1124 237 238 1125 235 236 1126 238 237 1127 195 196 1128 197 198 1129 236 235 1130 238 237 1131 236 235 1132 197 198 1133 238 237 1134 202 203 1135 237 238 1136 239 239 1137 237 238 1138 202 203 1139 238 237 1140 197 198 1141 202 203 1142 199 200 1143 202 203 1144 197 198 1145 239 239 1146 241 240 1147 237 238 1148 240 241 1149 237 238 1150 241 240 1151 239 239 1152 205 206 1153 241 240 1154 242 242 1155 241 240 1156 205 206 1157 202 203 1158 203 202 1159 239 239 1160 205 206 1161 239 239 1162 203 202 1163 242 242 1164 244 243 1165 241 240 1166 243 244 1167 241 240 1168 244 243 1169 246 245 1170 245 246 1171 242 242 1172 244 243 1173 242 242 1174 245 246 1175 205 206 1176 206 205 1177 242 242 1178 246 245 1179 242 242 1180 206 205 1181 248 247 1182 247 248 1183 246 245 1184 245 246 1185 246 245 1186 247 248 1187 206 205 1188 207 208 1189 246 245 1190 248 247 1191 246 245 1192 207 208 1193 248 247 1194 212 213 1195 247 248 1196 249 249 1197 247 248 1198 212 213 1199 207 208 1200 209 210 1201 248 247 1202 212 213 1203 248 247 1204 209 210 1205 249 249 1206 251 250 1207 247 248 1208 250 251 1209 247 248 1210 251 250 1211 249 249 1212 253 252 1213 251 250 1214 252 253 1215 251 250 1216 253 252 1217 249 249 1218 212 213 1219 253 252 1220 213 212 1221 253 252 1222 212 213 1223 253 252 1224 255 254 1225 252 253 1226 254 255 1227 252 253 1228 255 254 1229 213 212 1230 214 215 1231 253 252 1232 255 254 1233 253 252 1234 214 215 1235 255 254 1236 257 256 1237 254 255 1238 256 257 1239 254 255 1240 257 256 1241 214 215 1242 216 217 1243 255 254 1244 257 256 1245 255 254 1246 216 217 1247 257 256 1248 259 258 1249 256 257 1250 258 259 1251 256 257 1252 259 258 1253 216 217 1254 218 219 1255 257 256 1256 259 258 1257 257 256 1258 218 219 1259 259 258 1260 261 260 1261 258 259 1262 260 261 1263 258 259 1264 261 260 1265 218 219 1266 220 221 1267 259 258 1268 261 260 1269 259 258 1270 220 221 1271 261 260 1272 263 262 1273 260 261 1274 262 263 1275 260 261 1276 263 262 1277 220 221 1278 222 223 1279 261 260 1280 263 262 1281 261 260 1282 222 223 1283 263 262 1284 265 264 1285 262 263 1286 264 265 1287 262 263 1288 265 264 1289 222 223 1290 224 225 1291 263 262 1292 265 264 1293 263 262 1294 224 225 1295 265 264 1296 267 266 1297 264 265 1298 266 267 1299 264 265 1300 267 266 1301 224 225 1302 226 227 1303 265 264 1304 267 266 1305 265 264 1306 226 227 1307 267 266 1308 269 268 1309 266 267 1310 268 269 1311 266 267 1312 269 268 1313 226 227 1314 270 270 1315 267 266 1316 269 268 1317 267 266 1318 270 270 1319 270 270 1320 226 227 1321 229 230 1322 227 226 1323 229 230 1324 226 227 1325 270 270 1326 272 271 1327 269 268 1328 271 272 1329 269 268 1330 272 271 1331 270 270 1332 229 230 1333 272 271 1334 231 232 1335 272 271 1336 229 230 1337 272 271 1338 274 273 1339 271 272 1340 273 274 1341 271 272 1342 274 273 1343 231 232 1344 233 234 1345 272 271 1346 274 273 1347 272 271 1348 233 234 1349 274 273 1350 276 275 1351 273 274 1352 275 276 1353 273 274 1354 276 275 1355 233 234 1356 235 236 1357 274 273 1358 276 275 1359 274 273 1360 235 236 1361 276 275 1362 240 241 1363 275 276 1364 277 277 1365 275 276 1366 240 241 1367 276 275 1368 235 236 1369 240 241 1370 237 238 1371 240 241 1372 235 236 1373 277 277 1374 279 278 1375 275 276 1376 278 279 1377 275 276 1378 279 278 1379 277 277 1380 243 244 1381 279 278 1382 280 280 1383 279 278 1384 243 244 1385 277 277 1386 240 241 1387 243 244 1388 241 240 1389 243 244 1390 240 241 1391 280 280 1392 282 281 1393 279 278 1394 281 282 1395 279 278 1396 282 281 1397 284 283 1398 283 284 1399 280 280 1400 282 281 1401 280 280 1402 283 284 1403 280 280 1404 243 244 1405 284 283 1406 244 243 1407 284 283 1408 243 244 1409 286 285 1410 285 286 1411 284 283 1412 283 284 1413 284 283 1414 285 286 1415 284 283 1416 244 243 1417 286 285 1418 245 246 1419 286 285 1420 244 243 1421 250 251 1422 287 287 1423 286 285 1424 285 286 1425 286 285 1426 287 287 1427 286 285 1428 245 246 1429 250 251 1430 247 248 1431 250 251 1432 245 246 1433 287 287 1434 289 288 1435 285 286 1436 288 289 1437 285 286 1438 289 288 1439 291 290 1440 290 291 1441 287 287 1442 289 288 1443 287 287 1444 290 291 1445 287 287 1446 250 251 1447 291 290 1448 251 250 1449 291 290 1450 250 251 1451 293 292 1452 292 293 1453 291 290 1454 290 291 1455 291 290 1456 292 293 1457 291 290 1458 251 250 1459 293 292 1460 252 253 1461 293 292 1462 251 250 1463 293 292 1464 295 294 1465 292 293 1466 294 295 1467 292 293 1468 295 294 1469 252 253 1470 254 255 1471 293 292 1472 295 294 1473 293 292 1474 254 255 1475 295 294 1476 297 296 1477 294 295 1478 296 297 1479 294 295 1480 297 296 1481 254 255 1482 256 257 1483 295 294 1484 297 296 1485 295 294 1486 256 257 1487 297 296 1488 299 298 1489 296 297 1490 298 299 1491 296 297 1492 299 298 1493 297 296 1494 256 257 1495 299 298 1496 258 259 1497 299 298 1498 256 257 1499 299 298 1500 301 300 1501 298 299 1502 300 301 1503 298 299 1504 301 300 1505 258 259 1506 260 261 1507 299 298 1508 301 300 1509 299 298 1510 260 261 1511 301 300 1512 303 302 1513 300 301 1514 302 303 1515 300 301 1516 303 302 1517 260 261 1518 262 263 1519 301 300 1520 303 302 1521 301 300 1522 262 263 1523 303 302 1524 305 304 1525 302 303 1526 304 305 1527 302 303 1528 305 304 1529 262 263 1530 264 265 1531 303 302 1532 305 304 1533 303 302 1534 264 265 1535 305 304 1536 307 306 1537 304 305 1538 306 307 1539 304 305 1540 307 306 1541 264 265 1542 266 267 1543 305 304 1544 307 306 1545 305 304 1546 266 267 1547 307 306 1548 309 308 1549 306 307 1550 308 309 1551 306 307 1552 309 308 1553 266 267 1554 268 269 1555 307 306 1556 309 308 1557 307 306 1558 268 269 1559 309 308 1560 311 310 1561 308 309 1562 310 311 1563 308 309 1564 311 310 1565 268 269 1566 312 312 1567 309 308 1568 311 310 1569 309 308 1570 312 312 1571 312 312 1572 268 269 1573 271 272 1574 269 268 1575 271 272 1576 268 269 1577 312 312 1578 314 313 1579 311 310 1580 313 314 1581 311 310 1582 314 313 1583 312 312 1584 271 272 1585 314 313 1586 273 274 1587 314 313 1588 271 272 1589 314 313 1590 278 279 1591 313 314 1592 315 315 1593 313 314 1594 278 279 1595 314 313 1596 273 274 1597 278 279 1598 275 276 1599 278 279 1600 273 274 1601 317 316 1602 316 317 1603 315 315 1604 313 314 1605 315 315 1606 316 317 1607 281 282 1608 318 318 1609 315 315 1610 317 316 1611 315 315 1612 318 318 1613 315 315 1614 278 279 1615 281 282 1616 279 278 1617 281 282 1618 278 279 1619 318 318 1620 320 319 1621 317 316 1622 319 320 1623 317 316 1624 320 319 1625 322 321 1626 321 322 1627 318 318 1628 320 319 1629 318 318 1630 321 322 1631 318 318 1632 281 282 1633 322 321 1634 282 281 1635 322 321 1636 281 282 1637 322 321 1638 323 323 1639 321 322 1640 81 76 1641 321 322 1642 323 323 1643 322 321 1644 282 281 1645 323 323 1646 283 284 1647 323 323 1648 282 281 1649 323 323 1650 288 289 1651 81 76 1652 80 75 1653 81 76 1654 288 289 1655 323 323 1656 283 284 1657 288 289 1658 285 286 1659 288 289 1660 283 284 1661 77 73 1662 84 81 1663 321 322 1664 320 319 1665 321 322 1666 84 81 1667 77 73 1668 321 322 1669 12 71 1670 81 76 1671 12 71 1672 321 322 1673 84 81 1674 85 82 1675 320 319 1676 319 320 1677 320 319 1678 85 82 1679 319 320 1680 324 324 1681 317 316 1682 316 317 1683 317 316 1684 324 324 1685 319 320 1686 85 82 1687 324 324 1688 325 325 1689 324 324 1690 85 82 1691 325 325 1692 327 326 1693 324 324 1694 326 327 1695 324 324 1696 327 326 1697 325 325 1698 32 20 1699 327 326 1700 33 19 1701 327 326 1702 32 20 1703 325 325 1704 85 82 1705 32 20 1706 76 70 1707 32 20 1708 85 82 1709 327 326 1710 35 23 1711 326 327 1712 36 24 1713 326 327 1714 35 23 1715 328 328 1716 35 23 1717 33 19 1718 327 326 1719 33 19 1720 35 23 1721 329 329 1722 39 26 1723 330 330 1724 328 328 1725 330 330 1726 39 26 1727 330 330 1728 328 328 1729 34 18 1730 33 19 1731 34 18 1732 328 328 1733 3 21 1734 35 23 1735 39 26 1736 328 328 1737 39 26 1738 35 23 1739 329 329 1740 330 330 1741 331 331 1742 332 332 1743 331 331 1744 330 330 1745 332 332 1746 330 330 1747 29 13 1748 34 18 1749 29 13 1750 330 330 1751 331 331 1752 332 332 1753 333 333 1754 334 334 1755 333 333 1756 332 332 1757 334 334 1758 332 332 1759 27 11 1760 29 13 1761 27 11 1762 332 332 1763 333 333 1764 334 334 1765 335 335 1766 336 336 1767 335 335 1768 334 334 1769 336 336 1770 334 334 1771 28 12 1772 27 11 1773 28 12 1774 334 334 1775 335 335 1776 336 336 1777 337 337 1778 338 338 1779 337 337 1780 336 336 1781 338 338 1782 336 336 1783 73 67 1784 28 12 1785 73 67 1786 336 336 1787 337 337 1788 338 338 1789 339 339 1790 340 340 1791 339 339 1792 338 338 1793 340 340 1794 338 338 1795 71 65 1796 73 67 1797 71 65 1798 338 338 1799 339 339 1800 340 340 1801 341 341 1802 342 342 1803 341 341 1804 340 340 1805 342 342 1806 340 340 1807 72 66 1808 71 65 1809 72 66 1810 340 340 1811 341 341 1812 342 342 1813 343 343 1814 344 344 1815 343 343 1816 342 342 1817 344 344 1818 342 342 1819 83 80 1820 72 66 1821 83 80 1822 342 342 1823 343 343 1824 344 344 1825 79 72 1826 78 74 1827 79 72 1828 344 344 1829 83 80 1830 14 79 1831 344 344 1832 78 74 1833 344 344 1834 14 79 1835 343 343 1836 79 72 1837 345 345 1838 80 75 1839 345 345 1840 79 72 1841 343 343 1842 345 345 1843 341 341 1844 346 346 1845 341 341 1846 345 345 1847 346 346 1848 345 345 1849 290 291 1850 289 288 1851 290 291 1852 345 345 1853 346 346 1854 347 347 1855 341 341 1856 339 339 1857 341 341 1858 347 347 1859 290 291 1860 292 293 1861 346 346 1862 347 347 1863 346 346 1864 292 293 1865 347 347 1866 348 348 1867 339 339 1868 337 337 1869 339 339 1870 348 348 1871 292 293 1872 294 295 1873 347 347 1874 348 348 1875 347 347 1876 294 295 1877 348 348 1878 349 349 1879 337 337 1880 335 335 1881 337 337 1882 349 349 1883 294 295 1884 296 297 1885 348 348 1886 349 349 1887 348 348 1888 296 297 1889 335 335 1890 349 349 1891 333 333 1892 350 350 1893 333 333 1894 349 349 1895 296 297 1896 298 299 1897 349 349 1898 350 350 1899 349 349 1900 298 299 1901 333 333 1902 350 350 1903 331 331 1904 351 351 1905 331 331 1906 350 350 1907 298 299 1908 300 301 1909 350 350 1910 351 351 1911 350 350 1912 300 301 1913 351 351 1914 352 352 1915 331 331 1916 329 329 1917 331 331 1918 352 352 1919 300 301 1920 302 303 1921 351 351 1922 352 352 1923 351 351 1924 302 303 1925 38 25 1926 39 26 1927 352 352 1928 329 329 1929 352 352 1930 39 26 1931 352 352 1932 302 303 1933 38 25 1934 304 305 1935 38 25 1936 302 303 1937 345 345 1938 80 75 1939 289 288 1940 288 289 1941 289 288 1942 80 75 1943 326 327 1944 36 24 1945 310 311 1946 308 309 1947 310 311 1948 36 24 1949 310 311 1950 316 317 1951 326 327 1952 324 324 1953 326 327 1954 316 317 1955 316 317 1956 310 311 1957 313 314 1958 311 310 1959 313 314 1960 310 311 1961 36 24 1962 37 22 1963 308 309 1964 306 307 1965 308 309 1966 37 22 1967 306 307 1968 37 22 1969 304 305 1970 38 25 1971 304 305 1972 37 22 1973 161 162 1974 154 155 1975 157 157 1976 155 154 1977 157 157 1978 154 155 1979 146 147 1980 140 141 1981 143 144 1982 141 140 1983 143 144 1984 140 141 1985 48 38 1986 49 39 1987 117 118 1988 116 116 1989 117 118 1990 49 39 1991 49 39 1992 353 353 1993 116 116 1994 115 115 1995 116 116 1996 353 353 1997 93 93 1998 353 353 1999 92 92 2000 45 34 2001 92 92 2002 353 353 2003 45 34 2004 353 353 2005 5 35 2006 49 39 2007 5 35 2008 353 353 2009 353 353 2010 93 93 2011 115 115 2012 354 354 2013 115 115 2014 93 93 2015 93 93 2016 94 94 2017 354 354 2018 97 97 2019 354 354 2020 94 94 2021 115 115 2022 354 354 2023 112 112 2024 110 111 2025 112 112 2026 354 354 2027 97 97 2028 108 109 2029 354 354 2030 110 111 2031 354 354 2032 108 109 2033 108 109 2034 97 97 2035 101 101 2036 98 98 2037 101 101 2038 97 97 2039 18 2 2040 105 105 2041 22 5 2042 100 100 2043 22 5 2044 105 105 2045 88 87 2046 21 4 2047 96 96 2048 22 5 2049 96 96 2050 21 4 2051 90 88 2052 92 92 2053 46 36 2054 45 34 2055 46 36 2056 92 92 2057 82 78 2058 83 80 2059 68 61 2060 72 66 2061 68 61 2062 83 80 2063 74 69 2064 82 78 2065 69 63 2066 68 61 2067 69 63 2068 82 78 2069 25 9 2070 31 16 2071 69 63 2072 74 69 2073 69 63 2074 31 16 2075 70 64 2076 73 67 2077 24 7 2078 28 12 2079 24 7 2080 73 67 2081 69 63 2082 70 64 2083 25 9 2084 24 7 2085 25 9 2086 70 64 2087 55 46 2088 67 60 2089 6 40 2090 62 52 2091 6 40 2092 67 60 2093 62 52 2094 8 51 2095 6 40 2096 54 44 2097 6 40 2098 8 51 2099 50 42 2100 42 33 2101 56 47 2102 43 32 2103 56 47 2104 42 33 2105 29 13 2106 34 18 2107 26 10 2108 30 14 2109 26 10 2110 34 18 2111 30 14 2112 31 16 2113 26 10 2114 25 9 2115 26 10 2116 31 16 2117</p>
        </triangles>
      </mesh>
    </geometry>
  </library_geometries>
  <library_controllers>
    <controller id="Armature_Mouse001RLegDigit31_ncl1_1-skin" name="Armature">
      <skin source="#Mouse001RLegDigit31_ncl1_1Mesh-mesh">
        <bind_shape_matrix>0.03379888 -5.74999e-5 0.999429 6.859186 0.9991328 0.0244455 -0.0337875 -7.536469 -0.02442988 0.9997007 8.83478e-4 0.4759146 0 0 0 1</bind_shape_matrix>
        <source id="Armature_Mouse001RLegDigit31_ncl1_1-skin-joints">
          <Name_array id="Armature_Mouse001RLegDigit31_ncl1_1-skin-joints-array" count="1">RMetatarsus3</Name_array>
          <technique_common>
            <accessor source="#Armature_Mouse001RLegDigit31_ncl1_1-skin-joints-array" count="1" stride="1">
              <param name="JOINT" type="name"/>
            </accessor>
          </technique_common>
        </source>
        <source id="Armature_Mouse001RLegDigit31_ncl1_1-skin-bind_poses">
          <float_array id="Armature_Mouse001RLegDigit31_ncl1_1-skin-bind_poses-array" count="16">0.9994282 -0.03379917 4.13049e-4 -7.110183 0.03379917 0.9991298 -0.0244292 7.309706 4.12872e-4 0.02443003 0.9997009 -0.294491 0 0 0 1</float_array>
          <technique_common>
            <accessor source="#Armature_Mouse001RLegDigit31_ncl1_1-skin-bind_poses-array" count="1" stride="16">
              <param name="TRANSFORM" type="float4x4"/>
            </accessor>
          </technique_common>
        </source>
        <source id="Armature_Mouse001RLegDigit31_ncl1_1-skin-weights">
          <float_array id="Armature_Mouse001RLegDigit31_ncl1_1-skin-weights-array" count="355">1 1 1 1 1 1 1 1 1 1 1 1 1 1 1 1 1 1 1 1 1 1 1 1 1 1 1 1 1 1 1 1 1 1 1 1 1 1 1 1 1 1 1 1 1 1 1 1 1 1 1 1 1 1 1 1 1 1 1 1 1 1 1 1 1 1 1 1 1 1 1 1 1 1 1 1 1 1 1 1 1 1 1 1 1 1 1 1 1 1 1 1 1 1 1 1 1 1 1 1 1 1 1 1 1 1 1 1 1 1 1 1 1 1 1 1 1 1 1 1 1 1 1 1 1 1 1 1 1 1 1 1 1 1 1 1 1 1 1 1 1 1 1 1 1 1 1 1 1 1 1 1 1 1 1 1 1 1 1 1 1 1 1 1 1 1 1 1 1 1 1 1 1 1 1 1 1 1 1 1 1 1 1 1 1 1 1 1 1 1 1 1 1 1 1 1 1 1 1 1 1 1 1 1 1 1 1 1 1 1 1 1 1 1 1 1 1 1 1 1 1 1 1 1 1 1 1 1 1 1 1 1 1 1 1 1 1 1 1 1 1 1 1 1 1 1 1 1 1 1 1 1 1 1 1 1 1 1 1 1 1 1 1 1 1 1 1 1 1 1 1 1 1 1 1 1 1 1 1 1 1 1 1 1 1 1 1 1 1 1 1 1 1 1 1 1 1 1 1 1 1 1 1 1 1 1 1 1 1 1 1 1 1 1 1 1 1 1 1 1 1 1 1 1 1 1 1 1 1 1 1 1 1 1 1 1 1 1 1 1 1 1 1 1 1 1 1 1 1 1 1 1 1 1 1</float_array>
          <technique_common>
            <accessor source="#Armature_Mouse001RLegDigit31_ncl1_1-skin-weights-array" count="355" stride="1">
              <param name="WEIGHT" type="float"/>
            </accessor>
          </technique_common>
        </source>
        <joints>
          <input semantic="JOINT" source="#Armature_Mouse001RLegDigit31_ncl1_1-skin-joints"/>
          <input semantic="INV_BIND_MATRIX" source="#Armature_Mouse001RLegDigit31_ncl1_1-skin-bind_poses"/>
        </joints>
        <vertex_weights count="355">
          <input semantic="JOINT" source="#Armature_Mouse001RLegDigit31_ncl1_1-skin-joints" offset="0"/>
          <input semantic="WEIGHT" source="#Armature_Mouse001RLegDigit31_ncl1_1-skin-weights" offset="1"/>
          <vcount>1 1 1 1 1 1 1 1 1 1 1 1 1 1 1 1 1 1 1 1 1 1 1 1 1 1 1 1 1 1 1 1 1 1 1 1 1 1 1 1 1 1 1 1 1 1 1 1 1 1 1 1 1 1 1 1 1 1 1 1 1 1 1 1 1 1 1 1 1 1 1 1 1 1 1 1 1 1 1 1 1 1 1 1 1 1 1 1 1 1 1 1 1 1 1 1 1 1 1 1 1 1 1 1 1 1 1 1 1 1 1 1 1 1 1 1 1 1 1 1 1 1 1 1 1 1 1 1 1 1 1 1 1 1 1 1 1 1 1 1 1 1 1 1 1 1 1 1 1 1 1 1 1 1 1 1 1 1 1 1 1 1 1 1 1 1 1 1 1 1 1 1 1 1 1 1 1 1 1 1 1 1 1 1 1 1 1 1 1 1 1 1 1 1 1 1 1 1 1 1 1 1 1 1 1 1 1 1 1 1 1 1 1 1 1 1 1 1 1 1 1 1 1 1 1 1 1 1 1 1 1 1 1 1 1 1 1 1 1 1 1 1 1 1 1 1 1 1 1 1 1 1 1 1 1 1 1 1 1 1 1 1 1 1 1 1 1 1 1 1 1 1 1 1 1 1 1 1 1 1 1 1 1 1 1 1 1 1 1 1 1 1 1 1 1 1 1 1 1 1 1 1 1 1 1 1 1 1 1 1 1 1 1 1 1 1 1 1 1 1 1 1 1 1 1 1 1 1 1 1 1 1 1 1 1 1 1 1 1 1 1 1 1 1 1 1 1 1 1 1 1 1 1 1 1 </vcount>
          <v>0 0 0 1 0 2 0 3 0 4 0 5 0 6 0 7 0 8 0 9 0 10 0 11 0 12 0 13 0 14 0 15 0 16 0 17 0 18 0 19 0 20 0 21 0 22 0 23 0 24 0 25 0 26 0 27 0 28 0 29 0 30 0 31 0 32 0 33 0 34 0 35 0 36 0 37 0 38 0 39 0 40 0 41 0 42 0 43 0 44 0 45 0 46 0 47 0 48 0 49 0 50 0 51 0 52 0 53 0 54 0 55 0 56 0 57 0 58 0 59 0 60 0 61 0 62 0 63 0 64 0 65 0 66 0 67 0 68 0 69 0 70 0 71 0 72 0 73 0 74 0 75 0 76 0 77 0 78 0 79 0 80 0 81 0 82 0 83 0 84 0 85 0 86 0 87 0 88 0 89 0 90 0 91 0 92 0 93 0 94 0 95 0 96 0 97 0 98 0 99 0 100 0 101 0 102 0 103 0 104 0 105 0 106 0 107 0 108 0 109 0 110 0 111 0 112 0 113 0 114 0 115 0 116 0 117 0 118 0 119 0 120 0 121 0 122 0 123 0 124 0 125 0 126 0 127 0 128 0 129 0 130 0 131 0 132 0 133 0 134 0 135 0 136 0 137 0 138 0 139 0 140 0 141 0 142 0 143 0 144 0 145 0 146 0 147 0 148 0 149 0 150 0 151 0 152 0 153 0 154 0 155 0 156 0 157 0 158 0 159 0 160 0 161 0 162 0 163 0 164 0 165 0 166 0 167 0 168 0 169 0 170 0 171 0 172 0 173 0 174 0 175 0 176 0 177 0 178 0 179 0 180 0 181 0 182 0 183 0 184 0 185 0 186 0 187 0 188 0 189 0 190 0 191 0 192 0 193 0 194 0 195 0 196 0 197 0 198 0 199 0 200 0 201 0 202 0 203 0 204 0 205 0 206 0 207 0 208 0 209 0 210 0 211 0 212 0 213 0 214 0 215 0 216 0 217 0 218 0 219 0 220 0 221 0 222 0 223 0 224 0 225 0 226 0 227 0 228 0 229 0 230 0 231 0 232 0 233 0 234 0 235 0 236 0 237 0 238 0 239 0 240 0 241 0 242 0 243 0 244 0 245 0 246 0 247 0 248 0 249 0 250 0 251 0 252 0 253 0 254 0 255 0 256 0 257 0 258 0 259 0 260 0 261 0 262 0 263 0 264 0 265 0 266 0 267 0 268 0 269 0 270 0 271 0 272 0 273 0 274 0 275 0 276 0 277 0 278 0 279 0 280 0 281 0 282 0 283 0 284 0 285 0 286 0 287 0 288 0 289 0 290 0 291 0 292 0 293 0 294 0 295 0 296 0 297 0 298 0 299 0 300 0 301 0 302 0 303 0 304 0 305 0 306 0 307 0 308 0 309 0 310 0 311 0 312 0 313 0 314 0 315 0 316 0 317 0 318 0 319 0 320 0 321 0 322 0 323 0 324 0 325 0 326 0 327 0 328 0 329 0 330 0 331 0 332 0 333 0 334 0 335 0 336 0 337 0 338 0 339 0 340 0 341 0 342 0 343 0 344 0 345 0 346 0 347 0 348 0 349 0 350 0 351 0 352 0 353 0 354</v>
        </vertex_weights>
      </skin>
    </controller>
  </library_controllers>
  <library_visual_scenes>
    <visual_scene id="Scene" name="Scene">
      <node id="Mouse001RLegDigit31_ncl1_1" name="Mouse001RLegDigit31_ncl1_1" type="NODE">
        <matrix sid="transform">0.03379888 -5.74999e-5 0.999429 6.859189 0.9991328 0.0244455 -0.0337875 5.046017 -0.02442988 0.9997007 8.83478e-4 -4.795671 0 0 0 1</matrix>
        <instance_geometry url="#Mouse001RLegDigit31_ncl1_1Mesh-mesh" name="Mouse001RLegDigit31_ncl1_1"/>
      </node>
    </visual_scene>
  </library_visual_scenes>
  <scene>
    <instance_visual_scene url="#Scene"/>
  </scene>
</COLLADA>