<?xml version="1.0" encoding="utf-8"?>
<COLLADA xmlns="http://www.collada.org/2005/11/COLLADASchema" version="1.4.1" xmlns:xsi="http://www.w3.org/2001/XMLSchema-instance">
  <asset>
    <contributor>
      <author>Blender User</author>
      <authoring_tool>Blender 2.79.0 commit date:2018-03-22, commit time:14:10, hash:f4dc9f9d68b</authoring_tool>
    </contributor>
    <created>2018-10-31T09:52:49</created>
    <modified>2018-10-31T09:52:49</modified>
    <unit name="meter" meter="1"/>
    <up_axis>Z_UP</up_axis>
  </asset>
  <library_images/>
  <library_geometries>
    <geometry id="Mouse001Tail20Mesh-mesh" name="Mouse001Tail20Mesh">
      <mesh>
        <source id="Mouse001Tail20Mesh-mesh-positions">
          <float_array id="Mouse001Tail20Mesh-mesh-positions-array" count="771">1.725297 -0.05470597 0.04766595 1.715907 -0.03718096 0.07569795 1.725773 0.05944198 0.07322597 -0.001327991 -0.09369295 0.104052 -0.009045958 0.08436995 0.108512 1.658629 -0.08151596 0.130308 0.08651798 -0.136196 0.05025196 0.0496 -0.126022 0.03369998 0.06061094 -0.06685596 0.158424 0.05590599 0.01109397 0.150003 -0.01576399 0.02827399 0.04772299 -0.001700997 0.108585 0.06563597 1.716877 -0.107944 0.03950995 1.708145 -0.108104 -5.28e-4 1.730378 -0.004648983 0.04641497 1.725631 -0.003950953 0.07948797 1.711129 -9.07e-4 0.104227 1.709458 -0.04007297 0.09893995 1.730354 0.03476095 0.08012795 1.729253 0.04402595 0.04918396 1.721266 0.06581598 0.04269498 1.705538 0.08230698 0.04280495 1.711864 0.071015 0.08204299 1.715667 0.04000896 0.101801 0.02291595 -0.130089 0.09163999 0.03117799 -0.120319 0.133473 0.001452982 -0.07220798 0.129801 0.01012498 0.08601397 0.131355 0.01327794 0.11274 0.109757 -0.007180988 0.098827 0.08664995 1.673838 -0.05407297 0.1290799 1.627858 -0.04522699 0.126229 1.619294 -0.08296597 0.127986 1.621418 -0.115784 0.117431 1.671608 -0.107212 0.122085 0.06142896 -0.1397359 0.07403099 0.1256279 -0.130675 0.074741 0.07995498 -0.135044 0.121967 0.02208399 -0.111153 0.03591096 0.09231299 -0.07532799 0.158496 0.09074598 -0.02647298 0.156026 0.04988598 -0.02883899 0.145676 0.04510599 -0.09337997 0.154051 0.08542895 -0.119972 0.149253 0.02036798 -0.05292099 0.142296 0.09123599 0.01501095 0.155438 0.080132 0.06221795 0.162391 0.04669195 0.05042296 0.158478 -0.015266 0.004958987 0.04732298 0.001672983 0.008552968 0.09218198 -0.01364499 0.04366695 0.09232497 -0.01592999 0.05834996 0.05127197 0.01411497 0.122872 0.07424896 0.01017999 0.106991 0.03907996 -0.009163975 0.08684498 0.03896999 1.726837 0.03683197 1.5e-4 0.04138594 0.122395 0.045156 0.09324699 0.122132 0.05197495 0.286255 0.07972496 0.05003196 0.889597 0.05419397 0.03055095 1.423576 0.06521499 0.04152297 1.426258 0.071002 3.1e-4 1.637707 0.09651595 0.05470597 1.63662 0.08983695 3.98e-4 1.682001 0.09249597 0.04659199 1.683802 0.08222997 0.08668798 1.642706 0.088234 0.08821099 1.634966 0.06319099 0.110979 1.688318 0.05453896 0.109781 1.633035 0.030182 0.117272 1.42073 0.042014 0.07894599 1.421024 0.02492398 0.08930397 1.421884 -0.002175986 0.09581696 1.421512 -0.03343296 0.09535396 1.419923 -0.05807596 0.08693397 0.889537 -0.06741797 0.02898097 0.277505 -0.09178 0.05055999 0.269691 -0.097525 -4.76e-4 0.280973 -0.08264696 0.07450997 0.08252197 0.088521 0.1602849 0.08866 0.109677 0.144124 0.04432195 0.114148 0.128403 0.04236298 0.08731895 0.151628 0.01145994 0.04492998 0.134745 0.02496099 0.01078397 0.126025 0.09608197 0.124848 0.10194 0.04600399 0.12909 0.09146499 0.289263 0.06297898 0.09292697 0.288657 0.07400298 0.07552599 0.889414 0.027987 0.06473195 0.889431 0.04354 0.04984295 1.421415 0.05413699 0.06510996 0.889863 -0.02634197 0.07160496 0.889854 -0.04358798 0.06257796 0.889701 -0.05725598 0.04833996 0.281507 -0.06671297 0.09094196 0.281349 -0.04265397 0.104215 0.284021 0.002336978 0.112919 0.286846 0.02883398 0.1124719 0.28842 0.04809397 0.105239 0.889501 0.003267943 0.076559 0.889379 0.01537996 0.07287299 0.889715 -0.01002597 0.07580995 1.420188 -0.09286999 0.03597396 1.419518 -0.083162 0.06284695 1.419068 -0.07340395 0.07634299 1.635965 -0.004988968 0.121607 1.67756 -0.02012997 0.114938 1.680528 0.01605695 0.1194339 1.702404 -0.07541996 0.118189 1.632956 -0.141346 0.09041595 1.635531 -0.146732 0.05001997 1.684492 -0.137775 0.04244899 1.686033 -0.128093 0.09018599 1.717259 -0.102153 0.08222299 0.01101696 -0.02601999 0.101954 0.03075599 -0.01692599 0.121592 -0.006927967 -0.04114496 0.06558996 -0.001682996 -0.08038699 0.05300694 1.724295 -0.06816399 0.07594895 0.02821999 -0.08870697 -4.34e-4 -0.01724797 0.009028971 2.3e-5 0.086995 0.114644 5.17e-4 0.889845 0.06007999 2.6e-4 1.676588 0.08505696 3.76e-4 1.634285 -0.142135 -6.88e-4 0.004498958 -0.07095295 -3.51e-4 -0.01773297 -0.03144896 -1.66e-4 1.726745 -0.04953998 -2.54e-4 1.725297 -0.05425494 -0.04822099 1.716877 -0.10757 -0.040564 1.725631 -0.003202974 -0.07956695 1.715907 -0.03647094 -0.07608699 1.730378 -0.004213988 -0.04650199 1.71113 7e-5 -0.104276 1.709458 -0.03914195 -0.09935599 1.729253 0.04448395 -0.04881495 1.721266 0.06621295 -0.04212194 1.725773 0.06012797 -0.07271099 1.730356 0.03550797 -0.07984495 1.705538 0.082704 -0.042077 1.711864 0.07177799 -0.08142 1.715667 0.04096299 -0.101467 0.03117895 -0.119068 -0.134631 0.001452982 -0.07098799 -0.13051 -0.001327991 -0.09271597 -0.104963 0.02291595 -0.129227 -0.09289199 0.01327794 0.113758 -0.108735 -0.007179975 0.09963595 -0.08575898 -0.009045958 0.08538395 -0.107756 0.01012498 0.087242 -0.130583 1.627858 -0.04404395 -0.126691 1.619292 -0.08175599 -0.128802 1.658629 -0.08029496 -0.13111 1.673839 -0.05285996 -0.129625 1.621419 -0.114677 -0.118554 1.671609 -0.106067 -0.1231279 0.0496 -0.125702 -0.03491699 0.06897497 -0.113632 -5.51e-4 0.08651798 -0.1357229 -0.05156296 0.06142896 -0.139034 -0.075374 0.1256279 -0.129974 -0.07599997 0.07995498 -0.133899 -0.123264 0.1114439 -0.122241 -5.91e-4 0.02208399 -0.110809 -0.03698796 0.09074598 -0.02500796 -0.156305 0.049887 -0.02747297 -0.145978 0.06061094 -0.06536799 -0.159081 0.09231299 -0.07383996 -0.159232 0.08542895 -0.118568 -0.150408 0.04510599 -0.09192997 -0.1549569 0.02036798 -0.05158597 -0.1428239 0.080132 0.06373697 -0.16184 0.04669195 0.05190294 -0.158038 0.05590599 0.01249694 -0.149931 0.09123599 0.016469 -0.155329 0.001672983 0.00941497 -0.09213596 -0.01364499 0.04452896 -0.09194999 -0.01576197 0.02871698 -0.04749399 -0.015266 0.005401968 -0.04731297 -0.01651698 0.03393495 1.4e-4 -0.01592797 0.05882996 -0.05076199 0.01017999 0.10735 -0.03811496 -0.009163975 0.08720397 -0.03819298 -0.001700997 0.109196 -0.064655 0.01411497 0.123558 -0.073134 1.717829 0.05788099 2.48e-4 1.696592 0.07480698 3.28e-4 -0.007809996 0.06465899 2.84e-4 0.04138696 0.122815 -0.04404699 0.02806395 0.107975 4.86e-4 0.004860997 0.08906197 3.98e-4 0.09324699 0.122613 -0.05086797 0.286255 0.08019095 -0.04932296 0.282366 0.07729196 3.42e-4 0.889597 0.05447697 -0.03008395 1.423576 0.06560397 -0.04095399 1.637707 0.097027 -0.05384498 1.682001 0.09293097 -0.04576897 1.683802 0.08303898 -0.08595895 1.642706 0.08905798 -0.087426 1.688318 0.05556195 -0.10931 1.634966 0.06422799 -0.110427 1.633035 0.03128099 -0.117029 1.42073 0.04275399 -0.07859295 1.421024 0.025756 -0.08910995 1.421884 -0.001274943 -0.09587699 1.421512 -0.03254097 -0.09570598 1.419923 -0.05725997 -0.08751797 0.889537 -0.06714397 -0.02965199 0.889346 -0.07278597 -3.62e-4 0.277505 -0.09129899 -0.05145597 0.280973 -0.081945 -0.07532 0.08252197 0.090016 -0.159488 0.08866 0.11102 -0.14313 0.04432195 0.115345 -0.127368 0.04236298 0.08873796 -0.150842 0.01145994 0.04618799 -0.134356 0.02496194 0.011967 -0.125957 0.09608197 0.1257939 -0.100805 0.04600197 0.129948 -0.09029096 0.289263 0.06384897 -0.092372 0.288657 0.074705 -0.07486897 0.889414 0.02858996 -0.06450897 0.889431 0.04400497 -0.04947495 1.421415 0.05474698 -0.06464397 0.889863 -0.02566999 -0.07188999 0.889854 -0.04299998 -0.06302499 0.889701 -0.05679798 -0.04891598 0.281507 -0.06585896 -0.09160196 0.281349 -0.04167699 -0.104649 0.284021 0.003396987 -0.112931 0.286846 0.02988594 -0.112236 0.28842 0.04907798 -0.104824 0.889501 0.003984987 -0.07656699 0.889379 0.01605898 -0.07276797 0.889715 -0.00931698 -0.07594197 1.420188 -0.09252697 -0.03688496 1.419518 -0.08256697 -0.06366598 1.419068 -0.07268595 -0.07706999 1.635965 -0.00385195 -0.121693 1.67756 -0.01905399 -0.115166 1.680528 0.01717096 -0.119323 1.702407 -0.07431298 -0.118935 1.632956 -0.140491 -0.09178 1.684492 -0.13737 -0.04378098 1.686033 -0.127246 -0.09142595 1.635531 -0.146259 -0.05143594 1.419926 -0.100011 -4.9e-4 1.681954 -0.126384 -6.14e-4 1.717259 -0.101375 -0.08322095 0.03075599 -0.01578897 -0.121784 0.01101696 -0.02506595 -0.102232 -0.006927967 -0.04052394 -0.06601095 -0.001682996 -0.07988399 -0.05379599 1.724295 -0.067447 -0.07662898 1.727945 -0.002401947 -3.4e-5</float_array>
          <technique_common>
            <accessor source="#Mouse001Tail20Mesh-mesh-positions-array" count="257" stride="3">
              <param name="X" type="float"/>
              <param name="Y" type="float"/>
              <param name="Z" type="float"/>
            </accessor>
          </technique_common>
        </source>
        <source id="Mouse001Tail20Mesh-mesh-normals">
          <float_array id="Mouse001Tail20Mesh-mesh-normals-array" count="771">0.8652822 -0.4991426 -0.04629772 0.990655 -0.1363905 -6.10385e-4 0.9938151 -0.06555444 0.08963376 0.8095545 -0.5870385 -0.002746701 0.9661639 -0.03347909 0.2557474 0.9953826 -0.07413101 0.06097728 0.9340668 -0.1774989 0.3098602 0.7876003 0.05725336 0.6135208 0.6405314 -0.09674501 0.7618137 0.9495881 0.07489275 0.3044236 0.9818971 0.1803995 -0.05774247 0.8595437 0.4605047 0.2216306 0.8402637 0.5347937 -0.08917802 0.544575 0.8370353 -0.05301088 0.566466 0.7021542 0.4313882 0.6418479 0.2101852 0.7374643 -0.4263205 -0.6815817 0.5947245 -0.8391259 -0.009613513 0.5438524 -0.9189078 -0.3633636 0.1535429 -0.5641824 -0.8252456 0.02584993 -0.5248997 0.7403042 0.4200357 -0.8856362 0.4511956 0.109869 -0.8977153 0.2370713 0.3713548 -0.6303269 0.3131949 0.71035 0.2457683 0.1818008 0.9521273 -0.05075341 0.1219853 0.9912335 0.06839376 -0.128059 0.9894055 -0.135046 -0.1422789 0.9805709 -0.1443241 -0.5669504 0.8110104 0.275684 -0.4999424 0.8210092 -0.2999451 -0.9539462 -0.004425287 0.04300093 -0.9809346 -0.1895216 -0.3321121 -0.8752048 -0.351736 -0.1311082 -0.9886834 -0.07290911 0.2317639 -0.9694777 0.07999122 0.07657361 -0.9300844 0.3592765 0.04553449 -0.9989521 -0.00463885 -0.653348 -0.6698282 -0.3527982 -0.6499977 -0.7599278 -0.003570735 0.03289932 0.04269582 0.9985463 -0.4425979 0.2031092 0.8734151 -0.1705697 0.05111902 0.9840188 0.1726177 -0.1124945 0.9785439 -0.2973819 -0.2839533 0.9115561 0.05810886 -0.6558306 0.7526684 -0.5741244 0.2780286 0.7701177 -0.3332687 -0.09824103 0.9376997 -0.3885705 -0.1550375 0.9082821 0.03137344 -0.005188167 0.9994943 0.0526455 -0.06088566 0.9967554 -0.9430234 -0.1659653 0.2883791 -0.9918194 -0.06061148 0.1123419 -0.8617112 -0.2073478 0.4630992 -0.9787111 -0.04123103 0.2010586 -0.9999095 0.01345866 3.05185e-5 -0.9938479 0.1107531 4.88302e-4 -0.9922965 0.1238768 -0.001586973 -0.448393 0.8933984 -0.0279864 -0.5570315 0.7840008 -0.2739685 -0.7791791 0.616208 -0.1147512 -0.8955829 0.4206142 -0.1449657 0.8254587 0.5644566 0.00262463 0.5238277 0.8518151 0.003967463 0.9802243 0.1978882 9.15584e-4 -0.9476025 0.3194485 0.001464903 -0.1573249 0.9652518 -0.2086577 -0.3926261 0.9196881 0.004303157 -0.7710099 0.6368164 0.002960324 0.06723326 0.9977263 0.004669368 0.1253437 0.9854758 -0.1145703 0.1236615 0.9923137 0.004638791 0.1433192 0.9875171 0.06534206 0.01138353 0.9999246 0.00463885 0.01437431 0.9411694 0.3376295 -0.07751762 0.9599065 0.2693891 -0.05636858 0.998399 0.004699885 -0.02069193 0.9997749 0.004699885 -0.03064072 0.9962829 0.08050829 0.2583447 0.9659011 0.01712125 0.2850174 0.9585119 0.004486262 0.2585582 0.8282591 0.4971264 -0.001220703 0.8610584 0.5085048 -0.05118042 0.4645913 0.884045 0.2582859 0.424098 0.8680031 -0.09961503 0.8361377 0.5393984 -0.09445601 0.6352817 0.7664825 -0.08289098 0.379266 0.9215674 -0.06311285 0.1700812 0.9834069 -0.08826005 0.1109049 0.9899042 0.001129209 0.08118128 0.9966988 -0.1166125 -0.1535098 0.9812422 0.0140388 0.1177735 0.9929413 0.01879984 0.4199149 0.9073689 0.007019281 -0.152441 0.9882878 0.0035097 -0.3571376 0.9340453 -0.1431061 -0.438871 0.8870812 0.002899289 -0.6003149 0.7997586 -0.1598895 -0.685245 0.7105454 0.003448605 -0.8122641 0.5832798 -0.1660885 -0.8754895 0.4537982 7.93491e-4 -0.945841 0.3246293 -0.1402972 -0.9569635 0.2540428 -0.002471983 -0.9999861 -0.004669368 -0.1227787 -0.9924231 -0.004669427 0.1603152 -0.964852 0.2082298 0.145973 -0.9892777 -0.00463885 0.1752107 -0.8358599 0.5202303 0.1793299 -0.6051622 0.7756415 0.1767367 -0.3266165 0.9284859 0.1463096 -0.09299236 0.9848583 0.1577527 0.1625137 0.9740141 0.1872027 0.4768267 0.8588314 0.03528022 0.3596389 0.9324244 -0.2263299 0.8013411 0.5537394 0.1031543 0.7704835 0.6290583 -0.3548802 0.3803945 0.8540259 -0.6882338 -0.2143959 0.6930863 -0.6776214 -0.3164858 0.6638267 0.1595866 0.9700632 0.1830561 -0.09366428 0.9867865 0.1322104 0.1908332 0.739162 0.6459275 0.1739304 0.9126845 0.3698043 0.01773136 0.6209352 0.7836614 0.01660227 0.7927587 0.6093096 -0.03460866 -0.9167327 0.3979996 0.296162 0.05282938 0.9536757 0.215523 0.04348909 0.97553 0.6450132 -0.09332621 0.7584512 0.4555685 -0.7944295 0.4016706 -0.02282834 -0.9989855 0.03882044 0.4393576 -0.8980952 -0.01974606 -0.003540158 -0.9999828 -0.004669368 0.4529624 -0.8915199 -0.004181087 0.8388891 -0.4468358 0.3108104 0.9999977 0.002136349 0 -0.7299239 0.139411 0.6691605 -0.8369212 0.1949245 0.5114367 -0.9832994 -0.07004165 0.1679779 -0.805055 -0.5931937 -0.002777159 -0.9302687 -0.3317679 -0.1566215 -0.9675278 -0.2527621 -0.001190245 0.9750351 0.007996082 0.2219068 0.8652763 -0.4995665 0.04159742 0.9938111 -0.06473016 -0.09027433 0.9661644 -0.03103762 -0.2560528 0.995382 -0.07358163 -0.06164866 0.9340654 -0.1745994 -0.3115077 0.7875824 0.06299191 -0.6129812 0.6405075 -0.08960449 -0.7627065 0.9818959 0.1798499 0.05945146 0.8595178 0.462613 -0.2172981 0.8402683 0.5339227 0.09421086 0.9495939 0.07773149 -0.303693 0.5446175 0.8364738 0.0608555 0.5664418 0.7061601 -0.4248314 0.6417996 0.2171174 -0.7354952 -0.5641819 -0.8249703 -0.03351026 -0.9189127 -0.3619006 -0.1569314 -0.4762554 -0.6720374 -0.5670506 -0.8391283 -0.004516839 -0.543915 -0.6303161 0.3198733 -0.7073774 -0.8977136 0.2405805 -0.3690956 -0.5249332 0.7441844 -0.4130797 -0.8856192 0.4522402 -0.1056285 -0.135078 -0.1330332 -0.9818636 -0.05075365 0.1312637 -0.9900475 0.06836295 -0.1188111 -0.9905608 0.245737 0.1907422 -0.9503845 -0.1443541 -0.5593186 -0.8162872 0.2756829 -0.4922495 -0.8256449 -0.3321667 -0.8784535 0.3434892 -0.1311419 -0.9893174 0.06366348 0.04294008 -0.9826785 0.1802752 0.104834 -0.940485 -0.3232612 0.231764 -0.9686843 -0.08908599 -0.6533895 -0.6730745 0.3464866 0.1726135 -0.1033056 -0.9795574 -0.1705395 0.06033581 -0.9835019 0.03289979 0.05203539 -0.9981032 -0.4425931 0.2112556 -0.8714829 -0.3123679 -0.2268215 -0.9224849 0.1419761 -0.6181696 -0.7731165 -0.5741183 0.285228 -0.767485 0.03137356 0.004120051 -0.9994993 0.05264592 -0.05154722 -0.997282 -0.3885735 -0.1465238 -0.9096931 -0.333266 -0.08948129 -0.9385771 -0.8617085 -0.2030134 -0.4650204 -0.9787148 -0.03930848 -0.2014256 -0.9918182 -0.05954325 -0.1129216 -0.9430242 -0.1632797 -0.2899054 -0.9922977 0.1238464 0.002746701 -0.5570479 0.7813991 0.2812707 -0.7791242 0.6151752 0.1205202 -0.8955928 0.4192149 0.1489043 -0.44848 0.8930536 0.0363484 -0.157386 0.9632377 0.2177218 0.1254017 0.9843535 0.1237843 0.1433174 0.9880841 -0.05612444 0.01437437 0.9442865 -0.3288111 -0.07751893 0.9623948 -0.26036 -0.03064101 0.9969935 -0.07117021 0.2584007 0.9660043 -0.008056879 0.2586207 0.8328417 -0.4893773 -0.001220703 0.8657639 -0.5004511 -0.05118107 0.4728378 -0.8796619 0.2582858 0.4321855 -0.8640047 -0.09961527 0.8411449 -0.5315562 -0.0944882 0.6423735 -0.7605448 -0.06311339 0.1792995 -0.981768 -0.08289057 0.3878401 -0.9179919 -0.08829128 0.1202141 -0.9888141 0.00112915 0.09048891 -0.9958969 -0.1166148 -0.1443265 -0.9826347 0.0140385 0.1270794 -0.9917933 0.01876896 0.4284215 -0.903384 0.00701934 -0.143195 -0.9896696 0.0035097 -0.3483805 -0.9373466 -0.1431061 -0.4305697 -0.89114 0.002899229 -0.5928249 -0.8053262 -0.1598907 -0.6786274 -0.7168682 -0.1660841 -0.8712246 -0.4619349 0.003448665 -0.8067484 -0.5908851 -0.1402951 -0.9545378 -0.2630113 7.93504e-4 -0.9427442 -0.333516 0.1603445 -0.9628606 -0.2172311 0.1752415 -0.830978 -0.5279829 0.1793327 -0.5978777 -0.7812696 0.1767059 -0.3179181 -0.9315058 0.14631 -0.08377575 -0.9856851 0.157752 0.1716076 -0.9724532 0.03527981 0.3683322 -0.9290247 0.1872024 0.4848219 -0.8543437 -0.3548744 0.3884148 -0.8504106 -0.2263606 0.8064686 -0.5462318 0.1031856 0.7763492 -0.6217996 -0.6882411 -0.2079281 -0.695047 -0.6776392 -0.310254 -0.666744 0.1596145 0.9717258 -0.1739889 -0.09372484 0.987972 -0.1229929 0.1908379 0.7452231 -0.6389239 0.1739271 0.916116 -0.3612216 0.01773166 0.6282079 -0.7778436 0.01660257 0.7984188 -0.6018737 -0.03466957 -0.9129461 -0.406605 0.2961567 0.06177049 -0.9531399 0.2155247 0.05261462 -0.97508 0.6450199 -0.08624678 -0.7592833 -0.0228281 -0.9985774 -0.04818928 0.4555895 -0.7906284 -0.4090784 0.4393794 -0.8982299 0.01135295 0.8389147 -0.4438728 -0.3149592 -0.7299218 0.1457279 -0.6678157 -0.8369202 0.1997463 -0.5095744 -0.9833014 -0.0684548 -0.1686191 -0.9302741 -0.3332043 0.1535095 0.9750364 0.01010191 -0.2218155</float_array>
          <technique_common>
            <accessor source="#Mouse001Tail20Mesh-mesh-normals-array" count="257" stride="3">
              <param name="X" type="float"/>
              <param name="Y" type="float"/>
              <param name="Z" type="float"/>
            </accessor>
          </technique_common>
        </source>
        <source id="Mouse001Tail20Mesh-mesh-map-0">
          <float_array id="Mouse001Tail20Mesh-mesh-map-0-array" count="3060">0.188787 0.996947 0.186778 0.996644 0.187761 0.995604 0.186778 0.996644 0.188787 0.996947 0.18836 0.997995 0.188091 0.994534 0.186693 0.994605 0.187441 0.993752 0.186693 0.994605 0.188091 0.994534 0.187761 0.995604 0.188702 0.994075 0.187441 0.993752 0.188239 0.993026 0.187441 0.993752 0.188702 0.994075 0.188091 0.994534 0.187803 0.990385 0.187582 0.989464 0.188251 0.989817 0.188251 0.989817 0.187582 0.989464 0.188082 0.988937 0.188251 0.989817 0.188082 0.988937 0.188687 0.988657 0.188251 0.989817 0.188687 0.988657 0.188747 0.989825 0.188747 0.989825 0.1884109 0.990802 0.188251 0.989817 0.188251 0.989817 0.1884109 0.990802 0.187803 0.990385 0.238292 0.994786 0.239314 0.993841 0.2394019 0.994735 0.2394019 0.994735 0.2386659 0.995702 0.238292 0.994786 0.238324 0.987455 0.2389979 0.986951 0.239123 0.987639 0.239123 0.987639 0.238704 0.988269 0.238324 0.987455 0.190075 0.993864 0.191307 0.993395 0.19067 0.994473 0.19067 0.994473 0.191307 0.993395 0.191729 0.994374 0.191729 0.994374 0.191801 0.995292 0.19067 0.994473 0.19067 0.994473 0.191801 0.995292 0.1905069 0.995202 0.238314 0.998619 0.237268 0.997222 0.238598 0.997384 0.237268 0.997222 0.237809 0.996477 0.238598 0.997384 0.237268 0.997222 0.235981 0.996561 0.237809 0.996477 0.235981 0.996561 0.237149 0.995302 0.237809 0.996477 0.236357 0.998722 0.235981 0.996561 0.237268 0.997222 0.237268 0.997222 0.238314 0.998619 0.236357 0.998722 0.237809 0.996477 0.239548 0.996916 0.238598 0.997384 0.239548 0.996916 0.237809 0.996477 0.2386659 0.995702 0.239548 0.996916 0.240248 0.997859 0.238598 0.997384 0.238598 0.997384 0.240248 0.997859 0.238314 0.998619 0.237293 0.992133 0.238654 0.992258 0.237938 0.993245 0.237293 0.992133 0.237938 0.993245 0.237066 0.993429 0.237066 0.993429 0.238115 0.993976 0.237108 0.994596 0.238115 0.993976 0.237066 0.993429 0.237938 0.993245 0.239081 0.993186 0.238115 0.993976 0.237938 0.993245 0.237938 0.993245 0.238654 0.992258 0.239081 0.993186 0.2383829 0.989834 0.238752 0.991005 0.237321 0.98982 0.238752 0.991005 0.237317 0.991069 0.237321 0.98982 0.240247 0.987807 0.241164 0.986787 0.241071 0.988543 0.241071 0.988543 0.241164 0.986787 0.2417899 0.987069 0.241164 0.986787 0.242214 0.985669 0.2417899 0.987069 0.242214 0.985669 0.241164 0.986787 0.241531 0.985302 0.240371 0.986386 0.241531 0.985302 0.241164 0.986787 0.241164 0.986787 0.240247 0.987807 0.240371 0.986386 0.238276 0.986492 0.238672 0.985539 0.238844 0.986341 0.238844 0.986341 0.238672 0.985539 0.239575 0.985713 0.2389979 0.986951 0.238276 0.986492 0.238844 0.986341 0.238276 0.986492 0.2389979 0.986951 0.238324 0.987455 0.188082 0.988937 0.187463 0.987844 0.188687 0.988657 0.187463 0.987844 0.188377 0.987425 0.188687 0.988657 0.187582 0.989464 0.187463 0.987844 0.188082 0.988937 0.187463 0.987844 0.187582 0.989464 0.186751 0.988269 0.240314 0.984694 0.240371 0.986386 0.239575 0.985713 0.240371 0.986386 0.240314 0.984694 0.241531 0.985302 0.23756 0.985733 0.237887 0.98439 0.238672 0.985539 0.237887 0.98439 0.239135 0.984416 0.238672 0.985539 0.235848 0.984723 0.23756 0.985733 0.236014 0.986217 0.23756 0.985733 0.235848 0.984723 0.237887 0.98439 0.236014 0.986217 0.230126 0.987054 0.235848 0.984723 0.230126 0.987054 0.236014 0.986217 0.230558 0.988471 0.230558 0.988471 0.213207 0.988698 0.230126 0.987054 0.213207 0.988698 0.230558 0.988471 0.213154 0.989606 0.197245 0.988909 0.213207 0.988698 0.213154 0.989606 0.213207 0.988698 0.197245 0.988909 0.19729 0.987672 0.197245 0.988909 0.190687 0.987041 0.19729 0.987672 0.190687 0.987041 0.197245 0.988909 0.190729 0.988627 0.189419 0.988548 0.190687 0.987041 0.190729 0.988627 0.190687 0.987041 0.189419 0.988548 0.189253 0.987193 0.188377 0.987425 0.189419 0.988548 0.188687 0.988657 0.189419 0.988548 0.188377 0.987425 0.189253 0.987193 0.188747 0.989825 0.189419 0.988548 0.189512 0.989731 0.189419 0.988548 0.188747 0.989825 0.188687 0.988657 0.189512 0.989731 0.190729 0.988627 0.190621 0.989604 0.190729 0.988627 0.189512 0.989731 0.189419 0.988548 0.189512 0.989731 0.190818 0.990535 0.18928 0.990753 0.190818 0.990535 0.189512 0.989731 0.190621 0.989604 0.190818 0.990535 0.1972669 0.989698 0.197281 0.990265 0.1972669 0.989698 0.190818 0.990535 0.190621 0.989604 0.197287 0.990881 0.190834 0.991431 0.197281 0.990265 0.190818 0.990535 0.197281 0.990265 0.190834 0.991431 0.197307 0.991735 0.190834 0.991431 0.197287 0.990881 0.190834 0.991431 0.197307 0.991735 0.190851 0.992363 0.19739 0.992691 0.191307 0.993395 0.197307 0.991735 0.190851 0.992363 0.197307 0.991735 0.191307 0.993395 0.197287 0.990881 0.213146 0.991697 0.197307 0.991735 0.213146 0.991697 0.197287 0.990881 0.2131389 0.991327 0.197307 0.991735 0.213146 0.991697 0.213151 0.992085 0.197307 0.991735 0.213151 0.992085 0.19739 0.992691 0.213151 0.992576 0.19739 0.992691 0.213151 0.992085 0.19739 0.992691 0.213151 0.992576 0.197519 0.993496 0.213151 0.993146 0.197519 0.993496 0.213151 0.992576 0.197519 0.993496 0.213151 0.993146 0.197612 0.994089 0.21315 0.993723 0.197672 0.994629 0.213151 0.993146 0.197612 0.994089 0.213151 0.993146 0.197672 0.994629 0.213144 0.994365 0.197832 0.995495 0.21315 0.993723 0.197672 0.994629 0.21315 0.993723 0.197832 0.995495 0.213129 0.995243 0.19814 0.996557 0.213144 0.994365 0.197832 0.995495 0.213144 0.994365 0.19814 0.996557 0.231304 0.995916 0.213129 0.995243 0.213144 0.994365 0.213129 0.995243 0.231304 0.995916 0.231181 0.997472 0.235981 0.996561 0.231181 0.997472 0.231304 0.995916 0.231181 0.997472 0.235981 0.996561 0.236357 0.998722 0.231297 0.995073 0.237108 0.994596 0.235981 0.996561 0.231297 0.995073 0.235981 0.996561 0.231304 0.995916 0.235981 0.996561 0.237108 0.994596 0.237149 0.995302 0.237066 0.993429 0.231297 0.995073 0.231316 0.99431 0.231297 0.995073 0.237066 0.993429 0.237108 0.994596 0.2313359 0.993424 0.237293 0.992133 0.237066 0.993429 0.2313359 0.993424 0.237066 0.993429 0.231316 0.99431 0.231208 0.992014 0.237317 0.991069 0.237293 0.992133 0.231208 0.992014 0.237293 0.992133 0.2313359 0.993424 0.23107 0.991183 0.237321 0.98982 0.237317 0.991069 0.23107 0.991183 0.237317 0.991069 0.231208 0.992014 0.237321 0.98982 0.23107 0.991183 0.230944 0.990529 0.230944 0.990529 0.237049 0.989274 0.237321 0.98982 0.237668 0.988022 0.237049 0.989274 0.236707 0.988708 0.237049 0.989274 0.237668 0.988022 0.23801 0.988893 0.23801 0.988893 0.237321 0.98982 0.237049 0.989274 0.237321 0.98982 0.23801 0.988893 0.2383829 0.989834 0.238324 0.987455 0.23801 0.988893 0.237668 0.988022 0.23801 0.988893 0.238324 0.987455 0.238704 0.988269 0.238704 0.988269 0.2383829 0.989834 0.23801 0.988893 0.2383829 0.989834 0.238704 0.988269 0.239433 0.989103 0.240117 0.989888 0.2383829 0.989834 0.239433 0.989103 0.2383829 0.989834 0.240117 0.989888 0.238752 0.991005 0.239123 0.987639 0.239433 0.989103 0.238704 0.988269 0.239433 0.989103 0.239123 0.987639 0.240247 0.987807 0.240117 0.989888 0.240247 0.987807 0.241071 0.988543 0.240247 0.987807 0.240117 0.989888 0.239433 0.989103 0.237668 0.988022 0.236707 0.988708 0.236229 0.987586 0.237668 0.988022 0.236229 0.987586 0.237469 0.986992 0.238324 0.987455 0.237469 0.986992 0.238276 0.986492 0.237469 0.986992 0.238324 0.987455 0.237668 0.988022 0.236229 0.987586 0.236014 0.986217 0.237469 0.986992 0.237469 0.986992 0.236014 0.986217 0.23756 0.985733 0.238276 0.986492 0.23756 0.985733 0.238672 0.985539 0.23756 0.985733 0.238276 0.986492 0.237469 0.986992 0.23082 0.989915 0.236229 0.987586 0.236707 0.988708 0.230707 0.989266 0.236229 0.987586 0.23082 0.989915 0.230558 0.988471 0.236229 0.987586 0.230707 0.989266 0.236229 0.987586 0.230558 0.988471 0.236014 0.986217 0.213133 0.990888 0.230707 0.989266 0.23082 0.989915 0.2131389 0.990255 0.230707 0.989266 0.213133 0.990888 0.213154 0.989606 0.230707 0.989266 0.2131389 0.990255 0.230707 0.989266 0.213154 0.989606 0.230558 0.988471 0.213133 0.990888 0.1972669 0.989698 0.2131389 0.990255 0.1972669 0.989698 0.213133 0.990888 0.197281 0.990265 0.1972669 0.989698 0.213154 0.989606 0.2131389 0.990255 0.213154 0.989606 0.1972669 0.989698 0.197245 0.988909 0.1972669 0.989698 0.190621 0.989604 0.190729 0.988627 0.1972669 0.989698 0.190729 0.988627 0.197245 0.988909 0.213151 0.993146 0.231297 0.995073 0.21315 0.993723 0.231297 0.995073 0.213151 0.993146 0.231316 0.99431 0.213144 0.994365 0.231297 0.995073 0.231304 0.995916 0.231297 0.995073 0.213144 0.994365 0.21315 0.993723 0.2131389 0.991327 0.230944 0.990529 0.23107 0.991183 0.2131389 0.991327 0.23107 0.991183 0.213146 0.991697 0.213133 0.990888 0.23082 0.989915 0.230944 0.990529 0.213133 0.990888 0.230944 0.990529 0.2131389 0.991327 0.237049 0.989274 0.230944 0.990529 0.23082 0.989915 0.23082 0.989915 0.236707 0.988708 0.237049 0.989274 0.213133 0.990888 0.197287 0.990881 0.197281 0.990265 0.197287 0.990881 0.213133 0.990888 0.2131389 0.991327 0.231208 0.992014 0.213151 0.992576 0.213151 0.992085 0.213151 0.992576 0.231208 0.992014 0.2313359 0.993424 0.231316 0.99431 0.213151 0.993146 0.2313359 0.993424 0.213151 0.992576 0.2313359 0.993424 0.213151 0.993146 0.23107 0.991183 0.213151 0.992085 0.213146 0.991697 0.213151 0.992085 0.23107 0.991183 0.231208 0.992014 0.197672 0.994629 0.191801 0.995292 0.197612 0.994089 0.191801 0.995292 0.197672 0.994629 0.191567 0.996302 0.191729 0.994374 0.197519 0.993496 0.197612 0.994089 0.191729 0.994374 0.197612 0.994089 0.191801 0.995292 0.19739 0.992691 0.191729 0.994374 0.191307 0.993395 0.191729 0.994374 0.19739 0.992691 0.197519 0.993496 0.189564 0.993008 0.191307 0.993395 0.190075 0.993864 0.191307 0.993395 0.189564 0.993008 0.190851 0.992363 0.189239 0.991966 0.190834 0.991431 0.190851 0.992363 0.189239 0.991966 0.190851 0.992363 0.189564 0.993008 0.188239 0.993026 0.189564 0.993008 0.188702 0.994075 0.189564 0.993008 0.188239 0.993026 0.189239 0.991966 0.1884109 0.990802 0.189239 0.991966 0.187865 0.99184 0.189239 0.991966 0.1884109 0.990802 0.18928 0.990753 0.18928 0.990753 0.190834 0.991431 0.189239 0.991966 0.190834 0.991431 0.18928 0.990753 0.190818 0.990535 0.188702 0.994075 0.190075 0.993864 0.18954 0.994668 0.190075 0.993864 0.188702 0.994075 0.189564 0.993008 0.1901749 0.99617 0.191519 0.997373 0.190016 0.997443 0.191519 0.997373 0.1901749 0.99617 0.191567 0.996302 0.1905069 0.995202 0.191801 0.995292 0.191567 0.996302 0.191567 0.996302 0.1901749 0.99617 0.1905069 0.995202 0.197672 0.994629 0.191519 0.997373 0.191567 0.996302 0.191519 0.997373 0.197672 0.994629 0.197832 0.995495 0.19814 0.996557 0.191572 0.998794 0.197832 0.995495 0.191519 0.997373 0.197832 0.995495 0.191572 0.998794 0.190016 0.997443 0.191519 0.997373 0.191572 0.998794 0.190016 0.997443 0.191572 0.998794 0.189628 0.9986 0.190016 0.997443 0.18836 0.997995 0.188787 0.996947 0.18836 0.997995 0.190016 0.997443 0.189628 0.9986 0.189218 0.995886 0.190016 0.997443 0.188787 0.996947 0.190016 0.997443 0.189218 0.995886 0.1901749 0.99617 0.189218 0.995886 0.1905069 0.995202 0.1901749 0.99617 0.1905069 0.995202 0.189218 0.995886 0.18954 0.994668 0.188747 0.989825 0.18928 0.990753 0.1884109 0.990802 0.188747 0.989825 0.189512 0.989731 0.18928 0.990753 0.238672 0.985539 0.239135 0.984416 0.239575 0.985713 0.239135 0.984416 0.240314 0.984694 0.239575 0.985713 0.186347 0.9902 0.186751 0.988269 0.187582 0.989464 0.186751 0.988269 0.186347 0.9902 0.185774 0.988873 0.239081 0.993186 0.239719 0.992405 0.240406 0.993168 0.239719 0.992405 0.239081 0.993186 0.238654 0.992258 0.241291 0.992624 0.239719 0.992405 0.240115 0.991686 0.239719 0.992405 0.241291 0.992624 0.240406 0.993168 0.241098 0.994517 0.239314 0.993841 0.240406 0.993168 0.240406 0.993168 0.239314 0.993841 0.239081 0.993186 0.241319 0.997001 0.240405 0.995766 0.241098 0.994517 0.241098 0.994517 0.242531 0.995899 0.241319 0.997001 0.241098 0.994517 0.2394019 0.994735 0.239314 0.993841 0.2394019 0.994735 0.241098 0.994517 0.240405 0.995766 0.240248 0.997859 0.239548 0.996916 0.240405 0.995766 0.240405 0.995766 0.241319 0.997001 0.240248 0.997859 0.2386659 0.995702 0.240405 0.995766 0.239548 0.996916 0.240405 0.995766 0.2386659 0.995702 0.2394019 0.994735 0.240371 0.986386 0.238844 0.986341 0.239575 0.985713 0.238844 0.986341 0.240371 0.986386 0.2389979 0.986951 0.240247 0.987807 0.2389979 0.986951 0.240371 0.986386 0.2389979 0.986951 0.240247 0.987807 0.239123 0.987639 0.238752 0.991005 0.237293 0.992133 0.237317 0.991069 0.237293 0.992133 0.238752 0.991005 0.238654 0.992258 0.238752 0.991005 0.239719 0.992405 0.238654 0.992258 0.238752 0.991005 0.240115 0.991686 0.239719 0.992405 0.238115 0.993976 0.239314 0.993841 0.238292 0.994786 0.239314 0.993841 0.238115 0.993976 0.239081 0.993186 0.238115 0.993976 0.237149 0.995302 0.237108 0.994596 0.237149 0.995302 0.238115 0.993976 0.238292 0.994786 0.237809 0.996477 0.237149 0.995302 0.2386659 0.995702 0.237149 0.995302 0.238292 0.994786 0.2386659 0.995702 0.18954 0.994668 0.19067 0.994473 0.1905069 0.995202 0.19067 0.994473 0.18954 0.994668 0.190075 0.993864 0.187865 0.99184 0.187803 0.990385 0.1884109 0.990802 0.187803 0.990385 0.187865 0.99184 0.187005 0.991158 0.186347 0.9902 0.187803 0.990385 0.187005 0.991158 0.187803 0.990385 0.186347 0.9902 0.187582 0.989464 0.186693 0.994605 0.186778 0.996644 0.185658 0.995598 0.186778 0.996644 0.186693 0.994605 0.187761 0.995604 0.187761 0.995604 0.188091 0.994534 0.188531 0.9953 0.188702 0.994075 0.188531 0.9953 0.188091 0.994534 0.188702 0.994075 0.18954 0.994668 0.188531 0.9953 0.188531 0.9953 0.18954 0.994668 0.189218 0.995886 0.189218 0.995886 0.188787 0.996947 0.188531 0.9953 0.188531 0.9953 0.188787 0.996947 0.187761 0.995604 0.242403 0.993892 0.242531 0.995899 0.241098 0.994517 0.242531 0.995899 0.242403 0.993892 0.243445 0.994987 0.241098 0.994517 0.241291 0.992624 0.242403 0.993892 0.241291 0.992624 0.241098 0.994517 0.240406 0.993168 0.186778 0.996644 0.188787 0.996947 0.187761 0.995604 0.188787 0.996947 0.186778 0.996644 0.18836 0.997995 0.188091 0.994534 0.186693 0.994605 0.187761 0.995604 0.186693 0.994605 0.188091 0.994534 0.187441 0.993752 0.187441 0.993752 0.188702 0.994075 0.188239 0.993026 0.188702 0.994075 0.187441 0.993752 0.188091 0.994534 0.187582 0.989464 0.188251 0.989817 0.188082 0.988937 0.188251 0.989817 0.187582 0.989464 0.187803 0.990385 0.188687 0.988657 0.188251 0.989817 0.188747 0.989825 0.188251 0.989817 0.188687 0.988657 0.188082 0.988937 0.1884109 0.990802 0.188251 0.989817 0.187803 0.990385 0.1884109 0.990802 0.188747 0.989825 0.188251 0.989817 0.2386659 0.995702 0.2394019 0.994735 0.238292 0.994786 0.2394019 0.994735 0.239314 0.993841 0.238292 0.994786 0.238704 0.988269 0.239123 0.987639 0.238324 0.987455 0.239123 0.987639 0.2389979 0.986951 0.238324 0.987455 0.191729 0.994374 0.191307 0.993395 0.19067 0.994473 0.19067 0.994473 0.191307 0.993395 0.190075 0.993864 0.191801 0.995292 0.19067 0.994473 0.1905069 0.995202 0.19067 0.994473 0.191801 0.995292 0.191729 0.994374 0.238598 0.997384 0.237809 0.996477 0.237268 0.997222 0.237268 0.997222 0.238314 0.998619 0.238598 0.997384 0.237809 0.996477 0.237149 0.995302 0.235981 0.996561 0.235981 0.996561 0.237268 0.997222 0.237809 0.996477 0.238314 0.998619 0.237268 0.997222 0.236357 0.998722 0.237268 0.997222 0.235981 0.996561 0.236357 0.998722 0.239548 0.996916 0.237809 0.996477 0.238598 0.997384 0.237809 0.996477 0.239548 0.996916 0.2386659 0.995702 0.238314 0.998619 0.240248 0.997859 0.238598 0.997384 0.238598 0.997384 0.240248 0.997859 0.239548 0.996916 0.237066 0.993429 0.237938 0.993245 0.237293 0.992133 0.237938 0.993245 0.238654 0.992258 0.237293 0.992133 0.238115 0.993976 0.237066 0.993429 0.237108 0.994596 0.237066 0.993429 0.238115 0.993976 0.237938 0.993245 0.238654 0.992258 0.237938 0.993245 0.239081 0.993186 0.237938 0.993245 0.238115 0.993976 0.239081 0.993186 0.237321 0.98982 0.237317 0.991069 0.238752 0.991005 0.238752 0.991005 0.2383829 0.989834 0.237321 0.98982 0.241071 0.988543 0.2417899 0.987069 0.241164 0.986787 0.241164 0.986787 0.240247 0.987807 0.241071 0.988543 0.242214 0.985669 0.241164 0.986787 0.2417899 0.987069 0.241164 0.986787 0.242214 0.985669 0.241531 0.985302 0.240247 0.987807 0.241164 0.986787 0.240371 0.986386 0.241164 0.986787 0.241531 0.985302 0.240371 0.986386 0.238672 0.985539 0.238844 0.986341 0.239575 0.985713 0.238672 0.985539 0.238276 0.986492 0.238844 0.986341 0.238276 0.986492 0.2389979 0.986951 0.238844 0.986341 0.2389979 0.986951 0.238276 0.986492 0.238324 0.987455 0.188687 0.988657 0.188377 0.987425 0.187463 0.987844 0.187463 0.987844 0.188082 0.988937 0.188687 0.988657 0.186751 0.988269 0.187582 0.989464 0.187463 0.987844 0.187463 0.987844 0.187582 0.989464 0.188082 0.988937 0.240314 0.984694 0.240371 0.986386 0.241531 0.985302 0.240371 0.986386 0.240314 0.984694 0.239575 0.985713 0.238672 0.985539 0.239135 0.984416 0.237887 0.98439 0.237887 0.98439 0.23756 0.985733 0.238672 0.985539 0.235848 0.984723 0.23756 0.985733 0.237887 0.98439 0.23756 0.985733 0.235848 0.984723 0.236014 0.986217 0.230126 0.987054 0.236014 0.986217 0.235848 0.984723 0.236014 0.986217 0.230126 0.987054 0.230558 0.988471 0.213207 0.988698 0.230558 0.988471 0.230126 0.987054 0.230558 0.988471 0.213207 0.988698 0.213154 0.989606 0.213207 0.988698 0.19729 0.987672 0.197245 0.988909 0.213207 0.988698 0.197245 0.988909 0.213154 0.989606 0.190687 0.987041 0.197245 0.988909 0.19729 0.987672 0.197245 0.988909 0.190687 0.987041 0.190729 0.988627 0.189419 0.988548 0.190687 0.987041 0.189253 0.987193 0.190687 0.987041 0.189419 0.988548 0.190729 0.988627 0.188377 0.987425 0.189419 0.988548 0.189253 0.987193 0.189419 0.988548 0.188377 0.987425 0.188687 0.988657 0.188687 0.988657 0.188747 0.989825 0.189419 0.988548 0.189419 0.988548 0.188747 0.989825 0.189512 0.989731 0.190729 0.988627 0.189512 0.989731 0.190621 0.989604 0.189512 0.989731 0.190729 0.988627 0.189419 0.988548 0.190818 0.990535 0.189512 0.989731 0.18928 0.990753 0.189512 0.989731 0.190818 0.990535 0.190621 0.989604 0.190818 0.990535 0.1972669 0.989698 0.190621 0.989604 0.1972669 0.989698 0.190818 0.990535 0.197281 0.990265 0.190834 0.991431 0.197287 0.990881 0.197281 0.990265 0.190834 0.991431 0.197281 0.990265 0.190818 0.990535 0.197307 0.991735 0.190834 0.991431 0.190851 0.992363 0.190834 0.991431 0.197307 0.991735 0.197287 0.990881 0.191307 0.993395 0.19739 0.992691 0.197307 0.991735 0.191307 0.993395 0.197307 0.991735 0.190851 0.992363 0.213146 0.991697 0.197287 0.990881 0.197307 0.991735 0.197287 0.990881 0.213146 0.991697 0.2131389 0.991327 0.213151 0.992085 0.197307 0.991735 0.19739 0.992691 0.197307 0.991735 0.213151 0.992085 0.213146 0.991697 0.213151 0.992576 0.19739 0.992691 0.197519 0.993496 0.19739 0.992691 0.213151 0.992576 0.213151 0.992085 0.213151 0.993146 0.197519 0.993496 0.197612 0.994089 0.197519 0.993496 0.213151 0.993146 0.213151 0.992576 0.213151 0.993146 0.197612 0.994089 0.197672 0.994629 0.197672 0.994629 0.21315 0.993723 0.213151 0.993146 0.197832 0.995495 0.213144 0.994365 0.21315 0.993723 0.197832 0.995495 0.21315 0.993723 0.197672 0.994629 0.19814 0.996557 0.213129 0.995243 0.213144 0.994365 0.19814 0.996557 0.213144 0.994365 0.197832 0.995495 0.231304 0.995916 0.213129 0.995243 0.231181 0.997472 0.213129 0.995243 0.231304 0.995916 0.213144 0.994365 0.231181 0.997472 0.236357 0.998722 0.235981 0.996561 0.231181 0.997472 0.235981 0.996561 0.231304 0.995916 0.237108 0.994596 0.231297 0.995073 0.235981 0.996561 0.237108 0.994596 0.235981 0.996561 0.237149 0.995302 0.231304 0.995916 0.235981 0.996561 0.231297 0.995073 0.237066 0.993429 0.231297 0.995073 0.237108 0.994596 0.231297 0.995073 0.237066 0.993429 0.231316 0.99431 0.237293 0.992133 0.2313359 0.993424 0.237066 0.993429 0.231316 0.99431 0.237066 0.993429 0.2313359 0.993424 0.237317 0.991069 0.231208 0.992014 0.237293 0.992133 0.2313359 0.993424 0.237293 0.992133 0.231208 0.992014 0.237321 0.98982 0.23107 0.991183 0.237317 0.991069 0.231208 0.992014 0.237317 0.991069 0.23107 0.991183 0.237049 0.989274 0.230944 0.990529 0.237321 0.98982 0.23107 0.991183 0.237321 0.98982 0.230944 0.990529 0.23801 0.988893 0.237668 0.988022 0.237049 0.989274 0.237049 0.989274 0.237668 0.988022 0.236707 0.988708 0.237321 0.98982 0.23801 0.988893 0.237049 0.989274 0.23801 0.988893 0.237321 0.98982 0.2383829 0.989834 0.238704 0.988269 0.238324 0.987455 0.23801 0.988893 0.23801 0.988893 0.238324 0.987455 0.237668 0.988022 0.2383829 0.989834 0.238704 0.988269 0.23801 0.988893 0.238704 0.988269 0.2383829 0.989834 0.239433 0.989103 0.240117 0.989888 0.2383829 0.989834 0.238752 0.991005 0.2383829 0.989834 0.240117 0.989888 0.239433 0.989103 0.239123 0.987639 0.239433 0.989103 0.240247 0.987807 0.239433 0.989103 0.239123 0.987639 0.238704 0.988269 0.240247 0.987807 0.240117 0.989888 0.241071 0.988543 0.240117 0.989888 0.240247 0.987807 0.239433 0.989103 0.236229 0.987586 0.237668 0.988022 0.237469 0.986992 0.237668 0.988022 0.236229 0.987586 0.236707 0.988708 0.237469 0.986992 0.238324 0.987455 0.238276 0.986492 0.238324 0.987455 0.237469 0.986992 0.237668 0.988022 0.236014 0.986217 0.237469 0.986992 0.23756 0.985733 0.237469 0.986992 0.236014 0.986217 0.236229 0.987586 0.23756 0.985733 0.238276 0.986492 0.238672 0.985539 0.238276 0.986492 0.23756 0.985733 0.237469 0.986992 0.23082 0.989915 0.236707 0.988708 0.236229 0.987586 0.236229 0.987586 0.230707 0.989266 0.23082 0.989915 0.230558 0.988471 0.236229 0.987586 0.236014 0.986217 0.236229 0.987586 0.230558 0.988471 0.230707 0.989266 0.213133 0.990888 0.23082 0.989915 0.230707 0.989266 0.230707 0.989266 0.2131389 0.990255 0.213133 0.990888 0.213154 0.989606 0.230707 0.989266 0.230558 0.988471 0.230707 0.989266 0.213154 0.989606 0.2131389 0.990255 0.1972669 0.989698 0.213133 0.990888 0.2131389 0.990255 0.213133 0.990888 0.1972669 0.989698 0.197281 0.990265 0.213154 0.989606 0.1972669 0.989698 0.2131389 0.990255 0.1972669 0.989698 0.213154 0.989606 0.197245 0.988909 0.190729 0.988627 0.1972669 0.989698 0.197245 0.988909 0.1972669 0.989698 0.190729 0.988627 0.190621 0.989604 0.231297 0.995073 0.213151 0.993146 0.21315 0.993723 0.213151 0.993146 0.231297 0.995073 0.231316 0.99431 0.213144 0.994365 0.231297 0.995073 0.21315 0.993723 0.231297 0.995073 0.213144 0.994365 0.231304 0.995916 0.230944 0.990529 0.2131389 0.991327 0.23107 0.991183 0.213146 0.991697 0.23107 0.991183 0.2131389 0.991327 0.23082 0.989915 0.213133 0.990888 0.230944 0.990529 0.2131389 0.991327 0.230944 0.990529 0.213133 0.990888 0.236707 0.988708 0.23082 0.989915 0.237049 0.989274 0.230944 0.990529 0.237049 0.989274 0.23082 0.989915 0.213133 0.990888 0.197287 0.990881 0.2131389 0.991327 0.197287 0.990881 0.213133 0.990888 0.197281 0.990265 0.213151 0.992576 0.231208 0.992014 0.213151 0.992085 0.231208 0.992014 0.213151 0.992576 0.2313359 0.993424 0.213151 0.993146 0.231316 0.99431 0.2313359 0.993424 0.213151 0.993146 0.2313359 0.993424 0.213151 0.992576 0.23107 0.991183 0.213151 0.992085 0.231208 0.992014 0.213151 0.992085 0.23107 0.991183 0.213146 0.991697 0.197672 0.994629 0.191801 0.995292 0.191567 0.996302 0.191801 0.995292 0.197672 0.994629 0.197612 0.994089 0.197519 0.993496 0.191729 0.994374 0.197612 0.994089 0.191801 0.995292 0.197612 0.994089 0.191729 0.994374 0.191729 0.994374 0.197519 0.993496 0.19739 0.992691 0.191729 0.994374 0.19739 0.992691 0.191307 0.993395 0.191307 0.993395 0.189564 0.993008 0.190075 0.993864 0.189564 0.993008 0.191307 0.993395 0.190851 0.992363 0.190834 0.991431 0.189239 0.991966 0.190851 0.992363 0.189564 0.993008 0.190851 0.992363 0.189239 0.991966 0.189564 0.993008 0.188239 0.993026 0.188702 0.994075 0.188239 0.993026 0.189564 0.993008 0.189239 0.991966 0.187865 0.99184 0.189239 0.991966 0.1884109 0.990802 0.189239 0.991966 0.18928 0.990753 0.1884109 0.990802 0.190834 0.991431 0.18928 0.990753 0.189239 0.991966 0.18928 0.990753 0.190834 0.991431 0.190818 0.990535 0.188702 0.994075 0.190075 0.993864 0.189564 0.993008 0.190075 0.993864 0.188702 0.994075 0.18954 0.994668 0.191519 0.997373 0.1901749 0.99617 0.190016 0.997443 0.1901749 0.99617 0.191519 0.997373 0.191567 0.996302 0.1901749 0.99617 0.191567 0.996302 0.1905069 0.995202 0.191567 0.996302 0.191801 0.995292 0.1905069 0.995202 0.191519 0.997373 0.197672 0.994629 0.191567 0.996302 0.197672 0.994629 0.191519 0.997373 0.197832 0.995495 0.191572 0.998794 0.19814 0.996557 0.197832 0.995495 0.191572 0.998794 0.197832 0.995495 0.191519 0.997373 0.189628 0.9986 0.191572 0.998794 0.190016 0.997443 0.191572 0.998794 0.191519 0.997373 0.190016 0.997443 0.190016 0.997443 0.18836 0.997995 0.189628 0.9986 0.18836 0.997995 0.190016 0.997443 0.188787 0.996947 0.190016 0.997443 0.189218 0.995886 0.188787 0.996947 0.189218 0.995886 0.190016 0.997443 0.1901749 0.99617 0.189218 0.995886 0.1905069 0.995202 0.18954 0.994668 0.1905069 0.995202 0.189218 0.995886 0.1901749 0.99617 0.1884109 0.990802 0.18928 0.990753 0.188747 0.989825 0.18928 0.990753 0.189512 0.989731 0.188747 0.989825 0.239575 0.985713 0.240314 0.984694 0.239135 0.984416 0.239135 0.984416 0.238672 0.985539 0.239575 0.985713 0.186347 0.9902 0.186751 0.988269 0.185774 0.988873 0.186751 0.988269 0.186347 0.9902 0.187582 0.989464 0.239081 0.993186 0.239719 0.992405 0.238654 0.992258 0.239719 0.992405 0.239081 0.993186 0.240406 0.993168 0.241291 0.992624 0.239719 0.992405 0.240406 0.993168 0.239719 0.992405 0.241291 0.992624 0.240115 0.991686 0.240406 0.993168 0.239081 0.993186 0.239314 0.993841 0.240406 0.993168 0.239314 0.993841 0.241098 0.994517 0.242531 0.995899 0.241098 0.994517 0.241319 0.997001 0.241098 0.994517 0.240405 0.995766 0.241319 0.997001 0.241098 0.994517 0.239314 0.993841 0.2394019 0.994735 0.241098 0.994517 0.2394019 0.994735 0.240405 0.995766 0.241319 0.997001 0.240405 0.995766 0.240248 0.997859 0.240405 0.995766 0.239548 0.996916 0.240248 0.997859 0.240405 0.995766 0.2394019 0.994735 0.2386659 0.995702 0.240405 0.995766 0.2386659 0.995702 0.239548 0.996916 0.2389979 0.986951 0.240371 0.986386 0.238844 0.986341 0.238844 0.986341 0.240371 0.986386 0.239575 0.985713 0.240247 0.987807 0.2389979 0.986951 0.239123 0.987639 0.2389979 0.986951 0.240247 0.987807 0.240371 0.986386 0.237293 0.992133 0.238752 0.991005 0.237317 0.991069 0.238752 0.991005 0.237293 0.992133 0.238654 0.992258 0.239719 0.992405 0.240115 0.991686 0.238752 0.991005 0.239719 0.992405 0.238752 0.991005 0.238654 0.992258 0.238115 0.993976 0.239314 0.993841 0.239081 0.993186 0.239314 0.993841 0.238115 0.993976 0.238292 0.994786 0.238292 0.994786 0.238115 0.993976 0.237108 0.994596 0.238292 0.994786 0.237108 0.994596 0.237149 0.995302 0.237149 0.995302 0.2386659 0.995702 0.238292 0.994786 0.2386659 0.995702 0.237149 0.995302 0.237809 0.996477 0.18954 0.994668 0.19067 0.994473 0.190075 0.993864 0.19067 0.994473 0.18954 0.994668 0.1905069 0.995202 0.187865 0.99184 0.187803 0.990385 0.187005 0.991158 0.187803 0.990385 0.187865 0.99184 0.1884109 0.990802 0.186347 0.9902 0.187803 0.990385 0.187582 0.989464 0.187803 0.990385 0.186347 0.9902 0.187005 0.991158 0.186778 0.996644 0.186693 0.994605 0.185658 0.995598 0.186693 0.994605 0.186778 0.996644 0.187761 0.995604 0.188091 0.994534 0.188531 0.9953 0.188702 0.994075 0.188531 0.9953 0.188091 0.994534 0.187761 0.995604 0.18954 0.994668 0.188531 0.9953 0.189218 0.995886 0.188531 0.9953 0.18954 0.994668 0.188702 0.994075 0.188787 0.996947 0.188531 0.9953 0.187761 0.995604 0.188531 0.9953 0.188787 0.996947 0.189218 0.995886 0.243445 0.994987 0.242403 0.993892 0.242531 0.995899 0.242531 0.995899 0.242403 0.993892 0.241098 0.994517 0.241098 0.994517 0.242403 0.993892 0.241291 0.992624 0.241098 0.994517 0.241291 0.992624 0.240406 0.993168</float_array>
          <technique_common>
            <accessor source="#Mouse001Tail20Mesh-mesh-map-0-array" count="1530" stride="2">
              <param name="S" type="float"/>
              <param name="T" type="float"/>
            </accessor>
          </technique_common>
        </source>
        <vertices id="Mouse001Tail20Mesh-mesh-vertices">
          <input semantic="POSITION" source="#Mouse001Tail20Mesh-mesh-positions"/>
        </vertices>
        <triangles count="510">
          <input semantic="VERTEX" source="#Mouse001Tail20Mesh-mesh-vertices" offset="0"/>
          <input semantic="NORMAL" source="#Mouse001Tail20Mesh-mesh-normals" offset="1"/>
          <input semantic="TEXCOORD" source="#Mouse001Tail20Mesh-mesh-map-0" offset="2" set="0"/>
          <p>12 0 0 128 1 1 0 2 2 128 1 3 12 0 4 13 3 5 1 4 6 14 5 7 15 6 8 14 5 9 1 4 10 0 2 11 17 7 12 15 6 13 16 8 14 15 6 15 17 7 16 1 4 17 18 9 18 19 10 19 2 11 20 2 11 21 19 10 22 20 12 23 2 11 24 20 12 25 21 13 26 2 11 27 21 13 28 22 14 29 22 14 30 23 15 31 2 11 32 2 11 33 23 15 34 18 9 35 25 16 36 26 17 37 3 18 38 3 18 39 24 19 40 25 16 41 28 20 42 29 21 43 4 22 44 4 22 45 27 23 46 28 20 47 30 24 48 31 25 49 5 26 50 5 26 51 31 25 52 32 27 53 32 27 54 33 28 55 5 26 56 5 26 57 33 28 58 34 29 59 158 30 60 6 31 61 7 32 62 6 31 63 35 33 64 7 32 65 6 31 66 36 34 67 35 33 68 36 34 69 37 35 70 35 33 71 163 36 72 36 34 73 6 31 74 6 31 75 158 30 76 163 36 77 35 33 78 38 37 79 7 32 80 38 37 81 35 33 82 24 19 83 38 37 84 120 38 85 7 32 86 7 32 87 120 38 88 158 30 89 40 39 90 41 40 91 8 41 92 40 39 93 8 41 94 39 42 95 39 42 96 42 43 97 43 44 98 42 43 99 39 42 100 8 41 101 44 45 102 42 43 103 8 41 104 8 41 105 41 40 106 44 45 107 47 46 108 9 47 109 46 48 110 9 47 111 45 49 112 46 48 113 50 50 114 10 51 115 49 52 116 49 52 117 10 51 118 48 53 119 10 51 120 121 54 121 48 53 122 121 54 123 10 51 124 180 55 125 51 56 126 180 55 127 10 51 128 10 51 129 50 50 130 51 56 131 52 57 132 53 58 133 11 59 134 11 59 135 53 58 136 54 60 137 29 21 138 52 57 139 11 59 140 52 57 141 29 21 142 28 20 143 20 12 144 186 61 145 21 13 146 186 61 147 187 62 148 21 13 149 19 10 150 186 61 151 20 12 152 186 61 153 19 10 154 55 63 155 188 64 156 51 56 157 54 60 158 51 56 159 188 64 160 180 55 161 56 65 162 190 66 163 53 58 164 190 66 165 191 67 166 53 58 167 122 68 168 56 65 169 57 69 170 56 65 171 122 68 172 190 66 173 57 69 174 194 70 175 122 68 176 194 70 177 57 69 178 58 71 179 58 71 180 123 72 181 194 70 182 123 72 183 58 71 184 59 73 185 60 74 186 123 72 187 59 73 188 123 72 189 60 74 190 61 75 191 60 74 192 63 76 193 61 75 194 63 76 195 60 74 196 62 77 197 64 78 198 63 76 199 62 77 200 63 76 201 64 78 202 124 79 203 187 62 204 64 78 205 21 13 206 64 78 207 187 62 208 124 79 209 22 14 210 64 78 211 65 80 212 64 78 213 22 14 214 21 13 215 65 80 216 62 77 217 66 81 218 62 77 219 65 80 220 64 78 221 65 80 222 67 82 223 68 83 224 67 82 225 65 80 226 66 81 227 67 82 228 91 84 229 70 85 230 91 84 231 67 82 232 66 81 233 71 86 234 69 87 235 70 85 236 67 82 237 70 85 238 69 87 239 72 88 240 69 87 241 71 86 242 69 87 243 72 88 244 106 89 245 73 90 246 31 25 247 72 88 248 106 89 249 72 88 250 31 25 251 71 86 252 100 91 253 72 88 254 100 91 255 71 86 256 101 92 257 72 88 258 100 91 259 102 93 260 72 88 261 102 93 262 73 90 263 92 94 264 73 90 265 102 93 266 73 90 267 92 94 268 74 95 269 93 96 270 74 95 271 92 94 272 74 95 273 93 96 274 105 97 275 94 98 276 104 99 277 93 96 278 105 97 279 93 96 280 104 99 281 75 100 282 103 101 283 94 98 284 104 99 285 94 98 286 103 101 287 210 102 288 248 103 289 75 100 290 103 101 291 75 100 292 248 103 293 76 104 294 210 102 295 75 100 296 210 102 297 76 104 298 77 105 299 36 34 300 77 105 301 76 104 302 77 105 303 36 34 304 163 36 305 78 106 306 43 44 307 36 34 308 78 106 309 36 34 310 76 104 311 36 34 312 43 44 313 37 35 314 39 42 315 78 106 316 95 107 317 78 106 318 39 42 319 43 44 320 96 108 321 40 39 322 39 42 323 96 108 324 39 42 325 95 107 326 97 109 327 45 49 328 40 39 329 97 109 330 40 39 331 96 108 332 98 110 333 46 48 334 45 49 335 98 110 336 45 49 337 97 109 338 46 48 339 98 110 340 99 111 341 99 111 342 79 112 343 46 48 344 81 113 345 79 112 346 80 114 347 79 112 348 81 113 349 82 115 350 82 115 351 46 48 352 79 112 353 46 48 354 82 115 355 47 46 356 28 20 357 82 115 358 81 113 359 82 115 360 28 20 361 27 23 362 27 23 363 47 46 364 82 115 365 47 46 366 27 23 367 83 116 368 84 117 369 47 46 370 83 116 371 47 46 372 84 117 373 9 47 374 4 22 375 83 116 376 27 23 377 83 116 378 4 22 379 50 50 380 84 117 381 50 50 382 49 52 383 50 50 384 84 117 385 83 116 386 81 113 387 80 114 388 85 118 389 81 113 390 85 118 391 86 119 392 28 20 393 86 119 394 52 57 395 86 119 396 28 20 397 81 113 398 85 118 399 57 69 400 86 119 401 86 119 402 57 69 403 56 65 404 52 57 405 56 65 406 53 58 407 56 65 408 52 57 409 86 119 410 87 120 411 85 118 412 80 114 413 88 121 414 85 118 415 87 120 416 58 71 417 85 118 418 88 121 419 85 118 420 58 71 421 57 69 422 89 122 423 88 121 424 87 120 425 90 123 426 88 121 427 89 122 428 59 73 429 88 121 430 90 123 431 88 121 432 59 73 433 58 71 434 89 122 435 91 84 436 90 123 437 91 84 438 89 122 439 70 85 440 91 84 441 59 73 442 90 123 443 59 73 444 91 84 445 60 74 446 91 84 447 66 81 448 62 77 449 91 84 450 62 77 451 60 74 452 93 96 453 78 106 454 94 98 455 78 106 456 93 96 457 95 107 458 75 100 459 78 106 460 76 104 461 78 106 462 75 100 463 94 98 464 101 92 465 99 111 466 98 110 467 101 92 468 98 110 469 100 91 470 89 122 471 87 120 472 99 111 473 89 122 474 99 111 475 101 92 476 79 112 477 99 111 478 87 120 479 87 120 480 80 114 481 79 112 482 89 122 483 71 86 484 70 85 485 71 86 486 89 122 487 101 92 488 97 109 489 92 94 490 102 93 491 92 94 492 97 109 493 96 108 494 95 107 495 93 96 496 96 108 497 92 94 498 96 108 499 93 96 500 98 110 501 102 93 502 100 91 503 102 93 504 98 110 505 97 109 506 104 99 507 33 28 508 105 97 509 33 28 510 104 99 511 110 124 512 32 27 513 74 95 514 105 97 515 32 27 516 105 97 517 33 28 518 73 90 519 32 27 520 31 25 521 32 27 522 73 90 523 74 95 524 107 125 525 31 25 526 30 24 527 31 25 528 107 125 529 106 89 530 108 126 531 69 87 532 106 89 533 108 126 534 106 89 535 107 125 536 16 8 537 107 125 538 17 7 539 107 125 540 16 8 541 108 126 542 23 15 543 108 126 544 16 8 545 108 126 546 23 15 547 68 83 548 68 83 549 69 87 550 108 126 551 69 87 552 68 83 553 67 82 554 17 7 555 30 24 556 109 127 557 30 24 558 17 7 559 107 125 560 113 128 561 111 129 562 112 130 563 111 129 564 113 128 565 110 124 566 34 29 567 33 28 568 110 124 569 110 124 570 113 128 571 34 29 572 104 99 573 111 129 574 110 124 575 111 129 576 104 99 577 103 101 578 248 103 579 125 131 580 103 101 581 111 129 582 103 101 583 125 131 584 112 130 585 111 129 586 125 131 587 112 130 588 125 131 589 249 132 590 112 130 591 13 3 592 12 0 593 13 3 594 112 130 595 249 132 596 114 133 597 112 130 598 12 0 599 112 130 600 114 133 601 113 128 602 114 133 603 34 29 604 113 128 605 34 29 606 114 133 607 109 127 608 22 14 609 68 83 610 23 15 611 22 14 612 65 80 613 68 83 614 53 58 615 191 67 616 54 60 617 191 67 618 188 64 619 54 60 620 14 5 621 55 63 622 19 10 623 55 63 624 14 5 625 256 134 626 44 45 627 116 135 628 115 136 629 116 135 630 44 45 631 41 40 632 49 52 633 116 135 634 84 117 635 116 135 636 49 52 637 115 136 638 117 137 639 26 17 640 115 136 641 115 136 642 26 17 643 44 45 644 126 138 645 118 139 646 117 137 647 117 137 648 127 140 649 126 138 650 117 137 651 3 18 652 26 17 653 3 18 654 117 137 655 118 139 656 120 38 657 38 37 658 118 139 659 118 139 660 126 138 661 120 38 662 24 19 663 118 139 664 38 37 665 118 139 666 24 19 667 3 18 668 51 56 669 11 59 670 54 60 671 11 59 672 51 56 673 29 21 674 50 50 675 29 21 676 51 56 677 29 21 678 50 50 679 4 22 680 9 47 681 40 39 682 45 49 683 40 39 684 9 47 685 41 40 686 9 47 687 116 135 688 41 40 689 9 47 690 84 117 691 116 135 692 42 43 693 26 17 694 25 16 695 26 17 696 42 43 697 44 45 698 42 43 699 37 35 700 43 44 701 37 35 702 42 43 703 25 16 704 35 33 705 37 35 706 24 19 707 37 35 708 25 16 709 24 19 710 109 127 711 5 26 712 34 29 713 5 26 714 109 127 715 30 24 716 16 8 717 18 9 718 23 15 719 18 9 720 16 8 721 15 6 722 14 5 723 18 9 724 15 6 725 18 9 726 14 5 727 19 10 728 14 5 729 128 1 730 256 134 731 128 1 732 14 5 733 0 2 734 0 2 735 1 4 736 119 141 737 17 7 738 119 141 739 1 4 740 17 7 741 109 127 742 119 141 743 119 141 744 109 127 745 114 133 746 114 133 747 12 0 748 119 141 749 119 141 750 12 0 751 0 2 752 48 53 753 127 140 754 117 137 755 127 140 756 48 53 757 121 54 758 117 137 759 49 52 760 48 53 761 49 52 762 117 137 763 115 136 764 128 1 765 130 142 766 129 143 767 130 142 768 128 1 769 13 3 770 132 144 771 133 145 772 129 143 773 133 145 774 132 144 775 131 146 776 131 146 777 135 147 778 134 148 779 135 147 780 131 146 781 132 144 782 136 149 783 138 150 784 137 151 785 138 150 786 136 149 787 139 152 788 140 153 789 138 150 790 141 154 791 138 150 792 140 153 793 137 151 794 142 155 795 138 150 796 139 152 797 142 155 798 141 154 799 138 150 800 146 156 801 145 157 802 143 158 803 145 157 804 144 159 805 143 158 806 150 160 807 149 161 808 147 162 809 149 161 810 148 163 811 147 162 812 152 164 813 151 165 814 153 166 815 153 166 816 151 165 817 154 167 818 155 168 819 153 166 820 156 169 821 153 166 822 155 168 823 152 164 824 157 170 825 160 171 826 159 172 827 159 172 828 158 30 829 157 170 830 160 171 831 162 173 832 161 174 833 161 174 834 159 172 835 160 171 836 158 30 837 159 172 838 163 36 839 159 172 840 161 174 841 163 36 842 164 175 843 160 171 844 157 170 845 160 171 846 164 175 847 146 156 848 158 30 849 120 38 850 157 170 851 157 170 852 120 38 853 164 175 854 168 176 855 167 177 856 165 178 857 167 177 858 166 179 859 165 178 860 170 180 861 168 176 862 169 181 863 168 176 864 170 180 865 167 177 866 166 179 867 167 177 868 171 182 869 167 177 870 170 180 871 171 182 872 172 183 873 175 184 874 174 185 875 174 185 876 173 186 877 172 183 878 176 187 879 179 188 880 178 189 881 178 189 882 177 190 883 176 187 884 121 54 885 178 189 886 179 188 887 178 189 888 121 54 889 180 55 890 177 190 891 178 189 892 181 191 893 178 189 894 180 55 895 181 191 896 182 192 897 184 193 898 183 194 899 182 192 900 185 195 901 184 193 902 185 195 903 148 163 904 184 193 905 148 163 906 185 195 907 147 162 908 140 153 909 187 62 910 186 61 911 186 61 912 137 151 913 140 153 914 55 63 915 136 149 916 186 61 917 186 61 918 136 149 919 137 151 920 188 64 921 181 191 922 180 55 923 181 191 924 188 64 925 183 194 926 182 192 927 191 67 928 190 66 929 190 66 930 189 196 931 182 192 932 122 68 933 189 196 934 190 66 935 189 196 936 122 68 937 192 197 938 194 70 939 192 197 940 122 68 941 192 197 942 194 70 943 193 198 944 123 72 945 193 198 946 194 70 947 193 198 948 123 72 949 195 199 950 123 72 951 61 75 952 196 200 953 123 72 954 196 200 955 195 199 956 63 76 957 196 200 958 61 75 959 196 200 960 63 76 961 197 201 962 198 202 963 63 76 964 124 79 965 63 76 966 198 202 967 197 201 968 187 62 969 198 202 970 124 79 971 198 202 972 187 62 973 140 153 974 140 153 975 141 154 976 198 202 977 198 202 978 141 154 979 199 203 980 197 201 981 199 203 982 200 204 983 199 203 984 197 201 985 198 202 986 202 205 987 199 203 988 201 206 989 199 203 990 202 205 991 200 204 992 202 205 993 225 207 994 200 204 995 225 207 996 202 205 997 204 208 998 203 209 999 205 210 1000 204 208 1001 203 209 1002 204 208 1003 202 205 1004 206 211 1005 203 209 1006 240 212 1007 203 209 1008 206 211 1009 205 210 1010 151 165 1011 207 213 1012 206 211 1013 151 165 1014 206 211 1015 240 212 1016 234 214 1017 205 210 1018 206 211 1019 205 210 1020 234 214 1021 235 215 1022 236 216 1023 206 211 1024 207 213 1025 206 211 1026 236 216 1027 234 214 1028 226 217 1029 207 213 1030 208 218 1031 207 213 1032 226 217 1033 236 216 1034 227 219 1035 208 218 1036 239 220 1037 208 218 1038 227 219 1039 226 217 1040 227 219 1041 239 220 1042 238 221 1043 238 221 1044 228 222 1045 227 219 1046 237 223 1047 209 224 1048 228 222 1049 237 223 1050 228 222 1051 238 221 1052 248 103 1053 210 102 1054 209 224 1055 248 103 1056 209 224 1057 237 223 1058 211 225 1059 210 102 1060 77 105 1061 210 102 1062 211 225 1063 209 224 1064 77 105 1065 163 36 1066 161 174 1067 77 105 1068 161 174 1069 211 225 1070 169 181 1071 212 226 1072 161 174 1073 169 181 1074 161 174 1075 162 173 1076 211 225 1077 161 174 1078 212 226 1079 168 176 1080 212 226 1081 169 181 1082 212 226 1083 168 176 1084 229 227 1085 165 178 1086 230 228 1087 168 176 1088 229 227 1089 168 176 1090 230 228 1091 175 184 1092 231 229 1093 165 178 1094 230 228 1095 165 178 1096 231 229 1097 172 183 1098 232 230 1099 175 184 1100 231 229 1101 175 184 1102 232 230 1103 213 231 1104 233 232 1105 172 183 1106 232 230 1107 172 183 1108 233 232 1109 216 233 1110 215 234 1111 213 231 1112 213 231 1113 215 234 1114 214 235 1115 172 183 1116 216 233 1117 213 231 1118 216 233 1119 172 183 1120 173 186 1121 150 160 1122 147 162 1123 216 233 1124 216 233 1125 147 162 1126 215 234 1127 173 186 1128 150 160 1129 216 233 1130 150 160 1131 173 186 1132 217 236 1133 218 237 1134 173 186 1135 174 185 1136 173 186 1137 218 237 1138 217 236 1139 149 161 1140 217 236 1141 177 190 1142 217 236 1143 149 161 1144 150 160 1145 177 190 1146 218 237 1147 176 187 1148 218 237 1149 177 190 1150 217 236 1151 219 238 1152 215 234 1153 220 239 1154 215 234 1155 219 238 1156 214 235 1157 220 239 1158 147 162 1159 185 195 1160 147 162 1161 220 239 1162 215 234 1163 192 197 1164 220 239 1165 189 196 1166 220 239 1167 192 197 1168 219 238 1169 189 196 1170 185 195 1171 182 192 1172 185 195 1173 189 196 1174 220 239 1175 221 240 1176 214 235 1177 219 238 1178 219 238 1179 222 241 1180 221 240 1181 193 198 1182 219 238 1183 192 197 1184 219 238 1185 193 198 1186 222 241 1187 223 242 1188 221 240 1189 222 241 1190 222 241 1191 224 243 1192 223 242 1193 195 199 1194 222 241 1195 193 198 1196 222 241 1197 195 199 1198 224 243 1199 225 207 1200 223 242 1201 224 243 1202 223 242 1203 225 207 1204 204 208 1205 195 199 1206 225 207 1207 224 243 1208 225 207 1209 195 199 1210 196 200 1211 197 201 1212 225 207 1213 196 200 1214 225 207 1215 197 201 1216 200 204 1217 212 226 1218 227 219 1219 228 222 1220 227 219 1221 212 226 1222 229 227 1223 209 224 1224 212 226 1225 228 222 1226 212 226 1227 209 224 1228 211 225 1229 233 232 1230 235 215 1231 232 230 1232 234 214 1233 232 230 1234 235 215 1235 221 240 1236 223 242 1237 233 232 1238 235 215 1239 233 232 1240 223 242 1241 214 235 1242 221 240 1243 213 231 1244 233 232 1245 213 231 1246 221 240 1247 223 242 1248 205 210 1249 235 215 1250 205 210 1251 223 242 1252 204 208 1253 226 217 1254 231 229 1255 236 216 1256 231 229 1257 226 217 1258 230 228 1259 227 219 1260 229 227 1261 230 228 1262 227 219 1263 230 228 1264 226 217 1265 232 230 1266 236 216 1267 231 229 1268 236 216 1269 232 230 1270 234 214 1271 238 221 1272 155 168 1273 244 244 1274 155 168 1275 238 221 1276 239 220 1277 208 218 1278 152 164 1279 239 220 1280 155 168 1281 239 220 1282 152 164 1283 152 164 1284 208 218 1285 207 213 1286 152 164 1287 207 213 1288 151 165 1289 151 165 1290 241 245 1291 154 167 1292 241 245 1293 151 165 1294 240 212 1295 203 209 1296 242 246 1297 240 212 1298 241 245 1299 240 212 1300 242 246 1301 241 245 1302 134 148 1303 135 147 1304 134 148 1305 241 245 1306 242 246 1307 134 148 1308 242 246 1309 142 155 1310 242 246 1311 201 206 1312 142 155 1313 203 209 1314 201 206 1315 242 246 1316 201 206 1317 203 209 1318 202 205 1319 135 147 1320 154 167 1321 241 245 1322 154 167 1323 135 147 1324 243 247 1325 247 248 1326 246 249 1327 245 250 1328 246 249 1329 247 248 1330 244 244 1331 246 249 1332 244 244 1333 156 169 1334 244 244 1335 155 168 1336 156 169 1337 247 248 1338 238 221 1339 244 244 1340 238 221 1341 247 248 1342 237 223 1343 125 131 1344 248 103 1345 237 223 1346 125 131 1347 237 223 1348 247 248 1349 249 132 1350 125 131 1351 245 250 1352 125 131 1353 247 248 1354 245 250 1355 245 250 1356 13 3 1357 249 132 1358 13 3 1359 245 250 1360 130 142 1361 245 250 1362 250 251 1363 130 142 1364 250 251 1365 245 250 1366 246 249 1367 250 251 1368 156 169 1369 243 247 1370 156 169 1371 250 251 1372 246 249 1373 142 155 1374 201 206 1375 141 154 1376 201 206 1377 199 203 1378 141 154 1379 183 194 1380 188 64 1381 191 67 1382 191 67 1383 182 192 1384 183 194 1385 133 145 1386 55 63 1387 256 134 1388 55 63 1389 133 145 1390 136 149 1391 171 182 1392 251 252 1393 166 179 1394 251 252 1395 171 182 1396 252 253 1397 176 187 1398 251 252 1399 252 253 1400 251 252 1401 176 187 1402 218 237 1403 252 253 1404 171 182 1405 144 159 1406 252 253 1407 144 159 1408 253 254 1409 127 140 1410 253 254 1411 126 138 1412 253 254 1413 254 255 1414 126 138 1415 253 254 1416 144 159 1417 145 157 1418 253 254 1419 145 157 1420 254 255 1421 126 138 1422 254 255 1423 120 38 1424 254 255 1425 164 175 1426 120 38 1427 254 255 1428 145 157 1429 146 156 1430 254 255 1431 146 156 1432 164 175 1433 148 163 1434 181 191 1435 184 193 1436 184 193 1437 181 191 1438 183 194 1439 177 190 1440 148 163 1441 149 161 1442 148 163 1443 177 190 1444 181 191 1445 165 178 1446 174 185 1447 175 184 1448 174 185 1449 165 178 1450 166 179 1451 251 252 1452 218 237 1453 174 185 1454 251 252 1455 174 185 1456 166 179 1457 170 180 1458 144 159 1459 171 182 1460 144 159 1461 170 180 1462 143 158 1463 143 158 1464 170 180 1465 169 181 1466 143 158 1467 169 181 1468 162 173 1469 162 173 1470 146 156 1471 143 158 1472 146 156 1473 162 173 1474 160 171 1475 243 247 1476 153 166 1477 154 167 1478 153 166 1479 243 247 1480 156 169 1481 134 148 1482 139 152 1483 131 146 1484 139 152 1485 134 148 1486 142 155 1487 133 145 1488 139 152 1489 136 149 1490 139 152 1491 133 145 1492 131 146 1493 128 1 1494 133 145 1495 256 134 1496 133 145 1497 128 1 1498 129 143 1499 132 144 1500 255 256 1501 135 147 1502 255 256 1503 132 144 1504 129 143 1505 243 247 1506 255 256 1507 250 251 1508 255 256 1509 243 247 1510 135 147 1511 130 142 1512 255 256 1513 129 143 1514 255 256 1515 130 142 1516 250 251 1517 121 54 1518 179 188 1519 127 140 1520 127 140 1521 179 188 1522 253 254 1523 253 254 1524 179 188 1525 176 187 1526 253 254 1527 176 187 1528 252 253 1529</p>
        </triangles>
      </mesh>
    </geometry>
  </library_geometries>
  <library_controllers>
    <controller id="Armature_Mouse001Tail20-skin" name="Armature">
      <skin source="#Mouse001Tail20Mesh-mesh">
        <bind_shape_matrix>-6.53824e-5 0.004615635 -0.9999906 -2.59617e-4 -0.5431667 -0.8396032 -0.003840066 -43.13607 -0.8396565 0.5431319 0.002561872 7.372135 0 0 0 1</bind_shape_matrix>
        <source id="Armature_Mouse001Tail20-skin-joints">
          <Name_array id="Armature_Mouse001Tail20-skin-joints-array" count="1">Tail20</Name_array>
          <technique_common>
            <accessor source="#Armature_Mouse001Tail20-skin-joints-array" count="1" stride="1">
              <param name="JOINT" type="name"/>
            </accessor>
          </technique_common>
        </source>
        <source id="Armature_Mouse001Tail20-skin-bind_poses">
          <float_array id="Armature_Mouse001Tail20-skin-bind_poses-array" count="16">1 -5.95748e-6 1.09497e-5 -4.19164e-4 5.95756e-6 -0.5431877 -0.8396104 -17.24105 1.09497e-5 0.8396012 -0.5431746 40.2216 0 0 0 1</float_array>
          <technique_common>
            <accessor source="#Armature_Mouse001Tail20-skin-bind_poses-array" count="1" stride="16">
              <param name="TRANSFORM" type="float4x4"/>
            </accessor>
          </technique_common>
        </source>
        <source id="Armature_Mouse001Tail20-skin-weights">
          <float_array id="Armature_Mouse001Tail20-skin-weights-array" count="257">1 1 1 1 1 1 1 1 1 1 1 1 1 1 1 1 1 1 1 1 1 1 1 1 1 1 1 1 1 1 1 1 1 1 1 1 1 1 1 1 1 1 1 1 1 1 1 1 1 1 1 1 1 1 1 1 1 1 1 1 1 1 1 1 1 1 1 1 1 1 1 1 1 1 1 1 1 1 1 1 1 1 1 1 1 1 1 1 1 1 1 1 1 1 1 1 1 1 1 1 1 1 1 1 1 1 1 1 1 1 1 1 1 1 1 1 1 1 1 1 1 1 1 1 1 1 1 1 1 1 1 1 1 1 1 1 1 1 1 1 1 1 1 1 1 1 1 1 1 1 1 1 1 1 1 1 1 1 1 1 1 1 1 1 1 1 1 1 1 1 1 1 1 1 1 1 1 1 1 1 1 1 1 1 1 1 1 1 1 1 1 1 1 1 1 1 1 1 1 1 1 1 1 1 1 1 1 1 1 1 1 1 1 1 1 1 1 1 1 1 1 1 1 1 1 1 1 1 1 1 1 1 1 1 1 1 1 1 1 1 1 1 1 1 1 1 1 1 1 1 1 1 1 1 1 1 1</float_array>
          <technique_common>
            <accessor source="#Armature_Mouse001Tail20-skin-weights-array" count="257" stride="1">
              <param name="WEIGHT" type="float"/>
            </accessor>
          </technique_common>
        </source>
        <joints>
          <input semantic="JOINT" source="#Armature_Mouse001Tail20-skin-joints"/>
          <input semantic="INV_BIND_MATRIX" source="#Armature_Mouse001Tail20-skin-bind_poses"/>
        </joints>
        <vertex_weights count="257">
          <input semantic="JOINT" source="#Armature_Mouse001Tail20-skin-joints" offset="0"/>
          <input semantic="WEIGHT" source="#Armature_Mouse001Tail20-skin-weights" offset="1"/>
          <vcount>1 1 1 1 1 1 1 1 1 1 1 1 1 1 1 1 1 1 1 1 1 1 1 1 1 1 1 1 1 1 1 1 1 1 1 1 1 1 1 1 1 1 1 1 1 1 1 1 1 1 1 1 1 1 1 1 1 1 1 1 1 1 1 1 1 1 1 1 1 1 1 1 1 1 1 1 1 1 1 1 1 1 1 1 1 1 1 1 1 1 1 1 1 1 1 1 1 1 1 1 1 1 1 1 1 1 1 1 1 1 1 1 1 1 1 1 1 1 1 1 1 1 1 1 1 1 1 1 1 1 1 1 1 1 1 1 1 1 1 1 1 1 1 1 1 1 1 1 1 1 1 1 1 1 1 1 1 1 1 1 1 1 1 1 1 1 1 1 1 1 1 1 1 1 1 1 1 1 1 1 1 1 1 1 1 1 1 1 1 1 1 1 1 1 1 1 1 1 1 1 1 1 1 1 1 1 1 1 1 1 1 1 1 1 1 1 1 1 1 1 1 1 1 1 1 1 1 1 1 1 1 1 1 1 1 1 1 1 1 1 1 1 1 1 1 1 1 1 1 1 1 1 1 1 1 1 1 </vcount>
          <v>0 0 0 1 0 2 0 3 0 4 0 5 0 6 0 7 0 8 0 9 0 10 0 11 0 12 0 13 0 14 0 15 0 16 0 17 0 18 0 19 0 20 0 21 0 22 0 23 0 24 0 25 0 26 0 27 0 28 0 29 0 30 0 31 0 32 0 33 0 34 0 35 0 36 0 37 0 38 0 39 0 40 0 41 0 42 0 43 0 44 0 45 0 46 0 47 0 48 0 49 0 50 0 51 0 52 0 53 0 54 0 55 0 56 0 57 0 58 0 59 0 60 0 61 0 62 0 63 0 64 0 65 0 66 0 67 0 68 0 69 0 70 0 71 0 72 0 73 0 74 0 75 0 76 0 77 0 78 0 79 0 80 0 81 0 82 0 83 0 84 0 85 0 86 0 87 0 88 0 89 0 90 0 91 0 92 0 93 0 94 0 95 0 96 0 97 0 98 0 99 0 100 0 101 0 102 0 103 0 104 0 105 0 106 0 107 0 108 0 109 0 110 0 111 0 112 0 113 0 114 0 115 0 116 0 117 0 118 0 119 0 120 0 121 0 122 0 123 0 124 0 125 0 126 0 127 0 128 0 129 0 130 0 131 0 132 0 133 0 134 0 135 0 136 0 137 0 138 0 139 0 140 0 141 0 142 0 143 0 144 0 145 0 146 0 147 0 148 0 149 0 150 0 151 0 152 0 153 0 154 0 155 0 156 0 157 0 158 0 159 0 160 0 161 0 162 0 163 0 164 0 165 0 166 0 167 0 168 0 169 0 170 0 171 0 172 0 173 0 174 0 175 0 176 0 177 0 178 0 179 0 180 0 181 0 182 0 183 0 184 0 185 0 186 0 187 0 188 0 189 0 190 0 191 0 192 0 193 0 194 0 195 0 196 0 197 0 198 0 199 0 200 0 201 0 202 0 203 0 204 0 205 0 206 0 207 0 208 0 209 0 210 0 211 0 212 0 213 0 214 0 215 0 216 0 217 0 218 0 219 0 220 0 221 0 222 0 223 0 224 0 225 0 226 0 227 0 228 0 229 0 230 0 231 0 232 0 233 0 234 0 235 0 236 0 237 0 238 0 239 0 240 0 241 0 242 0 243 0 244 0 245 0 246 0 247 0 248 0 249 0 250 0 251 0 252 0 253 0 254 0 255 0 256</v>
        </vertex_weights>
      </skin>
    </controller>
  </library_controllers>
  <library_visual_scenes>
    <visual_scene id="Scene" name="Scene">
      <node id="Mouse001Tail20" name="Mouse001Tail20" type="NODE">
        <matrix sid="transform">-6.53824e-5 0.004615635 -0.9999906 -2.56591e-4 -0.5431667 -0.8396032 -0.003840066 -30.55359 -0.8396565 0.5431319 0.002561872 2.10055 0 0 0 1</matrix>
        <instance_geometry url="#Mouse001Tail20Mesh-mesh" name="Mouse001Tail20"/>
      </node>
    </visual_scene>
  </library_visual_scenes>
  <scene>
    <instance_visual_scene url="#Scene"/>
  </scene>
</COLLADA>